# Export of Cubik Model: Cubik Model
# Designed by MeLee with Cubik Studio - https://cubik.studio
# from Cubik OBJ Exporter v1.0
mtllib street_32_sidewalk_4.mtl
v 0 0 1.907349E-06
v -32 0 1.907349E-06
v 0 2 1.907349E-06
v -32 2 1.907349E-06
v 0 0 1.907349E-06
v -32 0 1.907349E-06
v 0 1.907349E-06 -32
v -32 1.907349E-06 -32
v 0 0 1.907349E-06
v 0 2 1.907349E-06
v 0 1.907349E-06 -32
v 0 2.000002 -32
v 0 1.907349E-06 -32
v -32 1.907349E-06 -32
v 0 2.000002 -32
v -32 2.000002 -32
v 0 2 1.907349E-06
v -32 2 1.907349E-06
v 0 2.000002 -32
v -32 2.000002 -32
v -32 0 1.907349E-06
v -32 2 1.907349E-06
v -32 1.907349E-06 -32
v -32 2.000002 -32
vn 0 -5.960464E-08 0.9999999
vn 0 -0.9999999 -5.960464E-08
vn 1 0 0
vn 0 5.960464E-08 -0.9999999
vn 0 0.9999999 5.960464E-08
vn -1 0 0
vt 0.0078125 0.5351563
vt 0.5078125 0.5351563
vt 0.0078125 0.5507813
vt 0.5078125 0.5507813
vt 0.0078125 0.00390625
vt 0.5078125 0.00390625
vt 0.0078125 0.2539063
vt 0.5078125 0.2539063
vt 0.5390625 0.00390625
vt 0.5703125 0.00390625
vt 0.5390625 0.2539063
vt 0.5703125 0.2539063
vt 0.0078125 0.5664063
vt 0.5078125 0.5664063
vt 0.0078125 0.5820313
vt 0.5078125 0.5820313
vt 0.0078125 0.2695313
vt 0.5078125 0.2695313
vt 0.0078125 0.5195313
vt 0.5078125 0.5195313
vt 0.6015625 0.00390625
vt 0.6328125 0.00390625
vt 0.6015625 0.2539063
vt 0.6328125 0.2539063
usemtl voxel
f 2/2/1 1/1/1 3/3/1
f 2/2/1 3/3/1 4/4/1
f 5/5/2 6/6/2 7/7/2
f 7/7/2 6/6/2 8/8/2
f 10/10/3 9/9/3 11/11/3
f 10/10/3 11/11/3 12/12/3
f 13/13/4 14/14/4 15/15/4
f 15/15/4 14/14/4 16/16/4
f 18/18/5 17/17/5 19/19/5
f 18/18/5 19/19/5 20/20/5
f 21/21/6 22/22/6 23/23/6
f 23/23/6 22/22/6 24/24/6
