%YAML 1.1
%TAG !u! tag:unity3d.com,2011:
--- !u!114 &11400000
MonoBehaviour:
  m_ObjectHideFlags: 0
  m_CorrespondingSourceObject: {fileID: 0}
  m_PrefabInstance: {fileID: 0}
  m_PrefabAsset: {fileID: 0}
  m_GameObject: {fileID: 0}
  m_Enabled: 1
  m_EditorHideFlags: 0
  m_Script: {fileID: 11500000, guid: b9883fbad6966bf43a59e2ea6c9b4f87, type: 3}
  m_Name: KarenPerkSO
  m_EditorClassIdentifier: 
  perkType: 6
  title: Karen Passive Perk
  description: 
  price: 0
  icon: {fileID: 0}
  healingDelayPercentDecrease: 0.5
