%YAML 1.1
%TAG !u! tag:unity3d.com,2011:
--- !u!78 &1
TagManager:
  serializedVersion: 2
  tags:
  - GroundMask
  - Enemy
  - HUD
  - NoSnap
  - Spawner
  - RoundSystem
  - Bait
  layers:
  - Default
  - TransparentFX
  - Ignore Raycast
  - Outlined
  - Water
  - UI
  - 
  - 
  - PostProcessing
  - GroundMask
  - Shootable
  - MenuUI
  - 
  - 
  - 
  - 
  - 
  - 
  - 
  - 
  - 
  - 
  - 
  - 
  - 
  - 
  - 
  - 
  - 
  - 
  - 
  - 
  m_SortingLayers:
  - name: Default
    uniqueID: 0
    locked: 0
