{
    "name": "TestsPlayMode",
    "references": [],
    "optionalUnityReferences": [
        "TestAssemblies"
    ],
    "includePlatforms": [],
    "excludePlatforms": [],
    "allowUnsafeCode": false,
    "overrideReferences": false,
    "precompiledReferences": [],
    "autoReferenced": true,
    "defineConstraints": []
}