# Export of Cubik Model: Cubik Model
# Designed by MeLee with Cubik Studio - https://cubik.studio
# from Cubik OBJ Exporter v1.0
mtllib weapons_crate.mtl
v 4 1.0625 0.2500024
v 3.875 1.0625 0.2500024
v 4 1.4375 0.2500024
v 3.875 1.4375 0.2500024
v 3.875 1.0625 0.2500024
v 4 1.0625 0.2500024
v 4 1.0625 -0.2499976
v 3.875 1.0625 -0.2499976
v 4 1.0625 0.2500024
v 4 1.4375 0.2500024
v 4 1.0625 -0.2499976
v 4 1.4375 -0.2499976
v 3.875 1.4375 0.2500024
v 3.875 1.0625 0.2500024
v 3.875 1.0625 -0.2499976
v 3.875 1.4375 -0.2499976
v 3.875 1.0625 -0.2499976
v 4 1.0625 -0.2499976
v 4 1.4375 -0.2499976
v 3.875 1.4375 -0.2499976
v 4 1.4375 0.2500024
v 3.875 1.4375 0.2500024
v 4 1.4375 -0.2499976
v 3.875 1.4375 -0.2499976
v 3.875 0.1875 0.2500005
v 3.75 0.1875 0.2500005
v 3.875 0.3125 0.2500005
v 3.75 0.3125 0.2500005
v 3.75 0.1875 0.2500005
v 3.875 0.1875 0.2500005
v 3.875 0.1875 -0.2499976
v 3.75 0.1875 -0.2499976
v 3.875 0.3125 0.2500005
v 3.75 0.3125 0.2500005
v 3.875 0.3125 -0.2499976
v 3.75 0.3125 -0.2499976
v 3.875 0.1875 0.2500005
v 3.875 0.3125 0.2500005
v 3.875 0.1875 -0.2499976
v 3.875 0.3125 -0.2499976
v 3.75 0.3125 0.2500005
v 3.75 0.1875 0.2500005
v 3.75 0.1875 -0.2499976
v 3.75 0.3125 -0.2499976
v 3.75 0.1875 -0.2499976
v 3.875 0.1875 -0.2499976
v 3.875 0.3125 -0.2499976
v 3.75 0.3125 -0.2499976
v 3.875 0.6875 0.2500024
v 3.75 0.6875 0.2500024
v 3.875 1.0625 0.2500024
v 3.75 1.0625 0.2500024
v 3.75 0.6875 0.2500024
v 3.875 0.6875 0.2500024
v 3.875 0.6875 -0.2499976
v 3.75 0.6875 -0.2499976
v 3.875 0.6875 0.2500024
v 3.875 1.0625 0.2500024
v 3.875 0.6875 -0.2499976
v 3.875 1.0625 -0.2499976
v 3.75 1.0625 0.2500024
v 3.75 0.6875 0.2500024
v 3.75 0.6875 -0.2499976
v 3.75 1.0625 -0.2499976
v 3.75 0.6875 -0.2499976
v 3.875 0.6875 -0.2499976
v 3.875 1.0625 -0.2499976
v 3.75 1.0625 -0.2499976
v 3.875 1.0625 0.2500024
v 3.75 1.0625 0.2500024
v 3.875 1.0625 -0.2499976
v 3.75 1.0625 -0.2499976
v 3.875 1.4375 0.2500024
v 3.625 1.4375 0.2500024
v 3.875 1.5625 0.2500024
v 3.625 1.5625 0.2500024
v 3.625 1.4375 0.2500024
v 3.875 1.4375 0.2500024
v 3.875 1.4375 -0.2499976
v 3.625 1.4375 -0.2499976
v 3.875 1.5625 0.2500024
v 3.75 1.5625 0.2500024
v 3.875 1.5625 -0.2499976
v 3.75 1.5625 -0.2499976
v 3.875 1.4375 0.2500024
v 3.875 1.5625 0.2500024
v 3.875 1.4375 -0.2499976
v 3.875 1.5625 -0.2499976
v 3.625 1.4375 -0.2499976
v 3.875 1.4375 -0.2499976
v 3.875 1.5625 -0.2499976
v 3.625 1.5625 -0.2499976
v 3.75 0.3125 0.2500005
v 3.625 0.3125 0.2500005
v 3.75 0.6875 0.2500024
v 3.625 0.6875 0.2500024
v 3.375 0.3125 0.2500005
v 3.75 0.3125 0.2500005
v 3.75 0.3125 -0.2499976
v 3.375 0.3125 -0.2499976
v 3.75 0.3125 0.2500005
v 3.75 0.6875 0.2500024
v 3.75 0.3125 -0.2499976
v 3.75 0.6875 -0.2499976
v 3.625 0.3125 -0.2499976
v 3.75 0.3125 -0.2499976
v 3.75 0.6875 -0.2499976
v 3.625 0.6875 -0.2499976
v 3.75 0.6875 0.2500024
v 3.625 0.6875 0.2500024
v 3.75 0.6875 -0.2499976
v 3.625 0.6875 -0.2499976
v 3.75 1.5625 0.2500024
v 3.625 1.5625 0.2500024
v 3.75 1.5625 0.1250024
v 3.625 1.5625 0.1250024
v 3.75 1.5625 -0.1249976
v 3.625 1.5625 -0.1249976
v 3.75 1.5625 -0.2499976
v 3.625 1.5625 -0.2499976
v 3.75 1.5625 0.1250024
v 3.625 1.5625 0.1250024
v 3.75 1.6875 0.1250024
v 3.625 1.6875 0.1250024
v 3.75 1.6875 0.1250024
v 3.625 1.6875 0.1250024
v 3.75 1.6875 -0.1249976
v 3.625 1.6875 -0.1249976
v 3.75 1.5625 0.1250024
v 3.75 1.6875 0.1250024
v 3.75 1.5625 -0.1249976
v 3.75 1.6875 -0.1249976
v 3.625 1.5625 -0.1249976
v 3.75 1.5625 -0.1249976
v 3.75 1.6875 -0.1249976
v 3.625 1.6875 -0.1249976
v 3.625 -1.8125 9.000001
v 2.125 -1.8125 9.000001
v 3.625 0.1875 9.000001
v 2.125 0.1875 9.000001
v 3.5 -1.8125 9.000001
v 3.625 -1.8125 9.000001
v 3.625 -1.8125 -9.000002
v 3.5 -1.8125 -9.000002
v 3.625 -1.8125 9.000001
v 3.625 0.1875 9.000001
v 3.625 -1.8125 -9.000002
v 3.625 0.1875 -9.000002
v 2.125 -1.8125 -9.000002
v 3.625 -1.8125 -9.000002
v 3.625 0.1875 -9.000002
v 2.125 0.1875 -9.000002
v 3.625 0.1875 9.000001
v 3.375 0.1875 9.000001
v 3.625 0.1875 -9.000002
v 3.375 0.1875 -9.000002
v 3.625 0.3125 9.000001
v 2.125 0.3125 9.000001
v 3.625 2.3125 9.000002
v 2.125 2.3125 9.000002
v 3.375 0.3125 9.000001
v 3.625 0.3125 9.000001
v 3.625 0.3125 0.2500005
v 3.375 0.3125 0.2500005
v 3.625 0.3125 9.000001
v 3.625 2.3125 9.000002
v 3.625 0.3125 0.2500005
v 3.625 2.3125 0.2500024
v 3.375 0.3125 -0.2499976
v 3.625 0.3125 -0.2499976
v 3.625 0.3125 -9.000002
v 3.375 0.3125 -9.000002
v 3.625 0.3125 -0.2499976
v 3.625 2.3125 -0.2499976
v 3.625 0.3125 -9.000002
v 3.625 2.3125 -9.000002
v 2.125 0.3125 -9.000002
v 3.625 0.3125 -9.000002
v 3.625 2.3125 -9.000002
v 2.125 2.3125 -9.000002
v 3.625 0.6875 0.2500024
v 3.625 1.4375 0.2500024
v 3.625 0.6875 -0.2499976
v 3.625 1.4375 -0.2499976
v 3.625 1.5625 0.2500024
v 3.625 2.3125 0.2500024
v 3.625 1.5625 0.1250024
v 3.625 2.3125 0.1250024
v 3.625 1.5625 -0.1249976
v 3.625 2.3125 -0.1249976
v 3.625 1.5625 -0.2499976
v 3.625 2.3125 -0.2499976
v 3.625 1.6875 0.1250024
v 3.625 2.3125 0.1250024
v 3.625 1.6875 -0.1249976
v 3.625 2.3125 -0.1249976
v 3.625 2.3125 9.000002
v 3.375 2.3125 9.000002
v 3.625 2.3125 -9.000002
v 3.375 2.3125 -9.000002
v 3.5 -2.3125 7.5
v -3.75 -2.3125 7.5
v 3.5 -2.1875 7.5
v -3.75 -2.1875 7.5
v 3.375 -2.3125 7.5
v 3.5 -2.3125 7.5
v 3.5 -2.3125 6.625
v 3.375 -2.3125 6.625
v 3.5 -2.3125 7.5
v 3.5 -1.8125 7.5
v 3.5 -2.3125 6.625
v 3.5 -1.8125 6.625
v -3.75 -2.3125 6.625
v 3.5 -2.3125 6.625
v 3.5 -2.1875 6.625
v -3.75 -2.1875 6.625
v 3.5 -2.3125 -6.625001
v -3.75 -2.3125 -6.625001
v 3.5 -2.1875 -6.625001
v -3.75 -2.1875 -6.625001
v 3.375 -2.3125 -6.625001
v 3.5 -2.3125 -6.625001
v 3.5 -2.3125 -7.500001
v 3.375 -2.3125 -7.500001
v 3.5 -2.3125 -6.625001
v 3.5 -1.8125 -6.625001
v 3.5 -2.3125 -7.500001
v 3.5 -1.8125 -7.500001
v -3.75 -2.3125 -7.500001
v 3.5 -2.3125 -7.500001
v 3.5 -2.1875 -7.500001
v -3.75 -2.1875 -7.500001
v 3.5 -2.1875 8.625
v 3.25 -2.1875 8.625
v 3.5 -1.8125 8.625
v 3.25 -1.8125 8.625
v 1.875 -2.1875 8.625
v 3.5 -2.1875 8.625
v 3.5 -2.1875 7.5
v 1.875 -2.1875 7.5
v 3.5 -2.1875 8.625
v 3.5 -1.8125 8.625
v 3.5 -2.1875 7.5
v 3.5 -1.8125 7.5
v 1.875 -2.1875 6.625
v 3.5 -2.1875 6.625
v 3.5 -2.1875 -6.625001
v 1.875 -2.1875 -6.625001
v 3.5 -2.1875 6.625
v 3.5 -1.8125 6.625
v 3.5 -2.1875 -6.625001
v 3.5 -1.8125 -6.625001
v 1.875 -2.1875 -7.500001
v 3.5 -2.1875 -7.500001
v 3.5 -2.1875 -8.625002
v 1.875 -2.1875 -8.625002
v 3.5 -2.1875 -7.500001
v 3.5 -1.8125 -7.500001
v 3.5 -2.1875 -8.625002
v 3.5 -1.8125 -8.625002
v 3.25 -2.1875 -8.625002
v 3.5 -2.1875 -8.625002
v 3.5 -1.8125 -8.625002
v 3.25 -1.8125 -8.625002
v 3.25 -1.8125 9.000001
v 3.5 -1.8125 9.000001
v 3.5 -1.8125 8.625
v 3.25 -1.8125 8.625
v 3.25 -1.8125 -8.625002
v 3.5 -1.8125 -8.625002
v 3.5 -1.8125 -9.000002
v 3.25 -1.8125 -9.000002
v 3.375 -2.4375 7.5
v -3.625 -2.4375 7.5
v 3.375 -2.3125 7.5
v -3.625 -2.3125 7.5
v 3.25 -2.4375 7.5
v 3.375 -2.4375 7.5
v 3.375 -2.4375 6.625
v 3.25 -2.4375 6.625
v 3.375 -2.4375 7.5
v 3.375 -2.3125 7.5
v 3.375 -2.4375 6.625
v 3.375 -2.3125 6.625
v -3.625 -2.4375 6.625
v 3.375 -2.4375 6.625
v 3.375 -2.3125 6.625
v -3.625 -2.3125 6.625
v 3.375 -2.4375 -6.625001
v -3.625 -2.4375 -6.625001
v 3.375 -2.3125 -6.625001
v -3.625 -2.3125 -6.625001
v 3.25 -2.4375 -6.625001
v 3.375 -2.4375 -6.625001
v 3.375 -2.4375 -7.500001
v 3.25 -2.4375 -7.500001
v 3.375 -2.4375 -6.625001
v 3.375 -2.3125 -6.625001
v 3.375 -2.4375 -7.500001
v 3.375 -2.3125 -7.500001
v -3.625 -2.4375 -7.500001
v 3.375 -2.4375 -7.500001
v 3.375 -2.3125 -7.500001
v -3.625 -2.3125 -7.500001
v 3.25 2.3125 8.625002
v 3.25 -1.8125 8.625
v 3.25 -1.8125 -8.625002
v 3.25 2.3125 -8.625002
v 3.375 0.1875 9.000001
v 2.125 0.1875 9.000001
v 3.375 0.3125 9.000001
v 2.125 0.3125 9.000001
v 3.375 0.1875 9.000001
v 3.375 0.3125 9.000001
v 3.375 0.1875 -9.000002
v 3.375 0.3125 -9.000002
v 2.125 0.1875 -9.000002
v 3.375 0.1875 -9.000002
v 3.375 0.3125 -9.000002
v 2.125 0.3125 -9.000002
v 3.375 2.3125 9.000002
v 3.25 2.3125 9.000002
v 3.375 2.3125 0.1250024
v 3.25 2.3125 0.1250024
v 3.375 2.3125 -0.1249976
v 3.25 2.3125 -0.1249976
v 3.375 2.3125 -9.000002
v 3.25 2.3125 -9.000002
v 3.375 2.3125 0.1250024
v 3.25 2.3125 0.1250024
v 3.375 2.4375 0.1250024
v 3.25 2.4375 0.1250024
v 3.375 2.4375 0.1250024
v 3.25 2.4375 0.1250024
v 3.375 2.4375 -0.1249976
v 3.25 2.4375 -0.1249976
v 3.375 2.3125 0.1250024
v 3.375 2.4375 0.1250024
v 3.375 2.3125 -0.1249976
v 3.375 2.4375 -0.1249976
v 3.25 2.4375 0.1250024
v 3.25 2.3125 0.1250024
v 3.25 2.3125 -0.1249976
v 3.25 2.4375 -0.1249976
v 3.25 2.3125 -0.1249976
v 3.375 2.3125 -0.1249976
v 3.375 2.4375 -0.1249976
v 3.25 2.4375 -0.1249976
v 3.25 -2.5625 7.5
v -3.5 -2.5625 7.5
v 3.25 -2.4375 7.5
v -3.5 -2.4375 7.5
v 3.125 -2.5625 7.5
v 3.25 -2.5625 7.5
v 3.25 -2.5625 6.625
v 3.125 -2.5625 6.625
v 3.25 -2.5625 7.5
v 3.25 -2.4375 7.5
v 3.25 -2.5625 6.625
v 3.25 -2.4375 6.625
v -3.5 -2.5625 6.625
v 3.25 -2.5625 6.625
v 3.25 -2.4375 6.625
v -3.5 -2.4375 6.625
v 3.25 -2.5625 -6.625001
v -3.5 -2.5625 -6.625001
v 3.25 -2.4375 -6.625001
v -3.5 -2.4375 -6.625001
v 3.125 -2.5625 -6.625001
v 3.25 -2.5625 -6.625001
v 3.25 -2.5625 -7.500001
v 3.125 -2.5625 -7.500001
v 3.25 -2.5625 -6.625001
v 3.25 -2.4375 -6.625001
v 3.25 -2.5625 -7.500001
v 3.25 -2.4375 -7.500001
v -3.5 -2.5625 -7.500001
v 3.25 -2.5625 -7.500001
v 3.25 -2.4375 -7.500001
v -3.5 -2.4375 -7.500001
v 3.25 -2.1875 9.000001
v 2.125 -2.1875 9.000001
v 3.25 -1.8125 9.000001
v 2.125 -1.8125 9.000001
v 2.125 -2.1875 9.000001
v 3.25 -2.1875 9.000001
v 3.25 -2.1875 8.625
v 2.125 -2.1875 8.625
v 3.25 -2.1875 9.000001
v 3.25 -1.8125 9.000001
v 3.25 -2.1875 8.625
v 3.25 -1.8125 8.625
v 2.125 -2.1875 -8.625002
v 3.25 -2.1875 -8.625002
v 3.25 -2.1875 -9.000002
v 2.125 -2.1875 -9.000002
v 3.25 -2.1875 -8.625002
v 3.25 -1.8125 -8.625002
v 3.25 -2.1875 -9.000002
v 3.25 -1.8125 -9.000002
v 2.125 -2.1875 -9.000002
v 3.25 -2.1875 -9.000002
v 3.25 -1.8125 -9.000002
v 2.125 -1.8125 -9.000002
v 3.25 -1.8125 8.625
v 3.125 -1.8125 8.625
v 3.25 -1.8125 -8.625002
v 3.125 -1.8125 -8.625002
v 3.125 -1.8125 8.625
v 3.25 -1.8125 8.625
v 3.25 2.6875 8.625002
v 3.125 2.6875 8.625002
v 3.25 -1.8125 -8.625002
v 3.125 -1.8125 -8.625002
v 3.25 2.6875 -8.625002
v 3.125 2.6875 -8.625002
v 3.25 2.3125 9.000002
v 2.125 2.3125 9.000002
v 3.25 2.6875 9.000002
v 2.125 2.6875 9.000002
v 3.25 2.3125 9.000002
v 3.25 2.6875 9.000002
v 3.25 2.3125 8.625002
v 3.25 2.6875 8.625002
v 3.25 2.3125 -8.625002
v 3.25 2.6875 -8.625002
v 3.25 2.3125 -9.000002
v 3.25 2.6875 -9.000002
v 2.125 2.3125 -9.000002
v 3.25 2.3125 -9.000002
v 3.25 2.6875 -9.000002
v 2.125 2.6875 -9.000002
v 3.25 2.6875 9.000002
v 2.125 2.6875 9.000002
v 3.25 2.6875 8.625002
v 2.125 2.6875 8.625002
v 3.25 2.6875 -8.625002
v 2.125 2.6875 -8.625002
v 3.25 2.6875 -9.000002
v 2.125 2.6875 -9.000002
v 3.125 -2.6875 7.5
v -3.375 -2.6875 7.5
v 3.125 -2.5625 7.5
v -3.375 -2.5625 7.5
v -3.375 -2.6875 7.5
v 3.125 -2.6875 7.5
v 3.125 -2.6875 6.625
v -3.375 -2.6875 6.625
v 3.125 -2.6875 7.5
v 3.125 -2.5625 7.5
v 3.125 -2.6875 6.625
v 3.125 -2.5625 6.625
v -3.375 -2.6875 6.625
v 3.125 -2.6875 6.625
v 3.125 -2.5625 6.625
v -3.375 -2.5625 6.625
v 3.125 -2.6875 -6.625001
v -3.375 -2.6875 -6.625001
v 3.125 -2.5625 -6.625001
v -3.375 -2.5625 -6.625001
v -3.375 -2.6875 -6.625001
v 3.125 -2.6875 -6.625001
v 3.125 -2.6875 -7.500001
v -3.375 -2.6875 -7.500001
v 3.125 -2.6875 -6.625001
v 3.125 -2.5625 -6.625001
v 3.125 -2.6875 -7.500001
v 3.125 -2.5625 -7.500001
v -3.375 -2.6875 -7.500001
v 3.125 -2.6875 -7.500001
v 3.125 -2.5625 -7.500001
v -3.375 -2.5625 -7.500001
v 3.125 -1.8125 8.25
v -3.5 -1.8125 8.25
v 3.125 -1.8125 -8.250002
v -3.5 -1.8125 -8.250002
v 3.125 -1.8125 8.625
v 3.125 0.1875 8.625
v 3.125 -1.8125 8.25
v 3.125 0.1875 8.25
v -3.375 -1.8125 8.25
v 3.125 -1.8125 8.25
v 3.125 2.3125 8.250002
v -3.375 2.3125 8.250002
v 3.125 -1.8125 -8.250002
v -3.375 -1.8125 -8.250002
v 3.125 2.3125 -8.250002
v -3.375 2.3125 -8.250002
v 3.125 -1.8125 -8.250002
v 3.125 0.1875 -8.250002
v 3.125 -1.8125 -8.625002
v 3.125 0.1875 -8.625002
v 3.125 0.1875 8.625
v -3.375 0.1875 8.625
v 3.125 0.1875 8.375
v -3.375 0.1875 8.375
v 3.125 0.1875 -8.375002
v -3.375 0.1875 -8.375002
v 3.125 0.1875 -8.625002
v -3.375 0.1875 -8.625002
v 2.125 0.1875 8.625
v 3.125 0.1875 8.625
v 3.125 0.3125 8.625
v 2.125 0.3125 8.625
v 3.125 0.1875 8.375
v -3.375 0.1875 8.375
v 3.125 0.3125 8.375
v -3.375 0.3125 8.375
v 3.125 0.1875 8.375
v 3.125 2.3125 8.375002
v 3.125 0.1875 8.25
v 3.125 2.3125 8.250002
v -3.375 0.1875 -8.375002
v 3.125 0.1875 -8.375002
v 3.125 0.3125 -8.375002
v -3.375 0.3125 -8.375002
v 3.125 0.1875 -8.250002
v 3.125 2.3125 -8.250002
v 3.125 0.1875 -8.375002
v 3.125 2.3125 -8.375002
v 3.125 0.1875 -8.625002
v 2.125 0.1875 -8.625002
v 3.125 0.3125 -8.625002
v 2.125 0.3125 -8.625002
v -3.375 0.3125 8.625
v 3.125 0.3125 8.625
v 3.125 0.3125 8.375
v -3.375 0.3125 8.375
v 3.125 0.3125 8.625
v 3.125 2.3125 8.625002
v 3.125 0.3125 8.375
v 3.125 2.3125 8.375002
v -3.375 0.3125 -8.375002
v 3.125 0.3125 -8.375002
v 3.125 0.3125 -8.625002
v -3.375 0.3125 -8.625002
v 3.125 0.3125 -8.375002
v 3.125 2.3125 -8.375002
v 3.125 0.3125 -8.625002
v 3.125 2.3125 -8.625002
v 3.125 2.3125 8.625002
v -3.375 2.3125 8.625002
v 3.125 2.3125 8.250002
v -3.375 2.3125 8.250002
v 3.125 2.3125 -8.250002
v -3.375 2.3125 -8.250002
v 3.125 2.3125 -8.625002
v -3.375 2.3125 -8.625002
v 2.125 2.3125 8.625002
v 3.125 2.3125 8.625002
v 3.125 2.6875 8.625002
v 2.125 2.6875 8.625002
v 3.125 2.3125 -8.625002
v 2.125 2.3125 -8.625002
v 3.125 2.6875 -8.625002
v 2.125 2.6875 -8.625002
v 2.125 2.6875 9.000002
v 2.125 -2.1875 9.000001
v 2.125 -2.1875 8.625
v 2.125 2.6875 8.625002
v 2.125 2.6875 -8.625002
v 2.125 -2.1875 -8.625002
v 2.125 -2.1875 -9.000002
v 2.125 2.6875 -9.000002
v 2.125 -2.1875 8.625
v 1.875 -2.1875 8.625
v 2.125 0.1875 8.625
v 1.875 0.1875 8.625
v 1.875 -2.1875 -8.625002
v 2.125 -2.1875 -8.625002
v 2.125 0.1875 -8.625002
v 1.875 0.1875 -8.625002
v 2.125 0.3125 8.625
v -2.375 0.3125 8.625
v 2.125 2.3125 8.625002
v -2.375 2.3125 8.625002
v -2.375 0.3125 -8.625002
v 2.125 0.3125 -8.625002
v 2.125 2.3125 -8.625002
v -2.375 2.3125 -8.625002
v 1.875 -1.9375 8.625
v 1.875 -2.1875 8.625
v 1.875 -2.1875 -8.625002
v 1.875 -1.9375 -8.625002
v 1.875 -2.1875 7.5
v 1.75 -2.1875 7.5
v 1.875 -2.1875 6.625
v 1.75 -2.1875 6.625
v 1.875 -2.1875 -6.625001
v 1.75 -2.1875 -6.625001
v 1.875 -2.1875 -7.500001
v 1.75 -2.1875 -7.500001
v 1.875 -1.9375 8.625
v -2.375 -1.9375 8.625
v 1.875 0.1875 8.625
v -2.375 0.1875 8.625
v 1.75 -1.9375 8.625
v 1.875 -1.9375 8.625
v 1.875 -1.9375 -8.625002
v 1.75 -1.9375 -8.625002
v -2.375 -1.9375 -8.625002
v 1.875 -1.9375 -8.625002
v 1.875 0.1875 -8.625002
v -2.375 0.1875 -8.625002
v 1.75 -2.1875 8.625
v 0 -2.1875 8.625
v 1.75 -1.9375 8.625
v 0 -1.9375 8.625
v 0 -2.1875 8.625
v 1.75 -2.1875 8.625
v 1.75 -2.1875 7.5
v 0 -2.1875 7.5
v 1.75 -2.1875 8.625
v 1.75 -1.9375 8.625
v 1.75 -2.1875 -8.625002
v 1.75 -1.9375 -8.625002
v 0 -2.1875 6.625
v 1.75 -2.1875 6.625
v 1.75 -2.1875 -6.625001
v 0 -2.1875 -6.625001
v 0 -2.1875 -7.500001
v 1.75 -2.1875 -7.500001
v 1.75 -2.1875 -8.625002
v 0 -2.1875 -8.625002
v 0 -2.1875 -8.625002
v 1.75 -2.1875 -8.625002
v 1.75 -1.9375 -8.625002
v 0 -1.9375 -8.625002
v 0 -1.9375 8.625
v 0 -2.1875 8.625
v 0 -2.1875 -8.625002
v 0 -1.9375 -8.625002
v 0 -2.1875 7.5
v -0.125 -2.1875 7.5
v 0 -2.1875 6.625
v -0.125 -2.1875 6.625
v 0 -2.1875 -6.625001
v -0.125 -2.1875 -6.625001
v 0 -2.1875 -7.500001
v -0.125 -2.1875 -7.500001
v -0.125 -1.9375 8.625
v 0 -1.9375 8.625
v 0 -1.9375 -8.625002
v -0.125 -1.9375 -8.625002
v -0.125 -2.1875 8.625
v -1.875 -2.1875 8.625
v -0.125 -1.9375 8.625
v -1.875 -1.9375 8.625
v -1.875 -2.1875 8.625
v -0.125 -2.1875 8.625
v -0.125 -2.1875 7.5
v -1.875 -2.1875 7.5
v -0.125 -2.1875 8.625
v -0.125 -1.9375 8.625
v -0.125 -2.1875 -8.625002
v -0.125 -1.9375 -8.625002
v -1.875 -2.1875 6.625
v -0.125 -2.1875 6.625
v -0.125 -2.1875 -6.625001
v -1.875 -2.1875 -6.625001
v -1.875 -2.1875 -7.500001
v -0.125 -2.1875 -7.500001
v -0.125 -2.1875 -8.625002
v -1.875 -2.1875 -8.625002
v -1.875 -2.1875 -8.625002
v -0.125 -2.1875 -8.625002
v -0.125 -1.9375 -8.625002
v -1.875 -1.9375 -8.625002
v -1.875 -1.9375 8.625
v -1.875 -2.1875 8.625
v -1.875 -2.1875 -8.625002
v -1.875 -1.9375 -8.625002
v -1.875 -2.1875 7.5
v -2 -2.1875 7.5
v -1.875 -2.1875 6.625
v -2 -2.1875 6.625
v -1.875 -2.1875 -6.625001
v -2 -2.1875 -6.625001
v -1.875 -2.1875 -7.500001
v -2 -2.1875 -7.500001
v -2 -1.9375 8.625
v -1.875 -1.9375 8.625
v -1.875 -1.9375 -8.625002
v -2 -1.9375 -8.625002
v -2 -2.1875 8.625
v -2.375 -2.1875 8.625
v -2 -1.9375 8.625
v -2.375 -1.9375 8.625
v -3.75 -2.1875 8.625
v -2 -2.1875 8.625
v -2 -2.1875 7.5
v -3.75 -2.1875 7.5
v -2 -2.1875 8.625
v -2 -1.9375 8.625
v -2 -2.1875 -8.625002
v -2 -1.9375 -8.625002
v -3.75 -2.1875 6.625
v -2 -2.1875 6.625
v -2 -2.1875 -6.625001
v -3.75 -2.1875 -6.625001
v -3.75 -2.1875 -7.500001
v -2 -2.1875 -7.500001
v -2 -2.1875 -8.625002
v -3.75 -2.1875 -8.625002
v -2.375 -2.1875 -8.625002
v -2 -2.1875 -8.625002
v -2 -1.9375 -8.625002
v -2.375 -1.9375 -8.625002
v -2.375 -2.1875 9.000001
v -3.5 -2.1875 9.000001
v -2.375 2.6875 9.000002
v -3.5 2.6875 9.000002
v -3.5 -2.1875 9.000001
v -2.375 -2.1875 9.000001
v -2.375 -2.1875 8.625
v -3.5 -2.1875 8.625
v -2.375 -2.1875 9.000001
v -2.375 2.6875 9.000002
v -2.375 -2.1875 8.625
v -2.375 2.6875 8.625002
v -3.5 -2.1875 -8.625002
v -2.375 -2.1875 -8.625002
v -2.375 -2.1875 -9.000002
v -3.5 -2.1875 -9.000002
v -2.375 -2.1875 -8.625002
v -2.375 2.6875 -8.625002
v -2.375 -2.1875 -9.000002
v -2.375 2.6875 -9.000002
v -3.5 -2.1875 -9.000002
v -2.375 -2.1875 -9.000002
v -2.375 2.6875 -9.000002
v -3.5 2.6875 -9.000002
v -3.5 0.1875 8.625
v -2.375 0.1875 8.625
v -2.375 0.3125 8.625
v -3.5 0.3125 8.625
v -2.375 0.1875 -8.625002
v -3.5 0.1875 -8.625002
v -2.375 0.3125 -8.625002
v -3.5 0.3125 -8.625002
v -3.5 2.3125 8.625002
v -2.375 2.3125 8.625002
v -2.375 2.6875 8.625002
v -3.5 2.6875 8.625002
v -2.375 2.3125 -8.625002
v -3.5 2.3125 -8.625002
v -2.375 2.6875 -8.625002
v -3.5 2.6875 -8.625002
v -2.375 2.6875 9.000002
v -3.5 2.6875 9.000002
v -2.375 2.6875 8.625002
v -3.5 2.6875 8.625002
v -2.375 2.6875 -8.625002
v -3.5 2.6875 -8.625002
v -2.375 2.6875 -9.000002
v -3.5 2.6875 -9.000002
v -3.375 -2.5625 7.5
v -3.375 -2.6875 7.5
v -3.375 -2.6875 6.625
v -3.375 -2.5625 6.625
v -3.375 -2.5625 -6.625001
v -3.375 -2.6875 -6.625001
v -3.375 -2.6875 -7.500001
v -3.375 -2.5625 -7.500001
v -3.375 0.1875 8.625
v -3.375 -1.8125 8.625
v -3.375 -1.8125 8.25
v -3.375 0.1875 8.25
v -3.375 0.1875 -8.250002
v -3.375 -1.8125 -8.250002
v -3.375 -1.8125 -8.625002
v -3.375 0.1875 -8.625002
v -3.375 2.3125 8.375002
v -3.375 0.1875 8.375
v -3.375 0.1875 8.25
v -3.375 2.3125 8.250002
v -3.375 2.3125 -8.250002
v -3.375 0.1875 -8.250002
v -3.375 0.1875 -8.375002
v -3.375 2.3125 -8.375002
v -3.375 2.3125 8.625002
v -3.375 0.3125 8.625
v -3.375 0.3125 8.375
v -3.375 2.3125 8.375002
v -3.375 2.3125 -8.375002
v -3.375 0.3125 -8.375002
v -3.375 0.3125 -8.625002
v -3.375 2.3125 -8.625002
v -3.5 -2.5625 7.5
v -3.375 -2.5625 7.5
v -3.375 -2.5625 6.625
v -3.5 -2.5625 6.625
v -3.5 -2.4375 7.5
v -3.5 -2.5625 7.5
v -3.5 -2.5625 6.625
v -3.5 -2.4375 6.625
v -3.5 -2.5625 -6.625001
v -3.375 -2.5625 -6.625001
v -3.375 -2.5625 -7.500001
v -3.5 -2.5625 -7.500001
v -3.5 -2.4375 -6.625001
v -3.5 -2.5625 -6.625001
v -3.5 -2.5625 -7.500001
v -3.5 -2.4375 -7.500001
v -3.5 -1.8125 9.000001
v -3.5 -2.1875 9.000001
v -3.5 -2.1875 8.625
v -3.5 -1.8125 8.625
v -3.5 -1.8125 -8.625002
v -3.5 -2.1875 -8.625002
v -3.5 -2.1875 -9.000002
v -3.5 -1.8125 -9.000002
v -3.375 -1.8125 8.625
v -3.5 -1.8125 8.625
v -3.375 -1.8125 8.25
v -3.5 -1.8125 8.25
v -3.375 -1.8125 -8.250002
v -3.5 -1.8125 -8.250002
v -3.375 -1.8125 -8.625002
v -3.5 -1.8125 -8.625002
v -3.5 -1.8125 8.625
v -3.375 -1.8125 8.625
v -3.375 0.1875 8.625
v -3.5 0.1875 8.625
v -3.375 -1.8125 -8.625002
v -3.5 -1.8125 -8.625002
v -3.375 0.1875 -8.625002
v -3.5 0.1875 -8.625002
v -3.5 0.3125 8.625
v -3.375 0.3125 8.625
v -3.375 2.3125 8.625002
v -3.5 2.3125 8.625002
v -3.375 0.3125 -8.625002
v -3.5 0.3125 -8.625002
v -3.375 2.3125 -8.625002
v -3.5 2.3125 -8.625002
v -3.5 2.6875 9.000002
v -3.5 2.3125 9.000002
v -3.5 2.3125 8.625002
v -3.5 2.6875 8.625002
v -3.5 2.6875 -8.625002
v -3.5 2.3125 -8.625002
v -3.5 2.3125 -9.000002
v -3.5 2.6875 -9.000002
v -3.625 -2.4375 7.5
v -3.5 -2.4375 7.5
v -3.5 -2.4375 6.625
v -3.625 -2.4375 6.625
v -3.625 -2.3125 7.5
v -3.625 -2.4375 7.5
v -3.625 -2.4375 6.625
v -3.625 -2.3125 6.625
v -3.625 -2.4375 -6.625001
v -3.5 -2.4375 -6.625001
v -3.5 -2.4375 -7.500001
v -3.625 -2.4375 -7.500001
v -3.625 -2.3125 -6.625001
v -3.625 -2.4375 -6.625001
v -3.625 -2.4375 -7.500001
v -3.625 -2.3125 -7.500001
v -3.5 -2.1875 8.625
v -3.75 -2.1875 8.625
v -3.5 -1.8125 8.625
v -3.75 -1.8125 8.625
v -3.75 -2.1875 -8.625002
v -3.5 -2.1875 -8.625002
v -3.5 -1.8125 -8.625002
v -3.75 -1.8125 -8.625002
v -3.5 -1.8125 9.000001
v -3.625 -1.8125 9.000001
v -3.5 2.3125 9.000002
v -3.625 2.3125 9.000002
v -3.875 -1.8125 9.000001
v -3.5 -1.8125 9.000001
v -3.5 -1.8125 8.625
v -3.875 -1.8125 8.625
v -3.5 -1.8125 8.625
v -3.5 2.3125 8.625002
v -3.5 -1.8125 -8.625002
v -3.5 2.3125 -8.625002
v -3.875 -1.8125 -8.625002
v -3.5 -1.8125 -8.625002
v -3.5 -1.8125 -9.000002
v -3.875 -1.8125 -9.000002
v -3.625 -1.8125 -9.000002
v -3.5 -1.8125 -9.000002
v -3.5 2.3125 -9.000002
v -3.625 2.3125 -9.000002
v -3.625 0.3125 9.000001
v -3.625 0.1875 9.000001
v -3.625 0.1875 -9.000002
v -3.625 0.3125 -9.000002
v -3.5 2.3125 9.000002
v -3.875 2.3125 9.000002
v -3.5 2.3125 -9.000002
v -3.875 2.3125 -9.000002
v -3.75 -2.3125 7.5
v -3.625 -2.3125 7.5
v -3.625 -2.3125 6.625
v -3.75 -2.3125 6.625
v -3.75 -1.8125 7.5
v -3.75 -2.3125 7.5
v -3.75 -2.3125 6.625
v -3.75 -1.8125 6.625
v -3.75 -2.3125 -6.625001
v -3.625 -2.3125 -6.625001
v -3.625 -2.3125 -7.500001
v -3.75 -2.3125 -7.500001
v -3.75 -1.8125 -6.625001
v -3.75 -2.3125 -6.625001
v -3.75 -2.3125 -7.500001
v -3.75 -1.8125 -7.500001
v -3.75 -1.8125 8.625
v -3.75 -2.1875 8.625
v -3.75 -2.1875 7.5
v -3.75 -1.8125 7.5
v -3.75 -1.8125 6.625
v -3.75 -2.1875 6.625
v -3.75 -2.1875 -6.625001
v -3.75 -1.8125 -6.625001
v -3.75 -1.8125 -7.500001
v -3.75 -2.1875 -7.500001
v -3.75 -2.1875 -8.625002
v -3.75 -1.8125 -8.625002
v -3.625 -1.8125 9.000001
v -3.875 -1.8125 9.000001
v -3.625 0.1875 9.000001
v -3.875 0.1875 9.000001
v -3.875 -1.8125 -9.000002
v -3.625 -1.8125 -9.000002
v -3.625 0.1875 -9.000002
v -3.875 0.1875 -9.000002
v -3.625 0.1875 9.000001
v -3.875 0.1875 9.000001
v -3.625 0.1875 -9.000002
v -3.875 0.1875 -9.000002
v -3.625 0.3125 9.000001
v -3.875 0.3125 9.000001
v -3.625 2.3125 9.000002
v -3.875 2.3125 9.000002
v -3.875 0.3125 9.000001
v -3.625 0.3125 9.000001
v -3.625 0.3125 -9.000002
v -3.875 0.3125 -9.000002
v -3.875 0.3125 -9.000002
v -3.625 0.3125 -9.000002
v -3.625 2.3125 -9.000002
v -3.875 2.3125 -9.000002
v -3.875 0.1875 9.000001
v -3.875 -1.8125 9.000001
v -3.875 -1.8125 -9.000002
v -3.875 0.1875 -9.000002
v -3.875 -1.8125 8.625
v -3.75 -1.8125 8.625
v -3.75 -1.8125 -8.625002
v -3.875 -1.8125 -8.625002
v -3.875 1.1875 9.000001
v -3.875 0.3125 9.000001
v -3.875 0.3125 -9.000002
v -3.875 1.1875 -9.000002
v -3.875 2.3125 9.000002
v -3.875 1.1875 9.000001
v -3.875 1.1875 0.2500024
v -3.875 2.3125 0.2500024
v -3.875 2.3125 -0.2499976
v -3.875 1.1875 -0.2499976
v -3.875 1.1875 -9.000002
v -3.875 2.3125 -9.000002
v -3.875 1.1875 0.2500024
v -4 1.1875 0.2500024
v -3.875 2.4375 0.2500024
v -4 2.4375 0.2500024
v -4 1.1875 0.2500024
v -3.875 1.1875 0.2500024
v -3.875 1.1875 -0.2499976
v -4 1.1875 -0.2499976
v -4 2.4375 0.2500024
v -4 1.1875 0.2500024
v -4 1.1875 -0.2499976
v -4 2.4375 -0.2499976
v -4 1.1875 -0.2499976
v -3.875 1.1875 -0.2499976
v -3.875 2.4375 -0.2499976
v -4 2.4375 -0.2499976
v -3.875 2.4375 0.2500024
v -4 2.4375 0.2500024
v -3.875 2.4375 -0.2499976
v -4 2.4375 -0.2499976
v -3.875 2.3125 0.2500024
v -3.875 2.4375 0.2500024
v -3.875 2.3125 -0.2499976
v -3.875 2.4375 -0.2499976
vn 0 -5.960464E-08 0.9999999
vn 0 -0.9999999 -5.960464E-08
vn 1 0 0
vn -1 0 0
vn 0 5.960464E-08 -0.9999999
vn 0 0.9999999 5.960464E-08
vn 0.9999999 0 0
vn -0.9999999 0 0
vt 0.9414063 0.2207031
vt 0.4453125 0.5273438
vt 0.4335938 0.5273438
vt 0.4335938 0.5351563
vt 0.4453125 0.5351563
vt 0.4453125 0.2167969
vt 0.4921875 0.2167969
vt 0.4453125 0.2480469
vt 0.4921875 0.2480469
vt 0.328125 0.5449219
vt 0.3242188 0.5449219
vt 0.3242188 0.8261719
vt 0.328125 0.8261719
vt 0.00390625 0.5449219
vt 0.06640625 0.5449219
vt 0.00390625 0.8261719
vt 0.06640625 0.8261719
vt 0.4296875 0.2285156
vt 0.3828125 0.2285156
vt 0.3828125 0.2597656
vt 0.4296875 0.2597656
vt 0.2304688 0.5449219
vt 0.2382813 0.5449219
vt 0.2304688 0.8261719
vt 0.2382813 0.8261719
vt 0.375 0.1464844
vt 0.421875 0.1464844
vt 0.375 0.1777344
vt 0.421875 0.1777344
vt 0.5859375 0.2675781
vt 0.578125 0.2675781
vt 0.578125 0.4042969
vt 0.5859375 0.4042969
vt 0.8007813 0.001953125
vt 0.8632813 0.001953125
vt 0.8007813 0.1386719
vt 0.8632813 0.1386719
vt 0.9882813 0.001953125
vt 0.9804688 0.001953125
vt 0.9804688 0.1386719
vt 0.9882813 0.1386719
vt 0.7226563 0.001953125
vt 0.7851563 0.001953125
vt 0.7226563 0.1386719
vt 0.7851563 0.1386719
vt 0.421875 0.1875
vt 0.375 0.1875
vt 0.375 0.21875
vt 0.421875 0.21875
vt 0.9648438 0.3398438
vt 0.9882813 0.3398438
vt 0.9648438 0.3417969
vt 0.9882813 0.3417969
vt 0.9648438 0.3300781
vt 0.9882813 0.3300781
vt 0.9648438 0.3320313
vt 0.9882813 0.3320313
vt 0.7890625 0.5332031
vt 0.8085938 0.5332031
vt 0.7890625 0.5371094
vt 0.8085938 0.5371094
vt 0.3007813 0.5449219
vt 0.3085938 0.5449219
vt 0.3007813 0.8261719
vt 0.3085938 0.8261719
vt 0.640625 0.3300781
vt 0.8671875 0.3300781
vt 0.640625 0.3320313
vt 0.8671875 0.3320313
vt 0.02734375 0.9121094
vt 0.0234375 0.9121094
vt 0.0234375 0.9257813
vt 0.02734375 0.9257813
vt 0.03515625 0.8554688
vt 0.05078125 0.8554688
vt 0.03515625 0.8691406
vt 0.05078125 0.8691406
vt 0.8671875 0.3398438
vt 0.640625 0.3398438
vt 0.640625 0.3417969
vt 0.8671875 0.3417969
vt 0.640625 0.359375
vt 0.8671875 0.359375
vt 0.640625 0.3613281
vt 0.8671875 0.3613281
vt 0.6054688 0.4960938
vt 0.6015625 0.4960938
vt 0.6015625 0.5097656
vt 0.6054688 0.5097656
vt 0.00390625 0.8554688
vt 0.01953125 0.8554688
vt 0.00390625 0.8691406
vt 0.01953125 0.8691406
vt 0.8671875 0.3496094
vt 0.640625 0.3496094
vt 0.640625 0.3515625
vt 0.8671875 0.3515625
vt 0.1328125 0.8476563
vt 0.140625 0.8476563
vt 0.1328125 0.8535156
vt 0.140625 0.8535156
vt 0.7070313 0.2421875
vt 0.65625 0.2421875
vt 0.65625 0.2597656
vt 0.7070313 0.2597656
vt 0.9726563 0.3691406
vt 0.984375 0.3691406
vt 0.9726563 0.3867188
vt 0.984375 0.3867188
vt 0.7070313 0.001953125
vt 0.65625 0.001953125
vt 0.65625 0.2089844
vt 0.7070313 0.2089844
vt 0.4335938 0.2675781
vt 0.4453125 0.2675781
vt 0.4335938 0.4746094
vt 0.4453125 0.4746094
vt 0.7070313 0.2167969
vt 0.65625 0.2167969
vt 0.65625 0.234375
vt 0.7070313 0.234375
vt 0.4882813 0.5136719
vt 0.5 0.5136719
vt 0.4882813 0.53125
vt 0.5 0.53125
vt 0.1132813 0.8613281
vt 0.1054688 0.8613281
vt 0.1054688 0.8671875
vt 0.1132813 0.8671875
vt 0.08984375 0.8613281
vt 0.08203125 0.8613281
vt 0.08203125 0.8671875
vt 0.08984375 0.8671875
vt 0.5859375 0.5292969
vt 0.578125 0.5292969
vt 0.578125 0.5351563
vt 0.5859375 0.5351563
vt 0.640625 0.4042969
vt 0.859375 0.4042969
vt 0.640625 0.40625
vt 0.859375 0.40625
vt 0.046875 0.9121094
vt 0.04296875 0.9121094
vt 0.04296875 0.9257813
vt 0.046875 0.9257813
vt 0.0625 0.9121094
vt 0.06640625 0.9121094
vt 0.0625 0.9257813
vt 0.06640625 0.9257813
vt 0.859375 0.3945313
vt 0.640625 0.3945313
vt 0.640625 0.3964844
vt 0.859375 0.3964844
vt 0.7109375 0.3789063
vt 0.9296875 0.3789063
vt 0.7109375 0.3808594
vt 0.9296875 0.3808594
vt 0.0078125 0.9550781
vt 0.00390625 0.9550781
vt 0.00390625 0.96875
vt 0.0078125 0.96875
vt 0.04296875 0.9550781
vt 0.046875 0.9550781
vt 0.04296875 0.96875
vt 0.046875 0.96875
vt 0.9296875 0.3691406
vt 0.7109375 0.3691406
vt 0.7109375 0.3710938
vt 0.9296875 0.3710938
vt 0.1328125 0.2675781
vt 0.00390625 0.2675781
vt 0.00390625 0.5371094
vt 0.1328125 0.5371094
vt 0.9375 0.2792969
vt 0.9765625 0.2792969
vt 0.9375 0.28125
vt 0.9765625 0.28125
vt 0.9570313 0.2207031
vt 0.9765625 0.2675781
vt 0.9375 0.2675781
vt 0.9375 0.2695313
vt 0.9765625 0.2695313
vt 0.6210938 0.2675781
vt 0.625 0.2675781
vt 0.6210938 0.40625
vt 0.625 0.40625
vt 0.6015625 0.2675781
vt 0.6054688 0.2675781
vt 0.6015625 0.40625
vt 0.6054688 0.40625
vt 0.640625 0.4140625
vt 0.8515625 0.4140625
vt 0.640625 0.4160156
vt 0.8515625 0.4160156
vt 0.06640625 0.9550781
vt 0.0625 0.9550781
vt 0.0625 0.96875
vt 0.06640625 0.96875
vt 0.0234375 0.9765625
vt 0.02734375 0.9765625
vt 0.0234375 0.9902344
vt 0.02734375 0.9902344
vt 0.8515625 0.4238281
vt 0.640625 0.4238281
vt 0.640625 0.4257813
vt 0.8515625 0.4257813
vt 0.640625 0.4335938
vt 0.8515625 0.4335938
vt 0.640625 0.4355469
vt 0.8515625 0.4355469
vt 0.02734375 0.9550781
vt 0.0234375 0.9550781
vt 0.0234375 0.96875
vt 0.02734375 0.96875
vt 0.04296875 0.9335938
vt 0.046875 0.9335938
vt 0.04296875 0.9472656
vt 0.046875 0.9472656
vt 0.8515625 0.4433594
vt 0.640625 0.4433594
vt 0.640625 0.4453125
vt 0.8515625 0.4453125
vt 0.859375 0.4726563
vt 0.8945313 0.4726563
vt 0.859375 0.4785156
vt 0.8945313 0.4785156
vt 0.7539063 0.5292969
vt 0.71875 0.5292969
vt 0.71875 0.5351563
vt 0.7539063 0.5351563
vt 0.08203125 0.8476563
vt 0.09375 0.8476563
vt 0.08203125 0.8535156
vt 0.09375 0.8535156
vt 0.8320313 0.4921875
vt 0.796875 0.4921875
vt 0.796875 0.4980469
vt 0.8320313 0.4980469
vt 0.4609375 0.5273438
vt 0.4726563 0.5273438
vt 0.4609375 0.5332031
vt 0.4726563 0.5332031
vt 0.9765625 0.2070313
vt 0.9414063 0.2070313
vt 0.9414063 0.2128906
vt 0.9765625 0.2128906
vt 0.5390625 0.2675781
vt 0.5429688 0.2675781
vt 0.5390625 0.5371094
vt 0.5429688 0.5371094
vt 0.4921875 0.4355469
vt 0.4882813 0.4355469
vt 0.4882813 0.5058594
vt 0.4921875 0.5058594
vt 0.5078125 0.4355469
vt 0.5117188 0.4355469
vt 0.5078125 0.5058594
vt 0.5117188 0.5058594
vt 0.859375 0.5
vt 0.8945313 0.5
vt 0.859375 0.5058594
vt 0.8945313 0.5058594
vt 0.9609375 0.4726563
vt 0.9726563 0.4726563
vt 0.9609375 0.4785156
vt 0.9726563 0.4785156
vt 0.05078125 0.8769531
vt 0.0625 0.8769531
vt 0.05078125 0.8828125
vt 0.0625 0.8828125
vt 0.8945313 0.5136719
vt 0.859375 0.5136719
vt 0.859375 0.5195313
vt 0.8945313 0.5195313
vt 0.859375 0.5273438
vt 0.8945313 0.5273438
vt 0.859375 0.5332031
vt 0.8945313 0.5332031
vt 0.9101563 0.4863281
vt 0.9453125 0.4863281
vt 0.9101563 0.4921875
vt 0.9453125 0.4921875
vt 0.640625 0.453125
vt 0.84375 0.453125
vt 0.640625 0.4550781
vt 0.84375 0.4550781
vt 0.9257813 0.1855469
vt 0.7226563 0.1855469
vt 0.7226563 0.1992188
vt 0.9257813 0.1992188
vt 0.00390625 0.9335938
vt 0.0078125 0.9335938
vt 0.00390625 0.9472656
vt 0.0078125 0.9472656
vt 0.84375 0.4628906
vt 0.640625 0.4628906
vt 0.640625 0.4648438
vt 0.84375 0.4648438
vt 0.640625 0.4726563
vt 0.84375 0.4726563
vt 0.640625 0.4746094
vt 0.84375 0.4746094
vt 0.9257813 0.2070313
vt 0.7226563 0.2070313
vt 0.7226563 0.2207031
vt 0.9257813 0.2207031
vt 0.6015625 0.5175781
vt 0.6054688 0.5175781
vt 0.6015625 0.53125
vt 0.6054688 0.53125
vt 0.84375 0.4824219
vt 0.640625 0.4824219
vt 0.640625 0.484375
vt 0.84375 0.484375
vt 0.00390625 0.001953125
vt 0.2109375 0.001953125
vt 0.00390625 0.2597656
vt 0.2109375 0.2597656
vt 0.640625 0.5058594
vt 0.703125 0.5058594
vt 0.640625 0.5117188
vt 0.703125 0.5117188
vt 0.4296875 0.001953125
vt 0.2265625 0.001953125
vt 0.2265625 0.06640625
vt 0.4296875 0.06640625
vt 0.2265625 0.07421875
vt 0.4296875 0.07421875
vt 0.2265625 0.1386719
vt 0.4296875 0.1386719
vt 0.640625 0.5195313
vt 0.703125 0.5195313
vt 0.640625 0.5253906
vt 0.703125 0.5253906
vt 0.640625 0.2792969
vt 0.84375 0.2792969
vt 0.640625 0.2832031
vt 0.84375 0.2832031
vt 0.640625 0.2910156
vt 0.84375 0.2910156
vt 0.640625 0.2949219
vt 0.84375 0.2949219
vt 0.90625 0.4042969
vt 0.875 0.4042969
vt 0.875 0.40625
vt 0.90625 0.40625
vt 0.8828125 0.359375
vt 0.9492188 0.359375
vt 0.8828125 0.3613281
vt 0.9492188 0.3613281
vt 0.8828125 0.3398438
vt 0.9492188 0.3398438
vt 0.8828125 0.3417969
vt 0.9492188 0.3417969
vt 0.9257813 0.3945313
vt 0.9570313 0.3945313
vt 0.9257813 0.3964844
vt 0.9570313 0.3964844
vt 0.9257813 0.2558594
vt 0.7226563 0.2558594
vt 0.7226563 0.2597656
vt 0.9257813 0.2597656
vt 0.859375 0.2910156
vt 0.921875 0.2910156
vt 0.859375 0.2949219
vt 0.921875 0.2949219
vt 0.84375 0.2675781
vt 0.640625 0.2675781
vt 0.640625 0.2714844
vt 0.84375 0.2714844
vt 0.640625 0.5332031
vt 0.703125 0.5332031
vt 0.640625 0.5371094
vt 0.703125 0.5371094
vt 0.7226563 0.2285156
vt 0.9257813 0.2285156
vt 0.7226563 0.234375
vt 0.9257813 0.234375
vt 0.7226563 0.2421875
vt 0.9257813 0.2421875
vt 0.7226563 0.2480469
vt 0.9257813 0.2480469
vt 0.03515625 0.8769531
vt 0.00390625 0.8769531
vt 0.00390625 0.8828125
vt 0.03515625 0.8828125
vt 0.9101563 0.5273438
vt 0.9414063 0.5273438
vt 0.9101563 0.5332031
vt 0.9414063 0.5332031
vt 0.9609375 0.3164063
vt 0.8085938 0.3164063
vt 0.8085938 0.3222656
vt 0.9609375 0.3222656
vt 0.7929688 0.3164063
vt 0.640625 0.3164063
vt 0.640625 0.3222656
vt 0.7929688 0.3222656
vt 0.4335938 0.4824219
vt 0.4414063 0.4824219
vt 0.4335938 0.5195313
vt 0.4414063 0.5195313
vt 0.46875 0.4824219
vt 0.4609375 0.4824219
vt 0.4609375 0.5195313
vt 0.46875 0.5195313
vt 0.2265625 0.2285156
vt 0.3671875 0.2285156
vt 0.2265625 0.2597656
vt 0.3671875 0.2597656
vt 0.8632813 0.1464844
vt 0.7226563 0.1464844
vt 0.7226563 0.1777344
vt 0.8632813 0.1777344
vt 0.3945313 0.2675781
vt 0.3867188 0.2675781
vt 0.3867188 0.5371094
vt 0.3945313 0.5371094
vt 0.0625 0.9335938
vt 0.06640625 0.9335938
vt 0.0625 0.9472656
vt 0.06640625 0.9472656
vt 0.00390625 0.9765625
vt 0.0078125 0.9765625
vt 0.00390625 0.9902344
vt 0.0078125 0.9902344
vt 0.2265625 0.1464844
vt 0.359375 0.1464844
vt 0.2265625 0.1796875
vt 0.359375 0.1796875
vt 0.359375 0.1875
vt 0.2265625 0.1875
vt 0.2265625 0.2207031
vt 0.359375 0.2207031
vt 0.71875 0.5175781
vt 0.7734375 0.5175781
vt 0.71875 0.5214844
vt 0.7734375 0.5214844
vt 0.6953125 0.3691406
vt 0.640625 0.3691406
vt 0.640625 0.3867188
vt 0.6953125 0.3867188
vt 0.3398438 0.2675781
vt 0.3476563 0.2675781
vt 0.3398438 0.5371094
vt 0.3476563 0.5371094
vt 0.640625 0.001953125
vt 0.5859375 0.001953125
vt 0.5859375 0.2089844
vt 0.640625 0.2089844
vt 0.9335938 0.1464844
vt 0.8789063 0.1464844
vt 0.8789063 0.1640625
vt 0.9335938 0.1640625
vt 0.5 0.2558594
vt 0.4453125 0.2558594
vt 0.4453125 0.2597656
vt 0.5 0.2597656
vt 0.4179688 0.2675781
vt 0.4101563 0.2675781
vt 0.4101563 0.5371094
vt 0.4179688 0.5371094
vt 0.00390625 0.9121094
vt 0.0078125 0.9121094
vt 0.00390625 0.9257813
vt 0.0078125 0.9257813
vt 0.0234375 0.9335938
vt 0.02734375 0.9335938
vt 0.0234375 0.9472656
vt 0.02734375 0.9472656
vt 0.8789063 0.171875
vt 0.9335938 0.171875
vt 0.8789063 0.1757813
vt 0.9335938 0.1757813
vt 0.5703125 0.2167969
vt 0.515625 0.2167969
vt 0.515625 0.234375
vt 0.5703125 0.234375
vt 0.3164063 0.2675781
vt 0.3242188 0.2675781
vt 0.3164063 0.5371094
vt 0.3242188 0.5371094
vt 0.5 0.001953125
vt 0.4453125 0.001953125
vt 0.4453125 0.2089844
vt 0.5 0.2089844
vt 0.640625 0.2421875
vt 0.5859375 0.2421875
vt 0.5859375 0.2597656
vt 0.640625 0.2597656
vt 0.7734375 0.5058594
vt 0.71875 0.5058594
vt 0.71875 0.5097656
vt 0.7734375 0.5097656
vt 0.3007813 0.2675781
vt 0.2929688 0.2675781
vt 0.2929688 0.5371094
vt 0.3007813 0.5371094
vt 0.04296875 0.9765625
vt 0.046875 0.9765625
vt 0.04296875 0.9902344
vt 0.046875 0.9902344
vt 0.6015625 0.453125
vt 0.6054688 0.453125
vt 0.6015625 0.4667969
vt 0.6054688 0.4667969
vt 0.1289063 0.8613281
vt 0.140625 0.8613281
vt 0.1289063 0.8652344
vt 0.140625 0.8652344
vt 0.5703125 0.2421875
vt 0.515625 0.2421875
vt 0.515625 0.2597656
vt 0.5703125 0.2597656
vt 0.3632813 0.2675781
vt 0.3710938 0.2675781
vt 0.3632813 0.5371094
vt 0.3710938 0.5371094
vt 0.5703125 0.001953125
vt 0.515625 0.001953125
vt 0.515625 0.2089844
vt 0.5703125 0.2089844
vt 0.640625 0.2167969
vt 0.5859375 0.2167969
vt 0.5859375 0.234375
vt 0.640625 0.234375
vt 0.8359375 0.5332031
vt 0.8242188 0.5332031
vt 0.8242188 0.5371094
vt 0.8359375 0.5371094
vt 0.4882813 0.2675781
vt 0.5234375 0.2675781
vt 0.4882813 0.34375
vt 0.5234375 0.34375
vt 0.9453125 0.5
vt 0.9101563 0.5
vt 0.9101563 0.5058594
vt 0.9453125 0.5058594
vt 0.8085938 0.3027344
vt 0.9609375 0.3027344
vt 0.8085938 0.3085938
vt 0.9609375 0.3085938
vt 0.9453125 0.5136719
vt 0.9101563 0.5136719
vt 0.9101563 0.5195313
vt 0.9453125 0.5195313
vt 0.640625 0.3027344
vt 0.7929688 0.3027344
vt 0.640625 0.3085938
vt 0.7929688 0.3085938
vt 0.5234375 0.3515625
vt 0.4882813 0.3515625
vt 0.4882813 0.4277344
vt 0.5234375 0.4277344
vt 0.9101563 0.3945313
vt 0.875 0.3945313
vt 0.875 0.3964844
vt 0.9101563 0.3964844
vt 0.9375 0.2910156
vt 0.9726563 0.2910156
vt 0.9375 0.2929688
vt 0.9726563 0.2929688
vt 0.8242188 0.5058594
vt 0.7890625 0.5058594
vt 0.7890625 0.5117188
vt 0.8242188 0.5117188
vt 0.9101563 0.4726563
vt 0.9453125 0.4726563
vt 0.9101563 0.4785156
vt 0.9453125 0.4785156
vt 0.859375 0.4863281
vt 0.8945313 0.4863281
vt 0.859375 0.4921875
vt 0.8945313 0.4921875
vt 0.7890625 0.5195313
vt 0.8242188 0.5195313
vt 0.7890625 0.5253906
vt 0.8242188 0.5253906
vt 0.02734375 0.890625
vt 0.0234375 0.890625
vt 0.0234375 0.9042969
vt 0.02734375 0.9042969
vt 0.625 0.5
vt 0.6210938 0.5
vt 0.6210938 0.5136719
vt 0.625 0.5136719
vt 0.78125 0.4921875
vt 0.71875 0.4921875
vt 0.71875 0.4980469
vt 0.78125 0.4980469
vt 0.703125 0.4921875
vt 0.640625 0.4921875
vt 0.640625 0.4980469
vt 0.703125 0.4980469
vt 0.9492188 0.3300781
vt 0.8828125 0.3300781
vt 0.8828125 0.3320313
vt 0.9492188 0.3320313
vt 0.9492188 0.3496094
vt 0.8828125 0.3496094
vt 0.8828125 0.3515625
vt 0.9492188 0.3515625
vt 0.921875 0.2675781
vt 0.859375 0.2675781
vt 0.859375 0.2714844
vt 0.921875 0.2714844
vt 0.921875 0.2792969
vt 0.859375 0.2792969
vt 0.859375 0.2832031
vt 0.921875 0.2832031
vt 0.625 0.5214844
vt 0.6210938 0.5214844
vt 0.6210938 0.5351563
vt 0.625 0.5351563
vt 0.06640625 0.890625
vt 0.0625 0.890625
vt 0.0625 0.9042969
vt 0.06640625 0.9042969
vt 0.06640625 0.9765625
vt 0.0625 0.9765625
vt 0.0625 0.9902344
vt 0.06640625 0.9902344
vt 0.6054688 0.4746094
vt 0.6015625 0.4746094
vt 0.6015625 0.4882813
vt 0.6054688 0.4882813
vt 0.9726563 0.4863281
vt 0.9609375 0.4863281
vt 0.9609375 0.4921875
vt 0.9726563 0.4921875
vt 0.9726563 0.5
vt 0.9609375 0.5
vt 0.9609375 0.5058594
vt 0.9726563 0.5058594
vt 0.8398438 0.5058594
vt 0.84375 0.5058594
vt 0.8398438 0.5117188
vt 0.84375 0.5117188
vt 0.8398438 0.5195313
vt 0.84375 0.5195313
vt 0.8398438 0.5253906
vt 0.84375 0.5253906
vt 0.5820313 0.4511719
vt 0.578125 0.4511719
vt 0.578125 0.4824219
vt 0.5820313 0.4824219
vt 0.578125 0.4121094
vt 0.5820313 0.4121094
vt 0.578125 0.4433594
vt 0.5820313 0.4433594
vt 0.5820313 0.4902344
vt 0.578125 0.4902344
vt 0.578125 0.5214844
vt 0.5820313 0.5214844
vt 0.6015625 0.4140625
vt 0.6054688 0.4140625
vt 0.6015625 0.4453125
vt 0.6054688 0.4453125
vt 0.9882813 0.3027344
vt 0.9765625 0.3027344
vt 0.9765625 0.3085938
vt 0.9882813 0.3085938
vt 0.9882813 0.3164063
vt 0.9765625 0.3164063
vt 0.9765625 0.3222656
vt 0.9882813 0.3222656
vt 0.625 0.4140625
vt 0.6210938 0.4140625
vt 0.6210938 0.4277344
vt 0.625 0.4277344
vt 0.625 0.4355469
vt 0.6210938 0.4355469
vt 0.6210938 0.4492188
vt 0.625 0.4492188
vt 0.625 0.4570313
vt 0.6210938 0.4570313
vt 0.6210938 0.4707031
vt 0.625 0.4707031
vt 0.625 0.4785156
vt 0.6210938 0.4785156
vt 0.6210938 0.4921875
vt 0.625 0.4921875
vt 0.1367188 0.8339844
vt 0.1445313 0.8339844
vt 0.1367188 0.8398438
vt 0.1445313 0.8398438
vt 0.1171875 0.8476563
vt 0.109375 0.8476563
vt 0.109375 0.8535156
vt 0.1171875 0.8535156
vt 0.09375 0.8339844
vt 0.08203125 0.8339844
vt 0.08203125 0.8398438
vt 0.09375 0.8398438
vt 0.1484375 0.2675781
vt 0.2773438 0.2675781
vt 0.1484375 0.5371094
vt 0.2773438 0.5371094
vt 0.1210938 0.8339844
vt 0.109375 0.8339844
vt 0.109375 0.8398438
vt 0.1210938 0.8398438
vt 0.203125 0.5449219
vt 0.2148438 0.5449219
vt 0.203125 0.8261719
vt 0.2148438 0.8261719
vt 0.0078125 0.890625
vt 0.00390625 0.890625
vt 0.00390625 0.9042969
vt 0.0078125 0.9042969
vt 0.05078125 0.8339844
vt 0.03515625 0.8339844
vt 0.03515625 0.8476563
vt 0.05078125 0.8476563
vt 0.046875 0.890625
vt 0.04296875 0.890625
vt 0.04296875 0.9042969
vt 0.046875 0.9042969
vt 0.01953125 0.8339844
vt 0.00390625 0.8339844
vt 0.00390625 0.8476563
vt 0.01953125 0.8476563
vt 0.9570313 0.3691406
vt 0.9453125 0.3691406
vt 0.9453125 0.3867188
vt 0.9570313 0.3867188
vt 0.4726563 0.2675781
vt 0.4609375 0.2675781
vt 0.4609375 0.4746094
vt 0.4726563 0.4746094
vt 0.9726563 0.5136719
vt 0.9609375 0.5136719
vt 0.9609375 0.53125
vt 0.9726563 0.53125
vt 0.9492188 0.1464844
vt 0.9570313 0.1464844
vt 0.9492188 0.1777344
vt 0.9570313 0.1777344
vt 0.9804688 0.1464844
vt 0.9726563 0.1464844
vt 0.9726563 0.1777344
vt 0.9804688 0.1777344
vt 0.2773438 0.5449219
vt 0.2851563 0.5449219
vt 0.2773438 0.8261719
vt 0.2851563 0.8261719
vt 0.9414063 0.2285156
vt 0.9492188 0.2285156
vt 0.9414063 0.2597656
vt 0.9492188 0.2597656
vt 0.2617188 0.5449219
vt 0.2539063 0.5449219
vt 0.2539063 0.8261719
vt 0.2617188 0.8261719
vt 0.9726563 0.2285156
vt 0.9648438 0.2285156
vt 0.9648438 0.2597656
vt 0.9726563 0.2597656
vt 0.1445313 0.5449219
vt 0.08203125 0.5449219
vt 0.08203125 0.8261719
vt 0.1445313 0.8261719
vt 0.5625 0.2675781
vt 0.5585938 0.2675781
vt 0.5585938 0.5371094
vt 0.5625 0.5371094
vt 0.1875 0.5449219
vt 0.1601563 0.5449219
vt 0.1601563 0.8261719
vt 0.1875 0.8261719
vt 0.9140625 0.001953125
vt 0.8789063 0.001953125
vt 0.8789063 0.1386719
vt 0.9140625 0.1386719
vt 0.9648438 0.001953125
vt 0.9296875 0.001953125
vt 0.9296875 0.1386719
vt 0.9648438 0.1386719
vt 0.515625 0.5136719
vt 0.5195313 0.5136719
vt 0.515625 0.5332031
vt 0.5195313 0.5332031
vt 0.9804688 0.1855469
vt 0.9414063 0.1855469
vt 0.9414063 0.1933594
vt 0.9804688 0.1933594
vt 0.7695313 0.5292969
vt 0.7734375 0.5292969
vt 0.7695313 0.5371094
vt 0.7734375 0.5371094
vt 0.08203125 0.875
vt 0.0859375 0.875
vt 0.08203125 0.8828125
vt 0.0859375 0.8828125
usemtl voxel (Instance)
f 3/1/1 2/1/1 1/1/1
f 4/1/1 2/1/1 3/1/1
f 7/1/2 6/1/2 5/1/2
f 8/1/2 7/1/2 5/1/2
f 11/1/3 10/1/3 9/1/3
f 12/1/3 10/1/3 11/1/3
f 15/1/4 14/1/4 13/1/4
f 16/1/4 15/1/4 13/1/4
f 19/1/5 18/1/5 17/1/5
f 20/1/5 19/1/5 17/1/5
f 23/1/6 22/1/6 21/1/6
f 24/1/6 22/1/6 23/1/6
f 27/1/1 26/1/1 25/1/1
f 28/1/1 26/1/1 27/1/1
f 31/1/2 30/1/2 29/1/2
f 32/1/2 31/1/2 29/1/2
f 35/1/6 34/1/6 33/1/6
f 36/1/6 34/1/6 35/1/6
f 39/1/3 38/1/3 37/1/3
f 40/1/3 38/1/3 39/1/3
f 43/1/4 42/1/4 41/1/4
f 44/1/4 43/1/4 41/1/4
f 47/1/5 46/1/5 45/1/5
f 48/1/5 47/1/5 45/1/5
f 51/1/1 50/1/1 49/1/1
f 52/1/1 50/1/1 51/1/1
f 55/1/2 54/1/2 53/1/2
f 56/1/2 55/1/2 53/1/2
f 59/1/3 58/1/3 57/1/3
f 60/1/3 58/1/3 59/1/3
f 63/1/4 62/1/4 61/1/4
f 64/1/4 63/1/4 61/1/4
f 67/1/5 66/1/5 65/1/5
f 68/1/5 67/1/5 65/1/5
f 71/1/6 70/1/6 69/1/6
f 72/1/6 70/1/6 71/1/6
f 75/1/1 74/1/1 73/1/1
f 76/1/1 74/1/1 75/1/1
f 79/1/2 78/1/2 77/1/2
f 80/1/2 79/1/2 77/1/2
f 83/1/6 82/1/6 81/1/6
f 84/1/6 82/1/6 83/1/6
f 87/1/3 86/1/3 85/1/3
f 88/1/3 86/1/3 87/1/3
f 91/1/5 90/1/5 89/1/5
f 92/1/5 91/1/5 89/1/5
f 95/1/1 94/1/1 93/1/1
f 96/1/1 94/1/1 95/1/1
f 99/4/2 98/3/2 97/2/2
f 100/5/2 99/4/2 97/2/2
f 103/1/3 102/1/3 101/1/3
f 104/1/3 102/1/3 103/1/3
f 107/1/5 106/1/5 105/1/5
f 108/1/5 107/1/5 105/1/5
f 111/1/6 110/1/6 109/1/6
f 112/1/6 110/1/6 111/1/6
f 115/1/6 114/1/6 113/1/6
f 116/1/6 114/1/6 115/1/6
f 119/1/6 118/1/6 117/1/6
f 120/1/6 118/1/6 119/1/6
f 123/1/1 122/1/1 121/1/1
f 124/1/1 122/1/1 123/1/1
f 127/1/6 126/1/6 125/1/6
f 128/1/6 126/1/6 127/1/6
f 131/1/3 130/1/3 129/1/3
f 132/1/3 130/1/3 131/1/3
f 135/1/5 134/1/5 133/1/5
f 136/1/5 135/1/5 133/1/5
f 139/8/1 138/7/1 137/6/1
f 140/9/1 138/7/1 139/8/1
f 143/12/2 142/11/2 141/10/2
f 144/13/2 143/12/2 141/10/2
f 147/16/3 146/15/3 145/14/3
f 148/17/3 146/15/3 147/16/3
f 151/20/5 150/19/5 149/18/5
f 152/21/5 151/20/5 149/18/5
f 155/24/6 154/23/6 153/22/6
f 156/25/6 154/23/6 155/24/6
f 159/28/1 158/27/1 157/26/1
f 160/29/1 158/27/1 159/28/1
f 163/32/2 162/31/2 161/30/2
f 164/33/2 163/32/2 161/30/2
f 167/36/3 166/35/3 165/34/3
f 168/37/3 166/35/3 167/36/3
f 171/40/2 170/39/2 169/38/2
f 172/41/2 171/40/2 169/38/2
f 175/44/3 174/43/3 173/42/3
f 176/45/3 174/43/3 175/44/3
f 179/48/5 178/47/5 177/46/5
f 180/49/5 179/48/5 177/46/5
f 183/1/3 182/1/3 181/1/3
f 184/1/3 182/1/3 183/1/3
f 187/52/3 186/51/3 185/50/3
f 188/53/3 186/51/3 187/52/3
f 191/56/3 190/55/3 189/54/3
f 192/57/3 190/55/3 191/56/3
f 195/60/3 194/59/3 193/58/3
f 196/61/3 194/59/3 195/60/3
f 199/64/6 198/63/6 197/62/6
f 200/65/6 198/63/6 199/64/6
f 203/68/1 202/67/1 201/66/1
f 204/69/1 202/67/1 203/68/1
f 207/72/2 206/71/2 205/70/2
f 208/73/2 207/72/2 205/70/2
f 211/76/3 210/75/3 209/74/3
f 212/77/3 210/75/3 211/76/3
f 215/80/5 214/79/5 213/78/5
f 216/81/5 215/80/5 213/78/5
f 219/84/1 218/83/1 217/82/1
f 220/85/1 218/83/1 219/84/1
f 223/88/2 222/87/2 221/86/2
f 224/89/2 223/88/2 221/86/2
f 227/92/3 226/91/3 225/90/3
f 228/93/3 226/91/3 227/92/3
f 231/96/5 230/95/5 229/94/5
f 232/97/5 231/96/5 229/94/5
f 235/100/1 234/99/1 233/98/1
f 236/101/1 234/99/1 235/100/1
f 239/104/2 238/103/2 237/102/2
f 240/105/2 239/104/2 237/102/2
f 243/108/3 242/107/3 241/106/3
f 244/109/3 242/107/3 243/108/3
f 247/112/2 246/111/2 245/110/2
f 248/113/2 247/112/2 245/110/2
f 251/116/7 250/115/7 249/114/7
f 252/117/7 250/115/7 251/116/7
f 255/120/2 254/119/2 253/118/2
f 256/121/2 255/120/2 253/118/2
f 259/124/3 258/123/3 257/122/3
f 260/125/3 258/123/3 259/124/3
f 263/128/5 262/127/5 261/126/5
f 264/129/5 263/128/5 261/126/5
f 267/132/2 266/131/2 265/130/2
f 268/133/2 267/132/2 265/130/2
f 271/136/2 270/135/2 269/134/2
f 272/137/2 271/136/2 269/134/2
f 275/140/1 274/139/1 273/138/1
f 276/141/1 274/139/1 275/140/1
f 279/144/2 278/143/2 277/142/2
f 280/145/2 279/144/2 277/142/2
f 283/148/3 282/147/3 281/146/3
f 284/149/3 282/147/3 283/148/3
f 287/152/5 286/151/5 285/150/5
f 288/153/5 287/152/5 285/150/5
f 291/156/1 290/155/1 289/154/1
f 292/157/1 290/155/1 291/156/1
f 295/160/2 294/159/2 293/158/2
f 296/161/2 295/160/2 293/158/2
f 299/164/3 298/163/3 297/162/3
f 300/165/3 298/163/3 299/164/3
f 303/168/5 302/167/5 301/166/5
f 304/169/5 303/168/5 301/166/5
f 307/172/4 306/171/4 305/170/4
f 308/173/4 307/172/4 305/170/4
f 311/176/1 310/175/1 309/174/1
f 312/177/1 310/175/1 311/176/1
f 315/178/3 314/178/3 313/178/3
f 316/178/3 314/178/3 315/178/3
f 319/181/5 318/180/5 317/179/5
f 320/182/5 319/181/5 317/179/5
f 323/185/6 322/184/6 321/183/6
f 324/186/6 322/184/6 323/185/6
f 327/189/6 326/188/6 325/187/6
f 328/190/6 326/188/6 327/189/6
f 331/1/1 330/1/1 329/1/1
f 332/1/1 330/1/1 331/1/1
f 335/1/6 334/1/6 333/1/6
f 336/1/6 334/1/6 335/1/6
f 339/1/3 338/1/3 337/1/3
f 340/1/3 338/1/3 339/1/3
f 343/1/4 342/1/4 341/1/4
f 344/1/4 343/1/4 341/1/4
f 347/1/5 346/1/5 345/1/5
f 348/1/5 347/1/5 345/1/5
f 351/193/1 350/192/1 349/191/1
f 352/194/1 350/192/1 351/193/1
f 355/197/2 354/196/2 353/195/2
f 356/198/2 355/197/2 353/195/2
f 359/201/3 358/200/3 357/199/3
f 360/202/3 358/200/3 359/201/3
f 363/205/5 362/204/5 361/203/5
f 364/206/5 363/205/5 361/203/5
f 367/209/1 366/208/1 365/207/1
f 368/210/1 366/208/1 367/209/1
f 371/213/2 370/212/2 369/211/2
f 372/214/2 371/213/2 369/211/2
f 375/217/3 374/216/3 373/215/3
f 376/218/3 374/216/3 375/217/3
f 379/221/5 378/220/5 377/219/5
f 380/222/5 379/221/5 377/219/5
f 383/225/1 382/224/1 381/223/1
f 384/226/1 382/224/1 383/225/1
f 387/229/2 386/228/2 385/227/2
f 388/230/2 387/229/2 385/227/2
f 391/233/3 390/232/3 389/231/3
f 392/234/3 390/232/3 391/233/3
f 395/237/2 394/236/2 393/235/2
f 396/238/2 395/237/2 393/235/2
f 399/241/3 398/240/3 397/239/3
f 400/242/3 398/240/3 399/241/3
f 403/245/5 402/244/5 401/243/5
f 404/246/5 403/245/5 401/243/5
f 407/249/6 406/248/6 405/247/6
f 408/250/6 406/248/6 407/249/6
f 411/253/5 410/252/5 409/251/5
f 412/254/5 411/253/5 409/251/5
f 415/257/1 414/256/1 413/255/1
f 416/258/1 414/256/1 415/257/1
f 419/261/1 418/260/1 417/259/1
f 420/262/1 418/260/1 419/261/1
f 423/265/3 422/264/3 421/263/3
f 424/266/3 422/264/3 423/265/3
f 427/269/3 426/268/3 425/267/3
f 428/270/3 426/268/3 427/269/3
f 431/273/5 430/272/5 429/271/5
f 432/274/5 431/273/5 429/271/5
f 435/277/6 434/276/6 433/275/6
f 436/278/6 434/276/6 435/277/6
f 439/281/6 438/280/6 437/279/6
f 440/282/6 438/280/6 439/281/6
f 443/285/1 442/284/1 441/283/1
f 444/286/1 442/284/1 443/285/1
f 447/289/2 446/288/2 445/287/2
f 448/290/2 447/289/2 445/287/2
f 451/293/3 450/292/3 449/291/3
f 452/294/3 450/292/3 451/293/3
f 455/297/5 454/296/5 453/295/5
f 456/298/5 455/297/5 453/295/5
f 459/301/1 458/300/1 457/299/1
f 460/302/1 458/300/1 459/301/1
f 463/305/2 462/304/2 461/303/2
f 464/306/2 463/305/2 461/303/2
f 467/309/3 466/308/3 465/307/3
f 468/310/3 466/308/3 467/309/3
f 471/313/5 470/312/5 469/311/5
f 472/314/5 471/313/5 469/311/5
f 475/317/6 474/316/6 473/315/6
f 476/318/6 474/316/6 475/317/6
f 479/321/3 478/320/3 477/319/3
f 480/322/3 478/320/3 479/321/3
f 483/325/5 482/324/5 481/323/5
f 484/326/5 483/325/5 481/323/5
f 487/329/1 486/328/1 485/327/1
f 488/330/1 486/328/1 487/329/1
f 491/333/3 490/332/3 489/331/3
f 492/334/3 490/332/3 491/333/3
f 495/337/6 494/336/6 493/335/6
f 496/338/6 494/336/6 495/337/6
f 499/341/6 498/340/6 497/339/6
f 500/342/6 498/340/6 499/341/6
f 503/345/5 502/344/5 501/343/5
f 504/346/5 503/345/5 501/343/5
f 507/178/1 506/178/1 505/178/1
f 508/178/1 506/178/1 507/178/1
f 511/349/3 510/348/3 509/347/3
f 512/350/3 510/348/3 511/349/3
f 515/178/5 514/178/5 513/178/5
f 516/178/5 515/178/5 513/178/5
f 519/353/3 518/352/3 517/351/3
f 520/354/3 518/352/3 519/353/3
f 523/357/1 522/356/1 521/355/1
f 524/358/1 522/356/1 523/357/1
f 527/361/2 526/360/2 525/359/2
f 528/362/2 527/361/2 525/359/2
f 531/365/3 530/364/3 529/363/3
f 532/366/3 530/364/3 531/365/3
f 535/369/2 534/368/2 533/367/2
f 536/370/2 535/369/2 533/367/2
f 539/373/3 538/372/3 537/371/3
f 540/374/3 538/372/3 539/373/3
f 543/377/6 542/376/6 541/375/6
f 544/378/6 542/376/6 543/377/6
f 547/381/6 546/380/6 545/379/6
f 548/382/6 546/380/6 547/381/6
f 551/385/5 550/384/5 549/383/5
f 552/386/5 551/385/5 549/383/5
f 555/389/1 554/388/1 553/387/1
f 556/390/1 554/388/1 555/389/1
f 559/393/4 558/392/4 557/391/4
f 560/394/4 559/393/4 557/391/4
f 563/397/4 562/396/4 561/395/4
f 564/398/4 563/397/4 561/395/4
f 567/401/1 566/400/1 565/399/1
f 568/402/1 566/400/1 567/401/1
f 571/405/5 570/404/5 569/403/5
f 572/406/5 571/405/5 569/403/5
f 575/409/1 574/408/1 573/407/1
f 576/410/1 574/408/1 575/409/1
f 579/413/5 578/412/5 577/411/5
f 580/414/5 579/413/5 577/411/5
f 583/417/4 582/416/4 581/415/4
f 584/418/4 583/417/4 581/415/4
f 587/421/6 586/420/6 585/419/6
f 588/422/6 586/420/6 587/421/6
f 591/425/6 590/424/6 589/423/6
f 592/426/6 590/424/6 591/425/6
f 595/429/1 594/428/1 593/427/1
f 596/430/1 594/428/1 595/429/1
f 599/178/2 598/178/2 597/178/2
f 600/178/2 599/178/2 597/178/2
f 603/433/5 602/432/5 601/431/5
f 604/434/5 603/433/5 601/431/5
f 607/437/1 606/436/1 605/435/1
f 608/438/1 606/436/1 607/437/1
f 611/441/2 610/440/2 609/439/2
f 612/442/2 611/441/2 609/439/2
f 615/445/3 614/444/3 613/443/3
f 616/446/3 614/444/3 615/445/3
f 619/449/2 618/448/2 617/447/2
f 620/450/2 619/449/2 617/447/2
f 623/453/2 622/452/2 621/451/2
f 624/454/2 623/453/2 621/451/2
f 627/457/5 626/456/5 625/455/5
f 628/458/5 627/457/5 625/455/5
f 631/461/4 630/460/4 629/459/4
f 632/462/4 631/461/4 629/459/4
f 635/465/6 634/464/6 633/463/6
f 636/466/6 634/464/6 635/465/6
f 639/469/6 638/468/6 637/467/6
f 640/470/6 638/468/6 639/469/6
f 643/178/2 642/178/2 641/178/2
f 644/178/2 643/178/2 641/178/2
f 647/473/1 646/472/1 645/471/1
f 648/474/1 646/472/1 647/473/1
f 651/477/2 650/476/2 649/475/2
f 652/478/2 651/477/2 649/475/2
f 655/481/3 654/480/3 653/479/3
f 656/482/3 654/480/3 655/481/3
f 659/485/2 658/484/2 657/483/2
f 660/486/2 659/485/2 657/483/2
f 663/489/2 662/488/2 661/487/2
f 664/490/2 663/489/2 661/487/2
f 667/493/5 666/492/5 665/491/5
f 668/494/5 667/493/5 665/491/5
f 671/497/4 670/496/4 669/495/4
f 672/498/4 671/497/4 669/495/4
f 675/501/6 674/500/6 673/499/6
f 676/502/6 674/500/6 675/501/6
f 679/505/6 678/504/6 677/503/6
f 680/506/6 678/504/6 679/505/6
f 683/178/2 682/178/2 681/178/2
f 684/178/2 683/178/2 681/178/2
f 687/509/1 686/508/1 685/507/1
f 688/510/1 686/508/1 687/509/1
f 691/513/2 690/512/2 689/511/2
f 692/514/2 691/513/2 689/511/2
f 695/517/3 694/516/3 693/515/3
f 696/518/3 694/516/3 695/517/3
f 699/521/2 698/520/2 697/519/2
f 700/522/2 699/521/2 697/519/2
f 703/525/2 702/524/2 701/523/2
f 704/526/2 703/525/2 701/523/2
f 707/529/5 706/528/5 705/527/5
f 708/530/5 707/529/5 705/527/5
f 711/533/1 710/532/1 709/531/1
f 712/534/1 710/532/1 711/533/1
f 715/537/2 714/536/2 713/535/2
f 716/538/2 715/537/2 713/535/2
f 719/541/3 718/540/3 717/539/3
f 720/542/3 718/540/3 719/541/3
f 723/545/2 722/544/2 721/543/2
f 724/546/2 723/545/2 721/543/2
f 727/549/3 726/548/3 725/547/3
f 728/550/3 726/548/3 727/549/3
f 731/553/5 730/552/5 729/551/5
f 732/554/5 731/553/5 729/551/5
f 735/557/5 734/556/5 733/555/5
f 736/558/5 735/557/5 733/555/5
f 739/561/1 738/560/1 737/559/1
f 740/562/1 738/560/1 739/561/1
f 743/565/5 742/564/5 741/563/5
f 744/566/5 743/565/5 741/563/5
f 747/569/1 746/568/1 745/567/1
f 748/570/1 746/568/1 747/569/1
f 751/573/6 750/572/6 749/571/6
f 752/574/6 750/572/6 751/573/6
f 755/577/6 754/576/6 753/575/6
f 756/578/6 754/576/6 755/577/6
f 759/581/4 758/580/4 757/579/4
f 760/582/4 759/581/4 757/579/4
f 763/585/4 762/584/4 761/583/4
f 764/586/4 763/585/4 761/583/4
f 767/589/4 766/588/4 765/587/4
f 768/590/4 767/589/4 765/587/4
f 771/593/4 770/592/4 769/591/4
f 772/594/4 771/593/4 769/591/4
f 775/597/4 774/596/4 773/595/4
f 776/598/4 775/597/4 773/595/4
f 779/601/4 778/600/4 777/599/4
f 780/602/4 779/601/4 777/599/4
f 783/605/4 782/604/4 781/603/4
f 784/606/4 783/605/4 781/603/4
f 787/609/4 786/608/4 785/607/4
f 788/610/4 787/609/4 785/607/4
f 791/613/2 790/612/2 789/611/2
f 792/614/2 791/613/2 789/611/2
f 795/617/4 794/616/4 793/615/4
f 796/618/4 795/617/4 793/615/4
f 799/621/2 798/620/2 797/619/2
f 800/622/2 799/621/2 797/619/2
f 803/625/4 802/624/4 801/623/4
f 804/626/4 803/625/4 801/623/4
f 807/629/4 806/628/4 805/627/4
f 808/630/4 807/629/4 805/627/4
f 811/633/4 810/632/4 809/631/4
f 812/634/4 811/633/4 809/631/4
f 815/637/6 814/636/6 813/635/6
f 816/638/6 814/636/6 815/637/6
f 819/641/6 818/640/6 817/639/6
f 820/642/6 818/640/6 819/641/6
f 823/645/5 822/644/5 821/643/5
f 824/646/5 823/645/5 821/643/5
f 827/649/1 826/648/1 825/647/1
f 828/650/1 826/648/1 827/649/1
f 831/653/5 830/652/5 829/651/5
f 832/654/5 831/653/5 829/651/5
f 835/657/1 834/656/1 833/655/1
f 836/658/1 834/656/1 835/657/1
f 839/661/4 838/660/4 837/659/4
f 840/662/4 839/661/4 837/659/4
f 843/665/4 842/664/4 841/663/4
f 844/666/4 843/665/4 841/663/4
f 847/669/2 846/668/2 845/667/2
f 848/670/2 847/669/2 845/667/2
f 851/673/4 850/672/4 849/671/4
f 852/674/4 851/673/4 849/671/4
f 855/677/2 854/676/2 853/675/2
f 856/678/2 855/677/2 853/675/2
f 859/681/4 858/680/4 857/679/4
f 860/682/4 859/681/4 857/679/4
f 863/685/1 862/684/1 861/683/1
f 864/686/1 862/684/1 863/685/1
f 867/689/5 866/688/5 865/687/5
f 868/690/5 867/689/5 865/687/5
f 871/178/1 870/178/1 869/178/1
f 872/178/1 870/178/1 871/178/1
f 875/693/2 874/692/2 873/691/2
f 876/694/2 875/693/2 873/691/2
f 879/697/3 878/696/3 877/695/3
f 880/698/3 878/696/3 879/697/3
f 883/701/2 882/700/2 881/699/2
f 884/702/2 883/701/2 881/699/2
f 887/178/5 886/178/5 885/178/5
f 888/178/5 887/178/5 885/178/5
f 891/178/4 890/178/4 889/178/4
f 892/178/4 891/178/4 889/178/4
f 895/705/6 894/704/6 893/703/6
f 896/706/6 894/704/6 895/705/6
f 899/709/2 898/708/2 897/707/2
f 900/710/2 899/709/2 897/707/2
f 903/713/4 902/712/4 901/711/4
f 904/714/4 903/713/4 901/711/4
f 907/717/2 906/716/2 905/715/2
f 908/718/2 907/717/2 905/715/2
f 911/721/4 910/720/4 909/719/4
f 912/722/4 911/721/4 909/719/4
f 915/725/4 914/724/4 913/723/4
f 916/726/4 915/725/4 913/723/4
f 919/729/8 918/728/8 917/727/8
f 920/730/8 919/729/8 917/727/8
f 923/733/4 922/732/4 921/731/4
f 924/734/4 923/733/4 921/731/4
f 927/737/1 926/736/1 925/735/1
f 928/738/1 926/736/1 927/737/1
f 931/741/5 930/740/5 929/739/5
f 932/742/5 931/741/5 929/739/5
f 935/745/6 934/744/6 933/743/6
f 936/746/6 934/744/6 935/745/6
f 939/749/1 938/748/1 937/747/1
f 940/750/1 938/748/1 939/749/1
f 943/753/2 942/752/2 941/751/2
f 944/754/2 943/753/2 941/751/2
f 947/757/5 946/756/5 945/755/5
f 948/758/5 947/757/5 945/755/5
f 951/761/4 950/760/4 949/759/4
f 952/762/4 951/761/4 949/759/4
f 955/765/2 954/764/2 953/763/2
f 956/766/2 955/765/2 953/763/2
f 959/769/4 958/768/4 957/767/4
f 960/770/4 959/769/4 957/767/4
f 963/773/4 962/772/4 961/771/4
f 964/774/4 963/773/4 961/771/4
f 967/777/4 966/776/4 965/775/4
f 968/778/4 967/777/4 965/775/4
f 971/781/1 970/780/1 969/779/1
f 972/782/1 970/780/1 971/781/1
f 975/1/2 974/1/2 973/1/2
f 976/1/2 975/1/2 973/1/2
f 979/785/4 978/784/4 977/783/4
f 980/786/4 979/785/4 977/783/4
f 983/1/5 982/1/5 981/1/5
f 984/1/5 983/1/5 981/1/5
f 987/789/6 986/788/6 985/787/6
f 988/790/6 986/788/6 987/789/6
f 991/793/3 990/792/3 989/791/3
f 992/794/3 990/792/3 991/793/3
