%YAML 1.1
%TAG !u! tag:unity3d.com,2011:
--- !u!114 &11400000
MonoBehaviour:
  m_ObjectHideFlags: 0
  m_CorrespondingSourceObject: {fileID: 0}
  m_PrefabInstance: {fileID: 0}
  m_PrefabAsset: {fileID: 0}
  m_GameObject: {fileID: 0}
  m_Enabled: 1
  m_EditorHideFlags: 0
  m_Script: {fileID: 11500000, guid: 24bbbb4c9a5cbb648a2efc7b3d94ee66, type: 3}
  m_Name: AdvancedPistolRecoilUpgradeSO
  m_EditorClassIdentifier: 
  price: 7500
  type: 1
  percentDecrease: 0.5
