# Export of Cubik Model: Cubik Model
# Designed by MeLee with Cubik Studio - https://cubik.studio
# from Cubik OBJ Exporter v1.0
mtllib grass_4a.mtl
v 0 0 1.907349E-06
v -32 0 1.907349E-06
v 0 2 1.907349E-06
v -32 2 1.907349E-06
v 0 0 1.907349E-06
v -32 0 1.907349E-06
v 0 1.907349E-06 -32
v -32 1.907349E-06 -32
v 0 0 1.907349E-06
v 0 2 1.907349E-06
v 0 1.907349E-06 -32
v 0 2.000002 -32
v 0 1.907349E-06 -32
v -32 1.907349E-06 -32
v 0 2.000002 -32
v -32 2.000002 -32
v 0 2 1.907349E-06
v -5.5 2 1.907349E-06
v 0 2.000002 -32
v -5.5 2.000002 -32
v -5.5 2 1.907349E-06
v -6.5 2 1.907349E-06
v -5.5 2 -14
v -6.5 2 -14
v -5.5 2 -14.5
v -6.5 2 -14.5
v -5.5 2 -16
v -6.5 2 -16
v -5.5 2 -16.5
v -7 2 -16.5
v -5.5 2.000002 -32
v -7 2.000002 -32
v -5.5 2 -14.5
v -6 2 -14.5
v -5.5 2.5 -14.5
v -6 2.5 -14.5
v -5.5 2 -14
v -6 2 -14
v -5.5 2.5 -14
v -6 2.5 -14
v -5.5 2.5 -14
v -6 2.5 -14
v -5.5 2.5 -14.5
v -6 2.5 -14.5
v -5.5 2 -14
v -5.5 2.5 -14
v -5.5 2 -14.5
v -5.5 2.5 -14.5
v -6 2 -14
v -6 2.5 -14
v -6 2 -14.5
v -6 2.5 -14.5
v -5.5 2 -16.5
v -6 2 -16.5
v -5.5 2.5 -16.5
v -6 2.5 -16.5
v -5.5 2 -16
v -6 2 -16
v -5.5 2.5 -16
v -6 2.5 -16
v -5.5 2.5 -16
v -6 2.5 -16
v -5.5 2.5 -16.5
v -6 2.5 -16.5
v -5.5 2 -16
v -5.5 2.5 -16
v -5.5 2 -16.5
v -5.5 2.5 -16.5
v -6 2 -16
v -6 2.5 -16
v -6 2 -16.5
v -6 2.5 -16.5
v -6 2 -14
v -7 2 -14
v -6 2 -14.5
v -7 2 -14.5
v -6 2 -16
v -6.5 2 -16
v -6 2 -16.5
v -6.5 2 -16.5
v -6.5 2 1.907349E-06
v -7 2 1.907349E-06
v -6.5 2 -11
v -7 2 -11
v -6.5 2 -11.5
v -7.5 2 -11.5
v -6.5 2 -12
v -7.5 2 -12
v -6.5 2 -12.5
v -7 2 -12.5
v -6.5 2 -13.5
v -7 2 -13.5
v -6.5 2 -14.5
v -7 2 -14.5
v -6.5 2 -15.5
v -7 2 -15.5
v -6.5 2 -11.5
v -7 2 -11.5
v -6.5 2.5 -11.5
v -7 2.5 -11.5
v -6.5 2 -11
v -7 2 -11
v -6.5 2.5 -11
v -7 2.5 -11
v -6.5 2.5 -11
v -7 2.5 -11
v -6.5 2.5 -11.5
v -7 2.5 -11.5
v -6.5 2 -11
v -6.5 2.5 -11
v -6.5 2 -11.5
v -6.5 2.5 -11.5
v -7 2 -11
v -7 2.5 -11
v -7 2 -11.5
v -7 2.5 -11.5
v -6.5 2 -12.5
v -7 2 -12.5
v -6.5 2.5 -12.5
v -7 2.5 -12.5
v -6.5 2 -12
v -7 2 -12
v -6.5 2.5 -12
v -7 2.5 -12
v -6.5 2.5 -12
v -7 2.5 -12
v -6.5 2.5 -12.5
v -7 2.5 -12.5
v -6.5 2 -12
v -6.5 2.5 -12
v -6.5 2 -12.5
v -6.5 2.5 -12.5
v -7 2 -12
v -7 2.5 -12
v -7 2 -12.5
v -7 2.5 -12.5
v -6.5 2 -14
v -7 2 -14
v -6.5 2.5 -14
v -7 2.5 -14
v -6.5 2 -13.5
v -7 2 -13.5
v -6.5 2.5 -13.5
v -7 2.5 -13.5
v -6.5 2.5 -13.5
v -7 2.5 -13.5
v -6.5 2.5 -14
v -7 2.5 -14
v -6.5 2 -13.5
v -6.5 2.5 -13.5
v -6.5 2 -14
v -6.5 2.5 -14
v -7 2 -13.5
v -7 2.5 -13.5
v -7 2 -14
v -7 2.5 -14
v -6.5 2 -15.5
v -7 2 -15.5
v -6.5 2.5 -15.5
v -7 2.5 -15.5
v -6.5 2.5 -15.5
v -12 2.5 -15.5
v -6.5 2.5 -16.5
v -12 2.5 -16.5
v -6.5 2 -15.5
v -6.5 2.5 -15.5
v -6.5 2 -16.5
v -6.5 2.5 -16.5
v -6.5 2 -16.5
v -7 2 -16.5
v -6.5 2.5 -16.5
v -7 2.5 -16.5
v -7 2 1.907349E-06
v -8 2 1.907349E-06
v -7 2 -10.5
v -8 2 -10.5
v -7 2 -11
v -8.5 2 -11
v -7 2 -11.5
v -8.5 2 -11.5
v -7 2 -12
v -7.5 2 -12
v -7 2 -13
v -7.5 2 -13
v -7 2 -13.5
v -7.5 2 -13.5
v -7 2 -14
v -7.5 2 -14
v -7 2 -17.5
v -7.5 2 -17.5
v -7 2.000002 -19.5
v -7.5 2.000002 -19.5
v -7.5 1.500002 -19.5
v -7.5 2.500002 -19.5
v -7.5 1.500002 -20
v -7.5 2.500002 -20
v -7 2.000002 -20
v -8 2.000002 -20
v -7 2.000002 -32
v -8 2.000002 -32
v -7 2 -11
v -7.5 2 -11
v -7 2.5 -11
v -7.5 2.5 -11
v -7 2 -10.5
v -7.5 2 -10.5
v -7 2.5 -10.5
v -7.5 2.5 -10.5
v -7 2.5 -10.5
v -7.5 2.5 -10.5
v -7 2.5 -11
v -7.5 2.5 -11
v -7 2 -10.5
v -7 2.5 -10.5
v -7 2 -11
v -7 2.5 -11
v -7.5 2 -10.5
v -7.5 2.5 -10.5
v -7.5 2 -11
v -7.5 2.5 -11
v -7 2 -13.5
v -7.5 2 -13.5
v -7 2.5 -13.5
v -7.5 2.5 -13.5
v -7 2 -13
v -7.5 2 -13
v -7 2.5 -13
v -7.5 2.5 -13
v -7 2.5 -13
v -12 2.5 -13
v -7 2.5 -13.5
v -12 2.5 -13.5
v -7 2 -13
v -7 2.5 -13
v -7 2 -13.5
v -7 2.5 -13.5
v -7 2 -14
v -7.5 2 -14
v -7 2.5 -14
v -7.5 2.5 -14
v -7 2.5 -14
v -11.5 2.5 -14
v -7 2.5 -15.5
v -11.5 2.5 -15.5
v -7 2 -14
v -7 2.5 -14
v -7 2 -15.5
v -7 2.5 -15.5
v -7 2.5 -16.5
v -11.5 2.5 -16.5
v -7 2.5 -17.5
v -11.5 2.5 -17.5
v -7 2 -16.5
v -7 2.5 -16.5
v -7 2 -17.5
v -7 2.5 -17.5
v -7 2 -17.5
v -7.5 2 -17.5
v -7 2.5 -17.5
v -7.5 2.5 -17.5
v -7 2.000002 -20
v -7.5 2.000002 -20
v -7 2.500002 -20
v -7.5 2.500002 -20
v -7 2.000002 -19.5
v -7.5 2.000002 -19.5
v -7 2.500002 -19.5
v -7.5 2.500002 -19.5
v -7 2.500002 -19.5
v -7.5 2.500002 -19.5
v -7 2.500002 -20
v -7.5 2.500002 -20
v -7 2.000002 -19.5
v -7 2.500002 -19.5
v -7 2.000002 -20
v -7 2.500002 -20
v -7.5 1.500002 -19.5
v -8 1.500002 -19.5
v -7.5 1.500002 -20
v -8 1.500002 -20
v -7.5 2 -10.5
v -8.5 2 -10.5
v -7.5 2 -11
v -8.5 2 -11
v -7.5 2 -18
v -8 2 -18
v -7.5 2.000002 -18.5
v -8 2.000002 -18.5
v -7.5 1.500002 -19.5
v -8 1.500002 -19.5
v -7.5 2.000002 -19.5
v -8 2.000002 -19.5
v -7.5 2.000002 -19
v -8.5 2.000002 -19
v -7.5 2.000002 -19.5
v -8.5 2.000002 -19.5
v -7.5 1.500002 -20
v -8 1.500002 -20
v -7.5 2.000002 -20
v -8 2.000002 -20
v -8 1.500002 -20.5
v -8 2.000002 -20.5
v -8 1.500002 -21
v -8 2.000002 -21
v -7.5 2 -11.5
v -8.5 2 -11.5
v -7.5 2.5 -11.5
v -8.5 2.5 -11.5
v -7.5 2.5 -11.5
v -17.5 2.5 -11.5
v -7.5 2.5 -13
v -17.5 2.5 -13
v -7.5 2 -11.5
v -7.5 2.5 -11.5
v -7.5 2 -13
v -7.5 2.5 -13
v -7.5 2.5 -13.5
v -12 2.5 -13.5
v -7.5 2.5 -14
v -12 2.5 -14
v -7.5 2 -13.5
v -7.5 2.5 -13.5
v -7.5 2 -14
v -7.5 2.5 -14
v -7.5 2 -18
v -8 2 -18
v -7.5 2.5 -18
v -8 2.5 -18
v -7.5 2.5 -17.5
v -12.5 2.5 -17.5
v -7.5 2.5 -18
v -12.5 2.5 -18
v -7.5 2 -17.5
v -7.5 2.5 -17.5
v -7.5 2 -18
v -7.5 2.5 -18
v -7.5 2.000002 -19
v -8.5 2.000002 -19
v -7.5 2.500002 -19
v -8.5 2.500002 -19
v -7.5 2.000002 -18.5
v -8 2.000002 -18.5
v -7.5 2.5 -18.5
v -8 2.5 -18.5
v -7.5 2.5 -18.5
v -14.5 2.5 -18.5
v -7.5 2.500002 -19
v -14.5 2.500002 -19
v -7.5 2.000002 -18.5
v -7.5 2.5 -18.5
v -7.5 2.000002 -19
v -7.5 2.500002 -19
v -8 1.500002 -20.5
v -8.5 1.500002 -20.5
v -8 1.500002 -21
v -8.5 1.500002 -21
v -8 2 1.907349E-06
v -32 2 1.907349E-06
v -8 2 -8.499998
v -32 2 -8.499998
v -8 2 -8.999998
v -8.5 2 -8.999998
v -8 2 -10.5
v -8.5 2 -10.5
v -8 2.000002 -19.5
v -8.5 2.000002 -19.5
v -8 2.000002 -20.5
v -8.5 2.000002 -20.5
v -8 1.500002 -19.5
v -8 2.000002 -19.5
v -8 1.500002 -20
v -8 2.000002 -20
v -8 1.500002 -20.5
v -8.5 1.500002 -20.5
v -8 2.000002 -20.5
v -8.5 2.000002 -20.5
v -8 1.500002 -21
v -8.5 1.500002 -21
v -8 2.000002 -21
v -8.5 2.000002 -21
v -8 2.000002 -21
v -9 2.000002 -21
v -8 2.000002 -32
v -9 2.000002 -32
v -8 2 -8.999998
v -8.5 2 -8.999998
v -8 2.5 -8.999998
v -8.5 2.5 -8.999998
v -8 2 -8.499998
v -8.5 2 -8.499998
v -8 2.5 -8.499998
v -8.5 2.5 -8.499998
v -8 2.5 -8.499998
v -8.5 2.5 -8.499998
v -8 2.5 -8.999998
v -8.5 2.5 -8.999998
v -8 2 -8.499998
v -8 2.5 -8.499998
v -8 2 -8.999998
v -8 2.5 -8.999998
v -8.5 2 -8.499998
v -8.5 2.5 -8.499998
v -8.5 2 -8.999998
v -8.5 2.5 -8.999998
v -8 2.5 -18
v -14 2.5 -18
v -8 2.5 -18.5
v -14 2.5 -18.5
v -8 2 -18
v -8 2.5 -18
v -8 2.000002 -18.5
v -8 2.5 -18.5
v -8.5 2 -8.499998
v -10 2 -8.499998
v -8.5 2 -9.999998
v -10 2 -9.999998
v -8.5 2.000002 -19.5
v -9 2.000002 -19.5
v -8.5 2.000002 -20
v -9 2.000002 -20
v -8.5 2.000002 -20.5
v -9.5 2.000002 -20.5
v -8.5 2.000002 -21
v -9.5 2.000002 -21
v -8.5 1.500002 -20.5
v -8.5 2.000002 -20.5
v -8.5 1.500002 -21
v -8.5 2.000002 -21
v -8.5 2 -9.999998
v -10 2 -9.999998
v -8.5 2.5 -9.999998
v -10 2.5 -9.999998
v -8.5 2.5 -9.999998
v -14.5 2.5 -9.999998
v -8.5 2.5 -11.5
v -14.5 2.5 -11.5
v -8.5 2 -9.999998
v -8.5 2.5 -9.999998
v -8.5 2 -11.5
v -8.5 2.5 -11.5
v -8.5 2.000002 -19.5
v -9 2.000002 -19.5
v -8.5 2.500002 -19.5
v -9 2.500002 -19.5
v -8.5 2.500002 -19
v -11.5 2.500002 -19
v -8.5 2.500002 -19.5
v -11.5 2.500002 -19.5
v -8.5 2.000002 -19
v -8.5 2.500002 -19
v -8.5 2.000002 -19.5
v -8.5 2.500002 -19.5
v -8.5 2.000002 -20.5
v -9.5 2.000002 -20.5
v -8.5 2.500002 -20.5
v -9.5 2.500002 -20.5
v -8.5 2.000002 -20
v -9 2.000002 -20
v -8.5 2.500002 -20
v -9 2.500002 -20
v -8.5 2.500002 -20
v -11.5 2.500002 -20
v -8.5 2.500002 -20.5
v -11.5 2.500002 -20.5
v -8.5 2.000002 -20
v -8.5 2.500002 -20
v -8.5 2.000002 -20.5
v -8.5 2.500002 -20.5
v -9 2.000002 -21
v -10.5 2.000002 -21
v -9 2.000002 -21.5
v -10.5 2.000002 -21.5
v -9 2.000002 -22
v -10 2.000002 -22
v -9 2.000002 -32
v -10 2.000002 -32
v -9 2.500002 -19.5
v -21 2.500002 -19.5
v -9 2.500002 -20
v -21 2.500002 -20
v -9 2.000002 -19.5
v -9 2.500002 -19.5
v -9 2.000002 -20
v -9 2.500002 -20
v -9 2.000002 -22
v -9.5 2.000002 -22
v -9 2.500002 -22
v -9.5 2.500002 -22
v -9 2.000002 -21.5
v -9.5 2.000002 -21.5
v -9 2.500002 -21.5
v -9.5 2.500002 -21.5
v -9 2.500002 -21.5
v -9.5 2.500002 -21.5
v -9 2.500002 -22
v -9.5 2.500002 -22
v -9 2.000002 -21.5
v -9 2.500002 -21.5
v -9 2.000002 -22
v -9 2.500002 -22
v -9.5 2.000002 -21.5
v -9.5 2.500002 -21.5
v -9.5 2.000002 -22
v -9.5 2.500002 -22
v -9.5 2.000002 -21.5
v -11.5 2.000002 -21.5
v -9.5 2.000002 -22
v -11.5 2.000002 -22
v -9.5 2.000002 -21
v -10.5 2.000002 -21
v -9.5 2.500002 -21
v -10.5 2.500002 -21
v -9.5 2.500002 -20.5
v -12 2.500002 -20.5
v -9.5 2.500002 -21
v -12 2.500002 -21
v -9.5 2.000002 -20.5
v -9.5 2.500002 -20.5
v -9.5 2.000002 -21
v -9.5 2.500002 -21
v -10 2 -8.499998
v -11 2 -8.499998
v -10 2 -9.499998
v -11 2 -9.499998
v -10 2.000002 -22
v -12.5 2.000002 -22
v -10 2.000002 -22.5
v -12.5 2.000002 -22.5
v -10 2.000002 -23
v -11.5 2.000002 -23
v -10 2.000002 -32
v -11.5 2.000002 -32
v -10 2 -9.499998
v -11 2 -9.499998
v -10 2.5 -9.499998
v -11 2.5 -9.499998
v -10 2.5 -9.499998
v -14 2.5 -9.499998
v -10 2.5 -9.999998
v -14 2.5 -9.999998
v -10 2 -9.499998
v -10 2.5 -9.499998
v -10 2 -9.999998
v -10 2.5 -9.999998
v -10 2.000002 -23
v -10.5 2.000002 -23
v -10 2.500002 -23
v -10.5 2.500002 -23
v -10 2.000002 -22.5
v -10.5 2.000002 -22.5
v -10 2.500002 -22.5
v -10.5 2.500002 -22.5
v -10 2.500002 -22.5
v -10.5 2.500002 -22.5
v -10 2.500002 -23
v -10.5 2.500002 -23
v -10 2.000002 -22.5
v -10 2.500002 -22.5
v -10 2.000002 -23
v -10 2.500002 -23
v -10.5 2.000002 -22.5
v -10.5 2.500002 -22.5
v -10.5 2.000002 -23
v -10.5 2.500002 -23
v -10.5 2.000002 -22.5
v -11 2.000002 -22.5
v -10.5 2.000002 -23
v -11 2.000002 -23
v -10.5 2.000002 -21.5
v -11 2.000002 -21.5
v -10.5 2.500002 -21.5
v -11 2.500002 -21.5
v -10.5 2.500002 -21
v -11 2.500002 -21
v -10.5 2.500002 -21.5
v -11 2.500002 -21.5
v -10.5 2.000002 -21
v -10.5 2.500002 -21
v -10.5 2.000002 -21.5
v -10.5 2.500002 -21.5
v -11 2.000002 -21
v -11 2.500002 -21
v -11 2.000002 -21.5
v -11 2.500002 -21.5
v -11 2 -8.499998
v -11.5 2 -8.499998
v -11 2 -8.999998
v -11.5 2 -8.999998
v -11.5 1.5 -8.999998
v -11.5 2.5 -8.999998
v -11.5 1.5 -9.499998
v -11.5 2.5 -9.499998
v -11 2.000002 -21
v -12 2.000002 -21
v -11 2.000002 -21.5
v -12 2.000002 -21.5
v -11 2 -8.999998
v -11.5 2 -8.999998
v -11 2.5 -8.999998
v -11.5 2.5 -8.999998
v -11 2.5 -8.999998
v -11.5 2.5 -8.999998
v -11 2.5 -9.499998
v -11.5 2.5 -9.499998
v -11 2 -8.999998
v -11 2.5 -8.999998
v -11 2 -9.499998
v -11 2.5 -9.499998
v -11.5 2 -17
v -11.5 2.5 -17
v -11.5 2 -17.5
v -11.5 2.5 -17.5
v -11.5 2.000002 -20
v -11.5 2.500002 -20
v -11.5 2.000002 -20.5
v -11.5 2.500002 -20.5
v -11 2.000002 -21
v -12 2.000002 -21
v -11 2.500002 -21
v -12 2.500002 -21
v -11 2.000002 -23
v -11.5 2.000002 -23
v -11 2.500002 -23
v -11.5 2.500002 -23
v -11 2.000002 -22.5
v -11.5 2.000002 -22.5
v -11 2.500002 -22.5
v -11.5 2.500002 -22.5
v -11 2.500002 -22.5
v -11.5 2.500002 -22.5
v -11 2.500002 -23
v -11.5 2.500002 -23
v -11 2.000002 -22.5
v -11 2.500002 -22.5
v -11 2.000002 -23
v -11 2.500002 -23
v -11.5 2.000002 -22.5
v -11.5 2.500002 -22.5
v -11.5 2.000002 -23
v -11.5 2.500002 -23
v -11.5 1.5 -8.999998
v -12 1.5 -8.999998
v -11.5 1.5 -9.499998
v -12 1.5 -9.499998
v -11.5 1.5 -8.999998
v -12 1.5 -8.999998
v -11.5 2.5 -8.999998
v -12 2.5 -8.999998
v -11.5 1.5 -9.499998
v -12 1.5 -9.499998
v -11.5 2.5 -9.499998
v -12 2.5 -9.499998
v -11.5 2 -17
v -12 2 -17
v -11.5 2 -17.5
v -12 2 -17.5
v -11.5 2.000002 -20
v -12 2.000002 -20
v -11.5 2.000002 -20.5
v -12 2.000002 -20.5
v -11.5 2.000002 -22.5
v -13.5 2.000002 -22.5
v -11.5 2.000002 -23
v -13.5 2.000002 -23
v -11.5 2.000002 -23.5
v -16 2.000002 -23.5
v -11.5 2.000002 -32
v -16 2.000002 -32
v -11.5 2 -8.499998
v -12 2 -8.499998
v -11.5 2.5 -8.499998
v -12 2.5 -8.499998
v -11.5 2.5 -8.499998
v -12 2.5 -8.499998
v -11.5 2.5 -8.999998
v -12 2.5 -8.999998
v -11.5 2 -8.499998
v -11.5 2.5 -8.499998
v -11.5 2 -8.999998
v -11.5 2.5 -8.999998
v -12 2 -8.499998
v -12 2.5 -8.499998
v -12 2 -8.999998
v -12 2.5 -8.999998
v -11.5 2 -17
v -12 2 -17
v -11.5 2.5 -17
v -12 2.5 -17
v -11.5 2.5 -16.5
v -12 2.5 -16.5
v -11.5 2.5 -17
v -12 2.5 -17
v -11.5 2 -17.5
v -12 2 -17.5
v -11.5 2.5 -17.5
v -12 2.5 -17.5
v -11.5 2.000002 -20
v -12 2.000002 -20
v -11.5 2.500002 -20
v -12 2.500002 -20
v -11.5 2.000002 -20.5
v -12 2.000002 -20.5
v -11.5 2.500002 -20.5
v -12 2.500002 -20.5
v -12 2.000002 -20.5
v -12 2.500002 -20.5
v -12 2.000002 -21
v -12 2.500002 -21
v -11.5 2.000002 -22
v -12.5 2.000002 -22
v -11.5 2.500002 -22
v -12.5 2.500002 -22
v -11.5 2.000002 -21.5
v -12 2.000002 -21.5
v -11.5 2.500002 -21.5
v -12 2.500002 -21.5
v -11.5 2.500002 -21.5
v -13 2.500002 -21.5
v -11.5 2.500002 -22
v -13 2.500002 -22
v -11.5 2.000002 -21.5
v -11.5 2.500002 -21.5
v -11.5 2.000002 -22
v -11.5 2.500002 -22
v -11.5 2.000002 -23.5
v -12 2.000002 -23.5
v -11.5 2.500002 -23.5
v -12 2.500002 -23.5
v -11.5 2.000002 -23
v -12 2.000002 -23
v -11.5 2.500002 -23
v -12 2.500002 -23
v -11.5 2.500002 -23
v -12 2.500002 -23
v -11.5 2.500002 -23.5
v -12 2.500002 -23.5
v -11.5 2.000002 -23
v -11.5 2.500002 -23
v -11.5 2.000002 -23.5
v -11.5 2.500002 -23.5
v -12 2.000002 -23
v -12 2.500002 -23
v -12 2.000002 -23.5
v -12 2.500002 -23.5
v -11.5 2.5 -14
v -12 2.5 -14
v -11.5 3 -14
v -12 3 -14
v -11.5 3 -14
v -15 3 -14
v -11.5 3 -15.5
v -15 3 -15.5
v -11.5 2.5 -14
v -11.5 3 -14
v -11.5 2.5 -15.5
v -11.5 3 -15.5
v -11.5 2.5 -15.5
v -12 2.5 -15.5
v -11.5 3 -15.5
v -12 3 -15.5
v -11.5 2.500002 -19.5
v -12 2.500002 -19.5
v -11.5 3.000002 -19.5
v -12 3.000002 -19.5
v -11.5 2.500002 -19
v -12 2.500002 -19
v -11.5 3 -19
v -12 3 -19
v -11.5 3 -19
v -12 3 -19
v -11.5 3.000002 -19.5
v -12 3.000002 -19.5
v -11.5 2.500002 -19
v -11.5 3 -19
v -11.5 2.500002 -19.5
v -11.5 3.000002 -19.5
v -12 2.500002 -19
v -12 3 -19
v -12 2.500002 -19.5
v -12 3.000002 -19.5
v -12 2 -8.499998
v -13 2 -8.499998
v -12 2 -9.499998
v -13 2 -9.499998
v -12 1.5 -8.999998
v -12 2 -8.999998
v -12 1.5 -9.499998
v -12 2 -9.499998
v -12 2.000002 -20.5
v -12.5 2.000002 -20.5
v -12 2.000002 -21
v -12.5 2.000002 -21
v -12 2.000002 -23
v -13 2.000002 -23
v -12 2.000002 -23.5
v -13 2.000002 -23.5
v -12 2 -9.499998
v -13.5 2 -9.499998
v -12 2.5 -9.499998
v -13.5 2.5 -9.499998
v -12 2.5 -17
v -12.5 2.5 -17
v -12 2.5 -17.5
v -12.5 2.5 -17.5
v -12 2 -17
v -12 2.5 -17
v -12 2 -17.5
v -12 2.5 -17.5
v -12 2.500002 -19
v -21.5 2.500002 -19
v -12 2.500002 -19.5
v -21.5 2.500002 -19.5
v -12 2.000002 -20.5
v -12.5 2.000002 -20.5
v -12 2.500002 -20.5
v -12.5 2.500002 -20.5
v -12 2.500002 -20
v -20.5 2.500002 -20
v -12 2.500002 -20.5
v -20.5 2.500002 -20.5
v -12 2.000002 -20
v -12 2.500002 -20
v -12 2.000002 -20.5
v -12 2.500002 -20.5
v -12 2.000002 -21
v -12.5 2.000002 -21
v -12 2.500002 -21
v -12.5 2.500002 -21
v -12 2.500002 -21
v -13.5 2.500002 -21
v -12 2.500002 -21.5
v -13.5 2.500002 -21.5
v -12 2.000002 -21
v -12 2.500002 -21
v -12 2.000002 -21.5
v -12 2.500002 -21.5
v -12 2.5 -13
v -13 2.5 -13
v -12 3 -13
v -13 3 -13
v -12 3 -13
v -13 3 -13
v -12 3 -14
v -13 3 -14
v -12 2.5 -13
v -12 3 -13
v -12 2.5 -14
v -12 3 -14
v -12 3 -15.5
v -15.5 3 -15.5
v -12 3 -17
v -15.5 3 -17
v -12 2.5 -15.5
v -12 3 -15.5
v -12 2.5 -17
v -12 3 -17
v -12 2.5 -17
v -12.5 2.5 -17
v -12 3 -17
v -12.5 3 -17
v -12.5 2.500002 -20.5
v -13 2.500002 -20.5
v -12.5 2.500002 -21
v -13 2.500002 -21
v -12.5 2.000002 -20.5
v -12.5 2.500002 -20.5
v -12.5 2.000002 -21
v -12.5 2.500002 -21
v -13 2.000002 -20.5
v -13 2.500002 -20.5
v -13 2.000002 -21
v -13 2.500002 -21
v -13 2.000002 -21.5
v -13 2.500002 -21.5
v -13 2.000002 -22
v -13 2.500002 -22
v -12.5 2.000002 -22.5
v -13.5 2.000002 -22.5
v -12.5 2.500002 -22.5
v -13.5 2.500002 -22.5
v -12.5 2.500002 -22
v -14 2.500002 -22
v -12.5 2.500002 -22.5
v -14 2.500002 -22.5
v -12.5 2.000002 -22
v -12.5 2.500002 -22
v -12.5 2.000002 -22.5
v -12.5 2.500002 -22.5
v -13 2.5 -13
v -13 3 -13
v -13 2.5 -13.5
v -13 3 -13.5
v -12.5 3 -17
v -13.5 3 -17
v -12.5 3 -18
v -13.5 3 -18
v -12.5 2.5 -17
v -12.5 3 -17
v -12.5 2.5 -18
v -12.5 3 -18
v -12.5 2.5 -18
v -13.5 2.5 -18
v -12.5 3 -18
v -13.5 3 -18
v -13 2 -8.999998
v -13.5 2 -8.999998
v -13 2 -9.499998
v -13.5 2 -9.499998
v -13 2.000002 -20.5
v -14.5 2.000002 -20.5
v -13 2.000002 -21
v -14.5 2.000002 -21
v -13 2.000002 -21.5
v -13.5 2.000002 -21.5
v -13 2.000002 -22
v -13.5 2.000002 -22
v -13 2 -8.999998
v -13.5 2 -8.999998
v -13 2.5 -8.999998
v -13.5 2.5 -8.999998
v -13 2 -8.499998
v -13.5 2 -8.499998
v -13 2.5 -8.499998
v -13.5 2.5 -8.499998
v -13 2.5 -8.499998
v -13.5 2.5 -8.499998
v -13 2.5 -8.999998
v -13.5 2.5 -8.999998
v -13 2 -8.499998
v -13 2.5 -8.499998
v -13 2 -8.999998
v -13 2.5 -8.999998
v -13.5 2 -8.499998
v -13.5 2.5 -8.499998
v -13.5 2 -8.999998
v -13.5 2.5 -8.999998
v -13 2.5 -13
v -14.5 2.5 -13
v -13 2.5 -13.5
v -14.5 2.5 -13.5
v -13 2.000002 -20.5
v -14.5 2.000002 -20.5
v -13 2.500002 -20.5
v -14.5 2.500002 -20.5
v -13 2.000002 -21.5
v -13.5 2.000002 -21.5
v -13 2.500002 -21.5
v -13.5 2.500002 -21.5
v -13 2.000002 -21
v -13.5 2.000002 -21
v -13 2.500002 -21
v -13.5 2.500002 -21
v -13.5 2.000002 -21
v -13.5 2.500002 -21
v -13.5 2.000002 -21.5
v -13.5 2.500002 -21.5
v -13 2.000002 -22
v -13.5 2.000002 -22
v -13 2.500002 -22
v -13.5 2.500002 -22
v -13 2.000002 -23.5
v -13.5 2.000002 -23.5
v -13 2.500002 -23.5
v -13.5 2.500002 -23.5
v -13 2.000002 -23
v -13.5 2.000002 -23
v -13 2.500002 -23
v -13.5 2.500002 -23
v -13 2.500002 -23
v -13.5 2.500002 -23
v -13 2.500002 -23.5
v -13.5 2.500002 -23.5
v -13 2.000002 -23
v -13 2.500002 -23
v -13 2.000002 -23.5
v -13 2.500002 -23.5
v -13.5 2.000002 -23
v -13.5 2.500002 -23
v -13.5 2.000002 -23.5
v -13.5 2.500002 -23.5
v -13 2.5 -13.5
v -14.5 2.5 -13.5
v -13 3 -13.5
v -14.5 3 -13.5
v -13 3 -13.5
v -15.5 3 -13.5
v -13 3 -14
v -15.5 3 -14
v -13.5 2.5 -17.5
v -13.5 3 -17.5
v -13.5 2.5 -18
v -13.5 3 -18
v -13.5 2 -8.499998
v -32 2 -8.499998
v -13.5 2 -8.999998
v -32 2 -8.999998
v -13.5 2.000002 -21
v -14 2.000002 -21
v -13.5 2.000002 -21.5
v -14 2.000002 -21.5
v -13.5 2.000002 -23
v -14 2.000002 -23
v -13.5 2.000002 -23.5
v -14 2.000002 -23.5
v -13.5 2 -8.999998
v -14 2 -8.999998
v -13.5 2.5 -8.999998
v -14 2.5 -8.999998
v -13.5 2.5 -8.999998
v -14 2.5 -8.999998
v -13.5 2.5 -9.499998
v -14 2.5 -9.499998
v -13.5 2 -8.999998
v -13.5 2.5 -8.999998
v -13.5 2 -9.499998
v -13.5 2.5 -9.499998
v -14 2 -8.999998
v -14 2.5 -8.999998
v -14 2 -9.999998
v -14 2.5 -9.999998
v -13.5 2.5 -17.5
v -14 2.5 -17.5
v -13.5 2.5 -18
v -14 2.5 -18
v -13.5 2.000002 -21.5
v -14 2.000002 -21.5
v -13.5 2.500002 -21.5
v -14 2.500002 -21.5
v -13.5 2.500002 -21.5
v -14 2.500002 -21.5
v -13.5 2.500002 -22
v -14 2.500002 -22
v -13.5 2.000002 -21.5
v -13.5 2.500002 -21.5
v -13.5 2.000002 -22
v -13.5 2.500002 -22
v -14 2.000002 -21.5
v -14 2.500002 -21.5
v -14 2.000002 -22.5
v -14 2.500002 -22.5
v -13.5 2.000002 -23
v -14 2.000002 -23
v -13.5 2.500002 -23
v -14 2.500002 -23
v -13.5 2.500002 -22.5
v -15 2.500002 -22.5
v -13.5 2.500002 -23
v -15 2.500002 -23
v -13.5 2.000002 -22.5
v -13.5 2.500002 -22.5
v -13.5 2.000002 -23
v -13.5 2.500002 -23
v -13.5 2.5 -17.5
v -14 2.5 -17.5
v -13.5 3 -17.5
v -14 3 -17.5
v -13.5 3 -17
v -17.5 3 -17
v -13.5 3 -17.5
v -17.5 3 -17.5
v -14 2 -8.999998
v -14.5 2 -8.999998
v -14 2 -9.999998
v -14.5 2 -9.999998
v -14 2.000002 -21.5
v -15 2.000002 -21.5
v -14 2.000002 -22.5
v -15 2.000002 -22.5
v -14 2 -9.999998
v -14.5 2 -9.999998
v -14 2.5 -9.999998
v -14.5 2.5 -9.999998
v -14.5 2 -9.999998
v -14.5 2.5 -9.999998
v -14.5 2 -10.5
v -14.5 2.5 -10.5
v -14 2.000002 -21.5
v -15 2.000002 -21.5
v -14 2.500002 -21.5
v -15 2.500002 -21.5
v -14 2.000002 -21
v -14.5 2.000002 -21
v -14 2.500002 -21
v -14.5 2.500002 -21
v -14 2.500002 -21
v -20.5 2.500002 -21
v -14 2.500002 -21.5
v -20.5 2.500002 -21.5
v -14 2.000002 -21
v -14 2.500002 -21
v -14 2.000002 -21.5
v -14 2.500002 -21.5
v -14 2.000002 -22.5
v -15 2.000002 -22.5
v -14 2.500002 -22.5
v -15 2.500002 -22.5
v -14 2.000002 -23.5
v -14.5 2.000002 -23.5
v -14 2.500002 -23.5
v -14.5 2.500002 -23.5
v -14 2.500002 -23
v -14.5 2.500002 -23
v -14 2.500002 -23.5
v -14.5 2.500002 -23.5
v -14 2.000002 -23
v -14 2.500002 -23
v -14 2.000002 -23.5
v -14 2.500002 -23.5
v -14.5 2.000002 -23
v -14.5 2.500002 -23
v -14.5 2.000002 -23.5
v -14.5 2.500002 -23.5
v -14 3 -17.5
v -17 3 -17.5
v -14 3 -18.5
v -17 3 -18.5
v -14 2.5 -17.5
v -14 3 -17.5
v -14 2.5 -18.5
v -14 3 -18.5
v -14 2.5 -18.5
v -14.5 2.5 -18.5
v -14 3 -18.5
v -14.5 3 -18.5
v -14.5 2 -8.999998
v -32 2 -8.999998
v -14.5 2 -9.499998
v -32 2 -9.499998
v -14.5 2 -9.999998
v -15.5 2 -9.999998
v -14.5 2 -10.5
v -15.5 2 -10.5
v -14.5 2.000002 -23
v -15.5 2.000002 -23
v -14.5 2.000002 -23.5
v -15.5 2.000002 -23.5
v -14.5 2 -9.999998
v -15 2 -9.999998
v -14.5 2.5 -9.999998
v -15 2.5 -9.999998
v -14.5 2 -9.499998
v -15 2 -9.499998
v -14.5 2.5 -9.499998
v -15 2.5 -9.499998
v -14.5 2.5 -9.499998
v -15 2.5 -9.499998
v -14.5 2.5 -9.999998
v -15 2.5 -9.999998
v -14.5 2 -9.499998
v -14.5 2.5 -9.499998
v -14.5 2 -9.999998
v -14.5 2.5 -9.999998
v -15 2 -9.499998
v -15 2.5 -9.499998
v -15 2 -9.999998
v -15 2.5 -9.999998
v -14.5 2 -10.5
v -15.5 2 -10.5
v -14.5 2.5 -10.5
v -15.5 2.5 -10.5
v -14.5 2.5 -10.5
v -16.5 2.5 -10.5
v -14.5 2.5 -11.5
v -16.5 2.5 -11.5
v -14.5 2.500002 -20.5
v -20.5 2.500002 -20.5
v -14.5 2.500002 -21
v -20.5 2.500002 -21
v -14.5 2.000002 -20.5
v -14.5 2.500002 -20.5
v -14.5 2.000002 -21
v -14.5 2.500002 -21
v -14.5 2.000002 -23
v -15 2.000002 -23
v -14.5 2.500002 -23
v -15 2.500002 -23
v -15 2.000002 -22.5
v -15 2.500002 -22.5
v -15 2.000002 -23
v -15 2.500002 -23
v -14.5 2.5 -13
v -15 2.5 -13
v -14.5 3 -13
v -15 3 -13
v -14.5 3 -13
v -15 3 -13
v -14.5 3 -13.5
v -15 3 -13.5
v -14.5 2.5 -13
v -14.5 3 -13
v -14.5 2.5 -13.5
v -14.5 3 -13.5
v -15 2.5 -13
v -15 3 -13
v -15 2.5 -13.5
v -15 3 -13.5
v -15 2.5 -15
v -15 3 -15
v -15 2.5 -15.5
v -15 3 -15.5
v -14.5 2.500002 -19
v -15 2.500002 -19
v -14.5 3 -19
v -15 3 -19
v -14.5 3 -18.5
v -15 3 -18.5
v -14.5 3 -19
v -15 3 -19
v -14.5 2.5 -18.5
v -14.5 3 -18.5
v -14.5 2.500002 -19
v -14.5 3 -19
v -15 2.5 -18.5
v -15 3 -18.5
v -15 2.500002 -19
v -15 3 -19
v -15 2 -9.499998
v -16.5 2 -9.499998
v -15 2 -9.999998
v -16.5 2 -9.999998
v -15 2.000002 -22.5
v -16 2.000002 -22.5
v -15 2.000002 -23
v -16 2.000002 -23
v -15.5 1.500002 -23
v -15.5 2.000002 -23
v -15.5 1.500002 -23.5
v -15.5 2.000002 -23.5
v -15 2.5 -13
v -19 2.5 -13
v -15 2.5 -13.5
v -19 2.5 -13.5
v -15 2.5 -15
v -15.5 2.5 -15
v -15 2.5 -15.5
v -15.5 2.5 -15.5
v -15 2.5 -18.5
v -22 2.5 -18.5
v -15 2.500002 -19
v -22 2.500002 -19
v -15 2.500002 -21.5
v -16 2.500002 -21.5
v -15 2.500002 -22.5
v -16 2.500002 -22.5
v -15 2.000002 -21.5
v -15 2.500002 -21.5
v -15 2.000002 -22.5
v -15 2.500002 -22.5
v -15 2.000002 -22.5
v -16 2.000002 -22.5
v -15 2.500002 -22.5
v -16 2.500002 -22.5
v -15 2.5 -13.5
v -15.5 2.5 -13.5
v -15 3 -13.5
v -15.5 3 -13.5
v -15.5 2.5 -13.5
v -15.5 3 -13.5
v -15.5 2.5 -15
v -15.5 3 -15
v -15 3 -14
v -15.5 3 -14
v -15 3 -15
v -15.5 3 -15
v -15 2.5 -15
v -15.5 2.5 -15
v -15 3 -15
v -15.5 3 -15
v -15 2.5 -15.5
v -15.5 2.5 -15.5
v -15 3 -15.5
v -15.5 3 -15.5
v -15.5 2.5 -15.5
v -15.5 3 -15.5
v -15.5 2.5 -16.5
v -15.5 3 -16.5
v -15 2.5 -18.5
v -17 2.5 -18.5
v -15 3 -18.5
v -17 3 -18.5
v -15.5 1.500002 -23
v -16 1.500002 -23
v -15.5 1.500002 -23.5
v -16 1.500002 -23.5
v -15.5 1.500002 -23
v -16 1.500002 -23
v -15.5 2.000002 -23
v -16 2.000002 -23
v -15.5 1.500002 -23.5
v -16 1.500002 -23.5
v -15.5 2.000002 -23.5
v -16 2.000002 -23.5
v -15.5 2 -9.999998
v -16.5 2 -9.999998
v -15.5 2.5 -9.999998
v -16.5 2.5 -9.999998
v -15.5 2.5 -9.999998
v -16.5 2.5 -9.999998
v -15.5 2.5 -10.5
v -16.5 2.5 -10.5
v -15.5 2 -9.999998
v -15.5 2.5 -9.999998
v -15.5 2 -10.5
v -15.5 2.5 -10.5
v -15.5 2.5 -13.5
v -19.5 2.5 -13.5
v -15.5 2.5 -15
v -19.5 2.5 -15
v -15.5 2.5 -15.5
v -16 2.5 -15.5
v -15.5 2.5 -16.5
v -16 2.5 -16.5
v -16 2.000002 -22
v -16 2.500002 -22
v -16 2.000002 -22.5
v -16 2.500002 -22.5
v -15.5 2.5 -15.5
v -16 2.5 -15.5
v -15.5 3 -15.5
v -16 3 -15.5
v -15.5 2.5 -15
v -16 2.5 -15
v -15.5 3 -15
v -16 3 -15
v -15.5 3 -15
v -16 3 -15
v -15.5 3 -15.5
v -16 3 -15.5
v -15.5 2.5 -15
v -15.5 3 -15
v -15.5 2.5 -15.5
v -15.5 3 -15.5
v -16 2.5 -15
v -16 3 -15
v -16 2.5 -15.5
v -16 3 -15.5
v -15.5 2.5 -16.5
v -16.5 2.5 -16.5
v -15.5 3 -16.5
v -16.5 3 -16.5
v -15.5 3 -16.5
v -16.5 3 -16.5
v -15.5 3 -17
v -16.5 3 -17
v -16 2.000002 -22
v -17 2.000002 -22
v -16 2.000002 -22.5
v -17 2.000002 -22.5
v -16 2.000002 -23
v -16.5 2.000002 -23
v -16 2.000002 -23.5
v -16.5 2.000002 -23.5
v -16 1.500002 -23
v -16 2.000002 -23
v -16 1.500002 -23.5
v -16 2.000002 -23.5
v -16 2.000002 -24
v -17 2.000002 -24
v -16 2.000002 -32
v -17 2.000002 -32
v -16.5 2 -9.999998
v -16.5 2.5 -9.999998
v -16.5 2 -11
v -16.5 2.5 -11
v -16 2.5 -15
v -21 2.5 -15
v -16 2.5 -15.5
v -21 2.5 -15.5
v -16 2.5 -16
v -21.5 2.5 -16
v -16 2.5 -16.5
v -21.5 2.5 -16.5
v -16 2.000002 -22
v -16.5 2.000002 -22
v -16 2.500002 -22
v -16.5 2.500002 -22
v -16 2.500002 -21.5
v -16.5 2.500002 -21.5
v -16 2.500002 -22
v -16.5 2.500002 -22
v -16.5 2.000002 -21.5
v -16.5 2.500002 -21.5
v -16.5 2.000002 -22
v -16.5 2.500002 -22
v -16 2.000002 -23
v -16.5 2.000002 -23
v -16 2.500002 -23
v -16.5 2.500002 -23
v -16 2.000002 -22.5
v -17 2.000002 -22.5
v -16 2.500002 -22.5
v -17 2.500002 -22.5
v -16 2.500002 -22.5
v -18.5 2.500002 -22.5
v -16 2.500002 -23
v -18.5 2.500002 -23
v -16 2.000002 -22.5
v -16 2.500002 -22.5
v -16 2.000002 -23
v -16 2.500002 -23
v -16 2.000002 -24
v -16.5 2.000002 -24
v -16 2.500002 -24
v -16.5 2.500002 -24
v -16 2.000002 -23.5
v -16.5 2.000002 -23.5
v -16 2.500002 -23.5
v -16.5 2.500002 -23.5
v -16 2.500002 -23.5
v -16.5 2.500002 -23.5
v -16 2.500002 -24
v -16.5 2.500002 -24
v -16 2.000002 -23.5
v -16 2.500002 -23.5
v -16 2.000002 -24
v -16 2.500002 -24
v -16.5 2.000002 -23.5
v -16.5 2.500002 -23.5
v -16.5 2.000002 -24
v -16.5 2.500002 -24
v -16 2.5 -16
v -16.5 2.5 -16
v -16 3 -16
v -16.5 3 -16
v -16 2.5 -15.5
v -16.5 2.5 -15.5
v -16 3 -15.5
v -16.5 3 -15.5
v -16 3 -15.5
v -16.5 3 -15.5
v -16 3 -16
v -16.5 3 -16
v -16 2.5 -15.5
v -16 3 -15.5
v -16 2.5 -16
v -16 3 -16
v -16.5 2.5 -15.5
v -16.5 3 -15.5
v -16.5 2.5 -16
v -16.5 3 -16
v -16.5 2.5 -16.5
v -16.5 3 -16.5
v -16.5 2.5 -17
v -16.5 3 -17
v -16.5 2 -9.999998
v -20 2 -9.999998
v -16.5 2 -11
v -20 2 -11
v -16.5 2.000002 -21.5
v -17 2.000002 -21.5
v -16.5 2.000002 -22
v -17 2.000002 -22
v -16.5 2.000002 -23.5
v -32 2.000002 -23.5
v -16.5 2.000002 -24
v -32 2.000002 -24
v -16.5 2 -9.999998
v -17 2 -9.999998
v -16.5 2.5 -9.999998
v -17 2.5 -9.999998
v -16.5 2 -9.499998
v -17 2 -9.499998
v -16.5 2.5 -9.499998
v -17 2.5 -9.499998
v -16.5 2.5 -9.499998
v -17 2.5 -9.499998
v -16.5 2.5 -9.999998
v -17 2.5 -9.999998
v -16.5 2 -9.499998
v -16.5 2.5 -9.499998
v -16.5 2 -9.999998
v -16.5 2.5 -9.999998
v -17 2 -9.499998
v -17 2.5 -9.499998
v -17 2 -9.999998
v -17 2.5 -9.999998
v -16.5 2 -11
v -17 2 -11
v -16.5 2.5 -11
v -17 2.5 -11
v -16.5 2.5 -11
v -17 2.5 -11
v -16.5 2.5 -11.5
v -17 2.5 -11.5
v -17 2 -11
v -17 2.5 -11
v -17 2 -11.5
v -17 2.5 -11.5
v -16.5 2.5 -15.5
v -21.5 2.5 -15.5
v -16.5 2.5 -16
v -21.5 2.5 -16
v -16.5 2.5 -16.5
v -22 2.5 -16.5
v -16.5 2.5 -17
v -22 2.5 -17
v -16.5 2.000002 -21.5
v -17 2.000002 -21.5
v -16.5 2.500002 -21.5
v -17 2.500002 -21.5
v -16.5 2.000002 -23.5
v -17.5 2.000002 -23.5
v -16.5 2.500002 -23.5
v -17.5 2.500002 -23.5
v -16.5 2.500002 -23
v -17.5 2.500002 -23
v -16.5 2.500002 -23.5
v -17.5 2.500002 -23.5
v -16.5 2.000002 -23
v -16.5 2.500002 -23
v -16.5 2.000002 -23.5
v -16.5 2.500002 -23.5
v -16.5 2.5 -17
v -17.5 2.5 -17
v -16.5 3 -17
v -17.5 3 -17
v -17 2.5 -18
v -17 3 -18
v -17 2.5 -18.5
v -17 3 -18.5
v -17 2 -9.499998
v -32 2 -9.499998
v -17 2 -9.999998
v -32 2 -9.999998
v -17 2 -11
v -17.5 2 -11
v -17 2 -11.5
v -17.5 2 -11.5
v -17 2.000002 -24.5
v -32 2.000002 -24.5
v -17 2.000002 -32
v -32 2.000002 -32
v -17 2 -11.5
v -17.5 2 -11.5
v -17 2.5 -11.5
v -17.5 2.5 -11.5
v -17.5 2 -11.5
v -17.5 2.5 -11.5
v -17.5 2 -12
v -17.5 2.5 -12
v -17 2.5 -18
v -22.5 2.5 -18
v -17 2.5 -18.5
v -22.5 2.5 -18.5
v -17 2.500002 -21.5
v -19 2.500002 -21.5
v -17 2.500002 -22.5
v -19 2.500002 -22.5
v -17 2.000002 -21.5
v -17 2.500002 -21.5
v -17 2.000002 -22.5
v -17 2.500002 -22.5
v -17.5 2.000002 -23
v -17.5 2.500002 -23
v -17.5 2.000002 -23.5
v -17.5 2.500002 -23.5
v -17 2.000002 -24.5
v -17.5 2.000002 -24.5
v -17 2.500002 -24.5
v -17.5 2.500002 -24.5
v -17 2.000002 -24
v -17.5 2.000002 -24
v -17 2.500002 -24
v -17.5 2.500002 -24
v -17 2.500002 -24
v -17.5 2.500002 -24
v -17 2.500002 -24.5
v -17.5 2.500002 -24.5
v -17 2.000002 -24
v -17 2.500002 -24
v -17 2.000002 -24.5
v -17 2.500002 -24.5
v -17.5 2.000002 -24
v -17.5 2.500002 -24
v -17.5 2.000002 -24.5
v -17.5 2.500002 -24.5
v -17.5 2.5 -17
v -17.5 3 -17
v -17.5 2.5 -18
v -17.5 3 -18
v -17 2.5 -18
v -17.5 2.5 -18
v -17 3 -18
v -17.5 3 -18
v -17 3 -17.5
v -17.5 3 -17.5
v -17 3 -18
v -17.5 3 -18
v -17.5 2 -11.5
v -19 2 -11.5
v -17.5 2 -12
v -19 2 -12
v -17.5 2.000002 -23
v -18 2.000002 -23
v -17.5 2.000002 -23.5
v -18 2.000002 -23.5
v -17.5 2.000002 -24
v -32 2.000002 -24
v -17.5 2.000002 -24.5
v -32 2.000002 -24.5
v -17.5 2 -11.5
v -18.5 2 -11.5
v -17.5 2.5 -11.5
v -18.5 2.5 -11.5
v -17.5 2 -11
v -18.5 2 -11
v -17.5 2.5 -11
v -18.5 2.5 -11
v -17.5 2.5 -11
v -18.5 2.5 -11
v -17.5 2.5 -11.5
v -18.5 2.5 -11.5
v -17.5 2 -11
v -17.5 2.5 -11
v -17.5 2 -11.5
v -17.5 2.5 -11.5
v -17.5 2 -12
v -18 2 -12
v -17.5 2.5 -12
v -18 2.5 -12
v -17.5 2.5 -12
v -18 2.5 -12
v -17.5 2.5 -13
v -18 2.5 -13
v -18 2 -12
v -18 2.5 -12
v -18 2 -12.5
v -18 2.5 -12.5
v -17.5 2.5 -17
v -22.5 2.5 -17
v -17.5 2.5 -18
v -22.5 2.5 -18
v -17.5 2.000002 -23
v -18 2.000002 -23
v -17.5 2.500002 -23
v -18 2.500002 -23
v -18 2 -12
v -18.5 2 -12
v -18 2 -12.5
v -18.5 2 -12.5
v -18.5 2 -11
v -18.5 2.5 -11
v -18.5 2 -11.5
v -18.5 2.5 -11.5
v -18 2 -12.5
v -18.5 2 -12.5
v -18 2.5 -12.5
v -18.5 2.5 -12.5
v -18 2.5 -12.5
v -19.5 2.5 -12.5
v -18 2.5 -13
v -19.5 2.5 -13
v -18.5 2.000002 -22.5
v -18.5 2.500002 -22.5
v -18.5 2.000002 -23.5
v -18.5 2.500002 -23.5
v -18 2.000002 -23.5
v -18.5 2.000002 -23.5
v -18 2.500002 -23.5
v -18.5 2.500002 -23.5
v -18 2.500002 -23
v -18.5 2.500002 -23
v -18 2.500002 -23.5
v -18.5 2.500002 -23.5
v -18 2.000002 -23
v -18 2.500002 -23
v -18 2.000002 -23.5
v -18 2.500002 -23.5
v -18.5 2 -11
v -32 2 -11
v -18.5 2 -11.5
v -32 2 -11.5
v -18.5 2.000002 -22.5
v -19 2.000002 -22.5
v -18.5 2.000002 -23.5
v -19 2.000002 -23.5
v -18.5 2 -12
v -19 2 -12
v -18.5 2.5 -12
v -19 2.5 -12
v -18.5 2.5 -12
v -19 2.5 -12
v -18.5 2.5 -12.5
v -19 2.5 -12.5
v -18.5 2 -12
v -18.5 2.5 -12
v -18.5 2 -12.5
v -18.5 2.5 -12.5
v -19 2 -12
v -19 2.5 -12
v -19 2 -12.5
v -19 2.5 -12.5
v -19 2 -13
v -19 2.5 -13
v -19 2 -13.5
v -19 2.5 -13.5
v -18.5 2.000002 -22.5
v -19 2.000002 -22.5
v -18.5 2.500002 -22.5
v -19 2.500002 -22.5
v -19 2.000002 -22
v -19 2.500002 -22
v -19 2.000002 -22.5
v -19 2.500002 -22.5
v -19 2 -12
v -20.5 2 -12
v -19 2 -12.5
v -20.5 2 -12.5
v -19 2 -13
v -19.5 2 -13
v -19 2 -13.5
v -19.5 2 -13.5
v -19 2.000002 -22
v -19.5 2.000002 -22
v -19 2.000002 -22.5
v -19.5 2.000002 -22.5
v -19 2.000002 -23
v -32 2.000002 -23
v -19 2.000002 -23.5
v -32 2.000002 -23.5
v -19 2 -12
v -19.5 2 -12
v -19 2.5 -12
v -19.5 2.5 -12
v -19 2 -11.5
v -19.5 2 -11.5
v -19 2.5 -11.5
v -19.5 2.5 -11.5
v -19 2.5 -11.5
v -19.5 2.5 -11.5
v -19 2.5 -12
v -19.5 2.5 -12
v -19 2 -11.5
v -19 2.5 -11.5
v -19 2 -12
v -19 2.5 -12
v -19.5 2 -11.5
v -19.5 2.5 -11.5
v -19.5 2 -12
v -19.5 2.5 -12
v -19 2 -13
v -19.5 2 -13
v -19 2.5 -13
v -19.5 2.5 -13
v -19 2 -12.5
v -19.5 2 -12.5
v -19 2.5 -12.5
v -19.5 2.5 -12.5
v -19.5 2 -12.5
v -19.5 2.5 -12.5
v -19.5 2 -13
v -19.5 2.5 -13
v -19 2 -13.5
v -19.5 2 -13.5
v -19 2.5 -13.5
v -19.5 2.5 -13.5
v -19.5 2 -13.5
v -19.5 2.5 -13.5
v -19.5 2 -14
v -19.5 2.5 -14
v -19 2.000002 -22
v -19.5 2.000002 -22
v -19 2.500002 -22
v -19.5 2.500002 -22
v -19 2.500002 -21.5
v -19.5 2.500002 -21.5
v -19 2.500002 -22
v -19.5 2.500002 -22
v -19.5 2.000002 -21.5
v -19.5 2.500002 -21.5
v -19.5 2.000002 -22
v -19.5 2.500002 -22
v -19 2.000002 -23
v -19.5 2.000002 -23
v -19 2.500002 -23
v -19.5 2.500002 -23
v -19 2.000002 -22.5
v -19.5 2.000002 -22.5
v -19 2.500002 -22.5
v -19.5 2.500002 -22.5
v -19 2.500002 -22.5
v -19.5 2.500002 -22.5
v -19 2.500002 -23
v -19.5 2.500002 -23
v -19 2.000002 -22.5
v -19 2.500002 -22.5
v -19 2.000002 -23
v -19 2.500002 -23
v -19.5 2.000002 -22.5
v -19.5 2.500002 -22.5
v -19.5 2.000002 -23
v -19.5 2.500002 -23
v -19.5 2 -11.5
v -32 2 -11.5
v -19.5 2 -12
v -32 2 -12
v -19.5 2 -12.5
v -32 2 -12.5
v -19.5 2 -13
v -32 2 -13
v -19.5 2 -13.5
v -20 2 -13.5
v -19.5 2 -14
v -20 2 -14
v -19.5 2.000002 -21.5
v -32 2.000002 -21.5
v -19.5 2.000002 -22
v -32 2.000002 -22
v -19.5 2.000002 -22.5
v -32 2.000002 -22.5
v -19.5 2.000002 -23
v -32 2.000002 -23
v -19.5 2 -13.5
v -20 2 -13.5
v -19.5 2.5 -13.5
v -20 2.5 -13.5
v -19.5 2 -13
v -20.5 2 -13
v -19.5 2.5 -13
v -20.5 2.5 -13
v -19.5 2.5 -13
v -20.5 2.5 -13
v -19.5 2.5 -13.5
v -20.5 2.5 -13.5
v -19.5 2 -13
v -19.5 2.5 -13
v -19.5 2 -13.5
v -19.5 2.5 -13.5
v -19.5 2 -14
v -20 2 -14
v -19.5 2.5 -14
v -20 2.5 -14
v -19.5 2.5 -14
v -21 2.5 -14
v -19.5 2.5 -15
v -21 2.5 -15
v -19.5 2.000002 -21.5
v -20.5 2.000002 -21.5
v -19.5 2.500002 -21.5
v -20.5 2.500002 -21.5
v -19.5 2.000002 -22.5
v -20 2.000002 -22.5
v -19.5 2.500002 -22.5
v -20 2.500002 -22.5
v -19.5 2.000002 -22
v -20 2.000002 -22
v -19.5 2.500002 -22
v -20 2.500002 -22
v -19.5 2.500002 -22
v -20 2.500002 -22
v -19.5 2.500002 -22.5
v -20 2.500002 -22.5
v -19.5 2.000002 -22
v -19.5 2.500002 -22
v -19.5 2.000002 -22.5
v -19.5 2.500002 -22.5
v -20 2.000002 -22
v -20 2.500002 -22
v -20 2.000002 -22.5
v -20 2.500002 -22.5
v -20 2 -9.999998
v -32 2 -9.999998
v -20 2 -10.5
v -32 2 -10.5
v -20 2.000002 -22
v -32 2.000002 -22
v -20 2.000002 -22.5
v -32 2.000002 -22.5
v -20 2 -11
v -20.5 2 -11
v -20 2.5 -11
v -20.5 2.5 -11
v -20 2 -10.5
v -20.5 2 -10.5
v -20 2.5 -10.5
v -20.5 2.5 -10.5
v -20 2.5 -10.5
v -20.5 2.5 -10.5
v -20 2.5 -11
v -20.5 2.5 -11
v -20 2 -10.5
v -20 2.5 -10.5
v -20 2 -11
v -20 2.5 -11
v -20.5 2 -10.5
v -20.5 2.5 -10.5
v -20.5 2 -11
v -20.5 2.5 -11
v -20.5 2 -13
v -20.5 2.5 -13
v -20.5 2 -14
v -20.5 2.5 -14
v -20 2.5 -13.5
v -20.5 2.5 -13.5
v -20 2.5 -14
v -20.5 2.5 -14
v -20 2 -13.5
v -20 2.5 -13.5
v -20 2 -14
v -20 2.5 -14
v -20.5 2.000002 -20
v -20.5 2.500002 -20
v -20.5 2.000002 -21.5
v -20.5 2.500002 -21.5
v -20.5 2 -10.5
v -32 2 -10.5
v -20.5 2 -11
v -32 2 -11
v -20.5 2 -13
v -32 2 -13
v -20.5 2 -14
v -32 2 -14
v -20.5 2.000002 -20
v -21 2.000002 -20
v -20.5 2.000002 -21.5
v -21 2.000002 -21.5
v -20.5 2 -12.5
v -21 2 -12.5
v -20.5 2.5 -12.5
v -21 2.5 -12.5
v -20.5 2 -12
v -21 2 -12
v -20.5 2.5 -12
v -21 2.5 -12
v -20.5 2.5 -12
v -21 2.5 -12
v -20.5 2.5 -12.5
v -21 2.5 -12.5
v -20.5 2 -12
v -20.5 2.5 -12
v -20.5 2 -12.5
v -20.5 2.5 -12.5
v -21 2 -12
v -21 2.5 -12
v -21 2 -12.5
v -21 2.5 -12.5
v -20.5 2 -14
v -21 2 -14
v -20.5 2.5 -14
v -21 2.5 -14
v -21 2 -14
v -21 2.5 -14
v -21 2 -14.5
v -21 2.5 -14.5
v -21 2 -15
v -21 2.5 -15
v -21 2 -15.5
v -21 2.5 -15.5
v -20.5 2.000002 -20
v -21 2.000002 -20
v -20.5 2.500002 -20
v -21 2.500002 -20
v -21 2.000002 -19.5
v -21 2.500002 -19.5
v -21 2.000002 -20
v -21 2.500002 -20
v -21 2 -12
v -32 2 -12
v -21 2 -12.5
v -32 2 -12.5
v -21 2 -14
v -22 2 -14
v -21 2 -14.5
v -22 2 -14.5
v -21 2 -15
v -32 2 -15
v -21 2 -15.5
v -32 2 -15.5
v -21 2.000002 -19.5
v -32 2.000002 -19.5
v -21 2.000002 -20
v -32 2.000002 -20
v -21 2.000002 -20.5
v -32 2.000002 -20.5
v -21 2.000002 -21.5
v -32 2.000002 -21.5
v -21 2 -15
v -21.5 2 -15
v -21 2.5 -15
v -21.5 2.5 -15
v -21 2 -14.5
v -21.5 2 -14.5
v -21 2.5 -14.5
v -21.5 2.5 -14.5
v -21 2.5 -14.5
v -21.5 2.5 -14.5
v -21 2.5 -15
v -21.5 2.5 -15
v -21.5 2 -14.5
v -21.5 2.5 -14.5
v -21.5 2 -15
v -21.5 2.5 -15
v -21 2 -15.5
v -21.5 2 -15.5
v -21 2.5 -15.5
v -21.5 2.5 -15.5
v -21.5 2 -15.5
v -21.5 2.5 -15.5
v -21.5 2 -16.5
v -21.5 2.5 -16.5
v -21 2.000002 -19.5
v -21.5 2.000002 -19.5
v -21 2.500002 -19.5
v -21.5 2.500002 -19.5
v -21.5 2.000002 -19
v -21.5 2.500002 -19
v -21.5 2.000002 -19.5
v -21.5 2.500002 -19.5
v -21 2.000002 -20.5
v -21.5 2.000002 -20.5
v -21 2.500002 -20.5
v -21.5 2.500002 -20.5
v -21 2.000002 -20
v -21.5 2.000002 -20
v -21 2.500002 -20
v -21.5 2.500002 -20
v -21 2.500002 -20
v -21.5 2.500002 -20
v -21 2.500002 -20.5
v -21.5 2.500002 -20.5
v -21 2.000002 -20
v -21 2.500002 -20
v -21 2.000002 -20.5
v -21 2.500002 -20.5
v -21.5 2.000002 -20
v -21.5 2.500002 -20
v -21.5 2.000002 -20.5
v -21.5 2.500002 -20.5
v -22 1.5 -14
v -22 2 -14
v -22 1.5 -14.5
v -22 2 -14.5
v -21.5 2 -14.5
v -32 2 -14.5
v -21.5 2 -15
v -32 2 -15
v -21.5 2 -15.5
v -22 2 -15.5
v -21.5 2 -16.5
v -22 2 -16.5
v -21.5 2.000002 -19
v -32 2.000002 -19
v -21.5 2.000002 -19.5
v -32 2.000002 -19.5
v -21.5 2.000002 -20
v -22 2.000002 -20
v -21.5 2.000002 -20.5
v -22 2.000002 -20.5
v -22 1.500002 -20
v -22 2.000002 -20
v -22 1.500002 -20.5
v -22 2.000002 -20.5
v -21.5 2 -16.5
v -22 2 -16.5
v -21.5 2.5 -16.5
v -22 2.5 -16.5
v -22 2 -16.5
v -22 2.5 -16.5
v -22 2 -17
v -22 2.5 -17
v -21.5 2.000002 -19
v -22 2.000002 -19
v -21.5 2.500002 -19
v -22 2.500002 -19
v -22 2.000002 -18.5
v -22 2.5 -18.5
v -22 2.000002 -19
v -22 2.500002 -19
v -22 1.5 -14
v -22.5 1.5 -14
v -22 1.5 -14.5
v -22.5 1.5 -14.5
v -22 1.500002 -20
v -22.5 1.500002 -20
v -22 1.500002 -20.5
v -22.5 1.500002 -20.5
v -22 1.5 -14
v -22.5 1.5 -14
v -22 2 -14
v -22.5 2 -14
v -22 1.5 -14.5
v -22.5 1.5 -14.5
v -22 2 -14.5
v -22.5 2 -14.5
v -22 2 -16
v -32 2 -16
v -22 2 -17
v -32 2 -17
v -22 2.000002 -18.5
v -22.5 2.000002 -18.5
v -22 2.000002 -19
v -22.5 2.000002 -19
v -22.5 1.500002 -18.5
v -22.5 2.000002 -18.5
v -22.5 1.500002 -19
v -22.5 2.000002 -19
v -22 1.500002 -20
v -22.5 1.500002 -20
v -22 2.000002 -20
v -22.5 2.000002 -20
v -22 1.500002 -20.5
v -22.5 1.500002 -20.5
v -22 2.000002 -20.5
v -22.5 2.000002 -20.5
v -22 2 -16
v -22.5 2 -16
v -22 2.5 -16
v -22.5 2.5 -16
v -22 2 -15.5
v -22.5 2 -15.5
v -22 2.5 -15.5
v -22.5 2.5 -15.5
v -22 2.5 -15.5
v -22.5 2.5 -15.5
v -22 2.5 -16
v -22.5 2.5 -16
v -22 2 -15.5
v -22 2.5 -15.5
v -22 2 -16
v -22 2.5 -16
v -22.5 2 -15.5
v -22.5 2.5 -15.5
v -22.5 2 -16
v -22.5 2.5 -16
v -22 2 -17
v -22.5 2 -17
v -22 2.5 -17
v -22.5 2.5 -17
v -22.5 2 -17
v -22.5 2.5 -17
v -22.5 2.000002 -18.5
v -22.5 2.5 -18.5
v -22 2.000002 -18.5
v -22.5 2.000002 -18.5
v -22 2.5 -18.5
v -22.5 2.5 -18.5
v -22.5 1.500002 -18.5
v -23 1.500002 -18.5
v -22.5 1.500002 -19
v -23 1.500002 -19
v -22.5 2 -14
v -32 2 -14
v -22.5 2 -14.5
v -32 2 -14.5
v -22.5 1.5 -14
v -22.5 2 -14
v -22.5 1.5 -14.5
v -22.5 2 -14.5
v -22.5 2 -15.5
v -32 2 -15.5
v -22.5 2 -16
v -32 2 -16
v -22.5 2 -17
v -32 2 -17
v -22.5 2.000002 -18.5
v -32 2.000002 -18.5
v -22.5 1.500002 -18.5
v -23 1.500002 -18.5
v -22.5 2.000002 -18.5
v -23 2.000002 -18.5
v -22.5 1.500002 -19
v -23 1.500002 -19
v -22.5 2.000002 -19
v -23 2.000002 -19
v -22.5 2.000002 -20
v -32 2.000002 -20
v -22.5 2.000002 -20.5
v -32 2.000002 -20.5
v -22.5 1.500002 -20
v -22.5 2.000002 -20
v -22.5 1.500002 -20.5
v -22.5 2.000002 -20.5
v -23 2.000002 -18.5
v -32 2.000002 -18.5
v -23 2.000002 -19
v -32 2.000002 -19
v -23 1.500002 -18.5
v -23 2.000002 -18.5
v -23 1.500002 -19
v -23 2.000002 -19
v -32 0 1.907349E-06
v -32 2 1.907349E-06
v -32 1.907349E-06 -32
v -32 2.000002 -32
vn 0 -5.960464E-08 0.9999999
vn 0 -0.9999999 -5.960464E-08
vn 1 0 0
vn 0 5.960464E-08 -0.9999999
vn 0 0.9999999 5.960464E-08
vn -1 0 0
vt 0.125 0.2695313
vt 0.625 0.2695313
vt 0.125 0.2851563
vt 0.625 0.2851563
vt 0.0078125 0.00390625
vt 0.5078125 0.00390625
vt 0.0078125 0.2539063
vt 0.5078125 0.2539063
vt 0.0078125 0.5351563
vt 0.0390625 0.5351563
vt 0.0078125 0.7851563
vt 0.0390625 0.7851563
vt 0.125 0.3007813
vt 0.625 0.3007813
vt 0.125 0.3164063
vt 0.625 0.3164063
vt 0.0078125 0.2695313
vt 0.09375 0.2695313
vt 0.0078125 0.5195313
vt 0.09375 0.5195313
vt 0.1796875 0.3320313
vt 0.1953125 0.3320313
vt 0.1796875 0.4414063
vt 0.1953125 0.4414063
vt 0.1796875 0.4570313
vt 0.1953125 0.4570313
vt 0.1796875 0.46875
vt 0.1953125 0.46875
vt 0.125 0.3320313
vt 0.1484375 0.3320313
vt 0.125 0.453125
vt 0.1484375 0.453125
vt 0.5546875 0.5
vt 0.9765625 0.1992188
vt 0.78125 0.578125
vt 0.796875 0.578125
vt 0.78125 0.5820313
vt 0.796875 0.5820313
vt 0.4765625 0.5195313
vt 0.375 0.4101563
vt 0.3828125 0.4101563
vt 0.375 0.4960938
vt 0.3828125 0.4960938
vt 0.828125 0.578125
vt 0.84375 0.578125
vt 0.828125 0.5820313
vt 0.84375 0.5820313
vt 0.1328125 0.90625
vt 0.140625 0.90625
vt 0.1328125 0.9140625
vt 0.140625 0.9140625
vt 0.1328125 0.9296875
vt 0.140625 0.9296875
vt 0.1328125 0.9375
vt 0.140625 0.9375
vt 0.4140625 0.5195313
vt 0.8515625 0.2265625
vt 0.9375 0.2265625
vt 0.8515625 0.234375
vt 0.9375 0.234375
vt 0.1328125 0.953125
vt 0.140625 0.953125
vt 0.1328125 0.9609375
vt 0.140625 0.9609375
vt 0.328125 0.3515625
vt 0.34375 0.3515625
vt 0.328125 0.4335938
vt 0.34375 0.4335938
vt 0.0078125 0.9257813
vt 0.03125 0.9257813
vt 0.0078125 0.9296875
vt 0.03125 0.9296875
vt 0.1328125 0.9765625
vt 0.140625 0.9765625
vt 0.1328125 0.984375
vt 0.140625 0.984375
vt 0.1796875 0.484375
vt 0.1875 0.484375
vt 0.1796875 0.5
vt 0.1875 0.5
vt 0.2265625 0.3320313
vt 0.2421875 0.3320313
vt 0.2265625 0.4257813
vt 0.2421875 0.4257813
vt 0.5859375 0.5351563
vt 0.6640625 0.5351563
vt 0.5859375 0.5390625
vt 0.6640625 0.5390625
vt 0.328125 0.5195313
vt 0.5390625 0.2421875
vt 0.609375 0.2421875
vt 0.5390625 0.2539063
vt 0.609375 0.2539063
vt 0.0078125 0.9726563
vt 0.015625 0.9726563
vt 0.0078125 0.984375
vt 0.015625 0.984375
vt 0.8984375 0.4296875
vt 0.96875 0.4296875
vt 0.8984375 0.4375
vt 0.96875 0.4375
vt 0.171875 0.6835938
vt 0.1796875 0.6835938
vt 0.171875 0.6914063
vt 0.1796875 0.6914063
vt 0.171875 0.75
vt 0.1875 0.75
vt 0.171875 0.7539063
vt 0.1875 0.7539063
vt 0.171875 0.8085938
vt 0.1875 0.8085938
vt 0.171875 0.8125
vt 0.1875 0.8125
vt 0.171875 0.953125
vt 0.1875 0.953125
vt 0.171875 0.9570313
vt 0.1875 0.9570313
vt 0.8046875 0.0859375
vt 0.9609375 0.0859375
vt 0.8046875 0.09765625
vt 0.9609375 0.09765625
vt 0.0703125 0.8398438
vt 0.078125 0.8398438
vt 0.0703125 0.8515625
vt 0.078125 0.8515625
vt 0.8046875 0.5351563
vt 0.875 0.5351563
vt 0.8046875 0.5390625
vt 0.875 0.5390625
vt 0.6953125 0.5351563
vt 0.7734375 0.5351563
vt 0.6953125 0.5390625
vt 0.7734375 0.5390625
vt 0.171875 0.9726563
vt 0.1875 0.9726563
vt 0.171875 0.9765625
vt 0.1875 0.9765625
vt 0.4453125 0.5195313
vt 0.4140625 0.5
vt 0.5234375 0.5
vt 0.4140625 0.5039063
vt 0.5234375 0.5039063
vt 0.5390625 0.00390625
vt 0.9140625 0.00390625
vt 0.5390625 0.0703125
vt 0.9140625 0.0703125
vt 0.1328125 0.6601563
vt 0.140625 0.6601563
vt 0.1328125 0.671875
vt 0.140625 0.671875
vt 0.21875 0.6171875
vt 0.2265625 0.6171875
vt 0.21875 0.625
vt 0.2265625 0.625
vt 0.2734375 0.4179688
vt 0.2890625 0.4179688
vt 0.2734375 0.5039063
vt 0.2890625 0.5039063
vt 0.8125 0.4765625
vt 0.90625 0.4765625
vt 0.8125 0.4804688
vt 0.90625 0.4804688
vt 0.125 0.5195313
vt 0.125 0.46875
vt 0.1484375 0.46875
vt 0.125 0.4804688
vt 0.1484375 0.4804688
vt 0.2734375 0.5195313
vt 0.0078125 0.90625
vt 0.03125 0.90625
vt 0.0078125 0.9101563
vt 0.03125 0.9101563
vt 0.8515625 0.1992188
vt 0.9453125 0.1992188
vt 0.8515625 0.2109375
vt 0.9453125 0.2109375
vt 0.0078125 0.9453125
vt 0.015625 0.9453125
vt 0.0078125 0.9570313
vt 0.015625 0.9570313
vt 0.40625 0.5546875
vt 0.453125 0.5546875
vt 0.40625 0.5585938
vt 0.453125 0.5585938
vt 0.484375 0.5546875
vt 0.53125 0.5546875
vt 0.484375 0.5585938
vt 0.53125 0.5585938
vt 0.8515625 0.5546875
vt 0.875 0.5546875
vt 0.8515625 0.5585938
vt 0.875 0.5585938
vt 0.2265625 0.4414063
vt 0.2421875 0.4414063
vt 0.2265625 0.5195313
vt 0.2421875 0.5195313
vt 0.5859375 0.4492188
vt 0.7734375 0.4492188
vt 0.5859375 0.453125
vt 0.7734375 0.453125
vt 0.0078125 0.8007813
vt 0.0390625 0.8007813
vt 0.0078125 0.8046875
vt 0.0390625 0.8046875
vt 0.21875 0.5976563
vt 0.234375 0.5976563
vt 0.21875 0.6015625
vt 0.234375 0.6015625
vt 0.9375 0.515625
vt 0.9765625 0.515625
vt 0.9375 0.5195313
vt 0.9765625 0.5195313
vt 0.0078125 0.84375
vt 0.0234375 0.84375
vt 0.0078125 0.8515625
vt 0.0234375 0.8515625
vt 0.5625 0.5546875
vt 0.6015625 0.5546875
vt 0.5625 0.5585938
vt 0.6015625 0.5585938
vt 0.2734375 0.3320313
vt 0.296875 0.3320313
vt 0.2734375 0.4023438
vt 0.296875 0.4023438
vt 0.171875 0.9140625
vt 0.1875 0.9140625
vt 0.171875 0.9179688
vt 0.1875 0.9179688
vt 0.3125 0.5546875
vt 0.375 0.5546875
vt 0.3125 0.5585938
vt 0.375 0.5585938
vt 0.171875 0.8710938
vt 0.1875 0.8710938
vt 0.171875 0.875
vt 0.1875 0.875
vt 0.171875 0.828125
vt 0.1875 0.828125
vt 0.171875 0.8320313
vt 0.1875 0.8320313
vt 0.9453125 0.4570313
vt 0.9765625 0.4570313
vt 0.9453125 0.4609375
vt 0.9765625 0.4609375
vt 0.5390625 0.1601563
vt 0.609375 0.1601563
vt 0.5390625 0.2265625
vt 0.609375 0.2265625
vt 0.171875 0.7695313
vt 0.1875 0.7695313
vt 0.171875 0.7734375
vt 0.1875 0.7734375
vt 0.0703125 0.9726563
vt 0.09375 0.9726563
vt 0.0703125 0.9765625
vt 0.09375 0.9765625
vt 0.8125 0.4296875
vt 0.8671875 0.4296875
vt 0.8125 0.4414063
vt 0.8671875 0.4414063
vt 0.1328125 0.7148438
vt 0.140625 0.7148438
vt 0.1328125 0.7265625
vt 0.140625 0.7265625
vt 0.328125 0.4960938
vt 0.34375 0.4960938
vt 0.328125 0.5039063
vt 0.34375 0.5039063
vt 0.5 0.578125
vt 0.515625 0.578125
vt 0.5 0.5820313
vt 0.515625 0.5820313
vt 0.0703125 0.8203125
vt 0.09375 0.8203125
vt 0.0703125 0.8242188
vt 0.09375 0.8242188
vt 0.8125 0.4101563
vt 0.9609375 0.4101563
vt 0.8125 0.4140625
vt 0.9609375 0.4140625
vt 0.4140625 0.4296875
vt 0.546875 0.4296875
vt 0.4140625 0.4335938
vt 0.546875 0.4335938
vt 0.7421875 0.5546875
vt 0.765625 0.5546875
vt 0.7421875 0.5585938
vt 0.765625 0.5585938
vt 0.171875 0.9335938
vt 0.1875 0.9335938
vt 0.171875 0.9375
vt 0.1875 0.9375
vt 0.0078125 0.8203125
vt 0.0234375 0.8203125
vt 0.0078125 0.828125
vt 0.0234375 0.828125
vt 0.171875 0.7265625
vt 0.1796875 0.7265625
vt 0.171875 0.734375
vt 0.1796875 0.734375
vt 0.921875 0.3007813
vt 0.9765625 0.3007813
vt 0.921875 0.3125
vt 0.9765625 0.3125
vt 0.0703125 0.9453125
vt 0.078125 0.9453125
vt 0.0703125 0.9570313
vt 0.078125 0.9570313
vt 0.875 0.578125
vt 0.890625 0.578125
vt 0.875 0.5820313
vt 0.890625 0.5820313
vt 0.0703125 0.9257813
vt 0.09375 0.9257813
vt 0.0703125 0.9296875
vt 0.09375 0.9296875
vt 0.765625 0.5078125
vt 0.78125 0.5078125
vt 0.765625 0.515625
vt 0.78125 0.515625
vt 0.1328125 0.8828125
vt 0.140625 0.8828125
vt 0.1328125 0.890625
vt 0.140625 0.890625
vt 0.546875 0.578125
vt 0.5625 0.578125
vt 0.546875 0.5820313
vt 0.5625 0.5820313
vt 0.0703125 0.8867188
vt 0.09375 0.8867188
vt 0.0703125 0.890625
vt 0.09375 0.890625
vt 0.796875 0.5546875
vt 0.8203125 0.5546875
vt 0.796875 0.5585938
vt 0.8203125 0.5585938
vt 0.0078125 0.8671875
vt 0.03125 0.8671875
vt 0.0078125 0.8710938
vt 0.03125 0.8710938
vt 0.0703125 0.8671875
vt 0.09375 0.8671875
vt 0.0703125 0.8710938
vt 0.09375 0.8710938
vt 0.9375 0.4960938
vt 0.9765625 0.4960938
vt 0.9375 0.5
vt 0.9765625 0.5
vt 0.640625 0.1601563
vt 0.9296875 0.1601563
vt 0.640625 0.1640625
vt 0.9296875 0.1640625
vt 0.96875 0.2265625
vt 0.9765625 0.2265625
vt 0.96875 0.234375
vt 0.9765625 0.234375
vt 0.171875 0.6367188
vt 0.1796875 0.6367188
vt 0.171875 0.6445313
vt 0.1796875 0.6445313
vt 0.0703125 0.8007813
vt 0.09375 0.8007813
vt 0.0703125 0.8046875
vt 0.09375 0.8046875
vt 0.21875 0.5546875
vt 0.28125 0.5546875
vt 0.21875 0.5585938
vt 0.28125 0.5585938
vt 0.1328125 0.7890625
vt 0.140625 0.7890625
vt 0.1328125 0.796875
vt 0.140625 0.796875
vt 0.328125 0.4492188
vt 0.34375 0.4492188
vt 0.328125 0.4570313
vt 0.34375 0.4570313
vt 0.3125 0.578125
vt 0.328125 0.578125
vt 0.3125 0.5820313
vt 0.328125 0.5820313
vt 0.8125 0.4570313
vt 0.9140625 0.4570313
vt 0.8125 0.4609375
vt 0.9140625 0.4609375
vt 0.265625 0.578125
vt 0.28125 0.578125
vt 0.265625 0.5820313
vt 0.28125 0.5820313
vt 0.9296875 0.2695313
vt 0.9765625 0.2695313
vt 0.9296875 0.2773438
vt 0.9765625 0.2773438
vt 0.1328125 0.7421875
vt 0.140625 0.7421875
vt 0.1328125 0.75
vt 0.140625 0.75
vt 0.640625 0.1796875
vt 0.9140625 0.1796875
vt 0.640625 0.1835938
vt 0.9140625 0.1835938
vt 0.1796875 0.515625
vt 0.1953125 0.515625
vt 0.1796875 0.5195313
vt 0.1953125 0.5195313
vt 0.265625 0.5976563
vt 0.28125 0.5976563
vt 0.265625 0.6015625
vt 0.28125 0.6015625
vt 0.5234375 0.4765625
vt 0.5546875 0.4765625
vt 0.5234375 0.484375
vt 0.5546875 0.484375
vt 0.8125 0.4960938
vt 0.90625 0.4960938
vt 0.8125 0.5
vt 0.90625 0.5
vt 0.6328125 0.5546875
vt 0.65625 0.5546875
vt 0.6328125 0.5585938
vt 0.65625 0.5585938
vt 0.171875 0.7070313
vt 0.1875 0.7070313
vt 0.171875 0.7109375
vt 0.1875 0.7109375
vt 0.90625 0.5351563
vt 0.96875 0.5351563
vt 0.90625 0.5390625
vt 0.96875 0.5390625
vt 0.8515625 0.25
vt 0.9609375 0.25
vt 0.8515625 0.2539063
vt 0.9609375 0.2539063
vt 0.328125 0.4726563
vt 0.34375 0.4726563
vt 0.328125 0.4804688
vt 0.34375 0.4804688
vt 0.21875 0.640625
vt 0.2265625 0.640625
vt 0.21875 0.6484375
vt 0.2265625 0.6484375
vt 0.9609375 0.1601563
vt 0.9765625 0.1601563
vt 0.9609375 0.1640625
vt 0.9765625 0.1640625
vt 0.1328125 0.578125
vt 0.140625 0.578125
vt 0.1328125 0.5898438
vt 0.140625 0.5898438
vt 0.375 0.5117188
vt 0.3828125 0.5117188
vt 0.375 0.5195313
vt 0.3828125 0.5195313
vt 0.90625 0.5546875
vt 0.9140625 0.5546875
vt 0.90625 0.5625
vt 0.9140625 0.5625
vt 0.9453125 0.1796875
vt 0.9765625 0.1796875
vt 0.9453125 0.1835938
vt 0.9765625 0.1835938
vt 0.4140625 0.4492188
vt 0.4765625 0.4492188
vt 0.4140625 0.4609375
vt 0.4765625 0.4609375
vt 0.9453125 0.5546875
vt 0.953125 0.5546875
vt 0.9453125 0.5625
vt 0.953125 0.5625
vt 0.171875 0.578125
vt 0.1875 0.578125
vt 0.171875 0.5820313
vt 0.1875 0.5820313
vt 0.21875 0.578125
vt 0.234375 0.578125
vt 0.21875 0.5820313
vt 0.234375 0.5820313
vt 0.171875 0.6171875
vt 0.1875 0.6171875
vt 0.171875 0.6210938
vt 0.1875 0.6210938
vt 0.9453125 0.00390625
vt 0.9609375 0.00390625
vt 0.9453125 0.06640625
vt 0.9609375 0.06640625
vt 0.1328125 0.765625
vt 0.140625 0.765625
vt 0.1328125 0.7734375
vt 0.140625 0.7734375
vt 0.3671875 0.5351563
vt 0.4453125 0.5351563
vt 0.3671875 0.5390625
vt 0.4453125 0.5390625
vt 0.8125 0.515625
vt 0.8984375 0.515625
vt 0.8125 0.5195313
vt 0.8984375 0.5195313
vt 0.359375 0.578125
vt 0.375 0.578125
vt 0.359375 0.5820313
vt 0.375 0.5820313
vt 0.9375 0.4765625
vt 0.9765625 0.4765625
vt 0.9375 0.4804688
vt 0.9765625 0.4804688
vt 0.1328125 0.5546875
vt 0.1875 0.5546875
vt 0.1328125 0.5625
vt 0.1875 0.5625
vt 0.65625 0.2695313
vt 0.8984375 0.2695313
vt 0.65625 0.2734375
vt 0.8984375 0.2734375
vt 0.4765625 0.5351563
vt 0.5546875 0.5351563
vt 0.4765625 0.5390625
vt 0.5546875 0.5390625
vt 0.1328125 0.5351563
vt 0.21875 0.5351563
vt 0.1328125 0.5390625
vt 0.21875 0.5390625
vt 0.40625 0.578125
vt 0.421875 0.578125
vt 0.40625 0.5820313
vt 0.421875 0.5820313
vt 0.734375 0.578125
vt 0.75 0.578125
vt 0.734375 0.5820313
vt 0.75 0.5820313
vt 0.65625 0.3007813
vt 0.890625 0.3007813
vt 0.65625 0.3046875
vt 0.890625 0.3046875
vt 0.5390625 0.0859375
vt 0.7734375 0.0859375
vt 0.5390625 0.1445313
vt 0.7734375 0.1445313
vt 0.25 0.5351563
vt 0.3359375 0.5351563
vt 0.25 0.5390625
vt 0.3359375 0.5390625
vt 0.5078125 0.4492188
vt 0.5390625 0.4492188
vt 0.5078125 0.4570313
vt 0.5390625 0.4570313
vt 0.1328125 0.8125
vt 0.140625 0.8125
vt 0.1328125 0.8203125
vt 0.140625 0.8203125
vt 0.1328125 0.8359375
vt 0.140625 0.8359375
vt 0.1328125 0.84375
vt 0.140625 0.84375
vt 0.0078125 0.8867188
vt 0.03125 0.8867188
vt 0.0078125 0.890625
vt 0.03125 0.890625
vt 0.328125 0.3320313
vt 0.5546875 0.3320313
vt 0.328125 0.3359375
vt 0.5546875 0.3359375
vt 0.59375 0.578125
vt 0.609375 0.578125
vt 0.59375 0.5820313
vt 0.609375 0.5820313
vt 0.640625 0.578125
vt 0.65625 0.578125
vt 0.640625 0.5820313
vt 0.65625 0.5820313
vt 0.6875 0.578125
vt 0.703125 0.578125
vt 0.6875 0.5820313
vt 0.703125 0.5820313
vt 0.21875 0.6640625
vt 0.2265625 0.6640625
vt 0.21875 0.671875
vt 0.2265625 0.671875
vt 0.4140625 0.4765625
vt 0.4921875 0.4765625
vt 0.4140625 0.484375
vt 0.4921875 0.484375
vt 0.6875 0.5546875
vt 0.7109375 0.5546875
vt 0.6875 0.5585938
vt 0.7109375 0.5585938
vt 0.1328125 0.859375
vt 0.140625 0.859375
vt 0.1328125 0.8671875
vt 0.140625 0.8671875
vt 0.5859375 0.3320313
vt 0.796875 0.3320313
vt 0.5859375 0.3359375
vt 0.796875 0.3359375
vt 0.0703125 0.90625
vt 0.09375 0.90625
vt 0.0703125 0.9101563
vt 0.09375 0.9101563
vt 0.5859375 0.3515625
vt 0.7890625 0.3515625
vt 0.5859375 0.3554688
vt 0.7890625 0.3554688
vt 0.5859375 0.4296875
vt 0.78125 0.4296875
vt 0.5859375 0.4335938
vt 0.78125 0.4335938
vt 0.5859375 0.4101563
vt 0.78125 0.4101563
vt 0.5859375 0.4140625
vt 0.78125 0.4140625
vt 0.5859375 0.390625
vt 0.78125 0.390625
vt 0.5859375 0.3945313
vt 0.78125 0.3945313
vt 0.5859375 0.3710938
vt 0.78125 0.3710938
vt 0.5859375 0.375
vt 0.78125 0.375
vt 0.921875 0.578125
vt 0.9375 0.578125
vt 0.921875 0.5820313
vt 0.9375 0.5820313
vt 0.171875 0.5976563
vt 0.1875 0.5976563
vt 0.171875 0.6015625
vt 0.1875 0.6015625
vt 0.125 0.4960938
vt 0.1484375 0.4960938
vt 0.125 0.5039063
vt 0.1484375 0.5039063
vt 0.453125 0.578125
vt 0.46875 0.578125
vt 0.453125 0.5820313
vt 0.46875 0.5820313
vt 0.5859375 0.4882813
vt 0.7734375 0.4882813
vt 0.5859375 0.4921875
vt 0.7734375 0.4921875
vt 0.5859375 0.46875
vt 0.7734375 0.46875
vt 0.5859375 0.4726563
vt 0.7734375 0.4726563
vt 0.171875 0.6601563
vt 0.1796875 0.6601563
vt 0.171875 0.6679688
vt 0.1796875 0.6679688
vt 0.1328125 0.6054688
vt 0.140625 0.6054688
vt 0.1328125 0.6171875
vt 0.140625 0.6171875
vt 0.375 0.3515625
vt 0.5546875 0.3515625
vt 0.375 0.3554688
vt 0.5546875 0.3554688
vt 0.640625 0.1992188
vt 0.8203125 0.1992188
vt 0.640625 0.2070313
vt 0.8203125 0.2070313
vt 0.1328125 0.6328125
vt 0.140625 0.6328125
vt 0.1328125 0.6445313
vt 0.140625 0.6445313
vt 0.375 0.390625
vt 0.546875 0.390625
vt 0.375 0.3945313
vt 0.546875 0.3945313
vt 0.171875 0.7890625
vt 0.1875 0.7890625
vt 0.171875 0.7929688
vt 0.1875 0.7929688
vt 0.375 0.3710938
vt 0.546875 0.3710938
vt 0.375 0.375
vt 0.546875 0.375
vt 0.8046875 0.140625
vt 0.9765625 0.140625
vt 0.8046875 0.1445313
vt 0.9765625 0.1445313
vt 0.640625 0.2226563
vt 0.8125 0.2226563
vt 0.640625 0.2304688
vt 0.8125 0.2304688
vt 0.171875 0.8476563
vt 0.1796875 0.8476563
vt 0.171875 0.8554688
vt 0.1796875 0.8554688
vt 0.8125 0.3710938
vt 0.9765625 0.3710938
vt 0.8125 0.375
vt 0.9765625 0.375
vt 0.171875 0.890625
vt 0.1796875 0.890625
vt 0.171875 0.8984375
vt 0.1796875 0.8984375
vt 0.8125 0.390625
vt 0.9765625 0.390625
vt 0.8125 0.3945313
vt 0.9765625 0.3945313
vt 0.640625 0.2460938
vt 0.796875 0.2460938
vt 0.640625 0.2539063
vt 0.796875 0.2539063
vt 0.1328125 0.6875
vt 0.140625 0.6875
vt 0.1328125 0.6992188
vt 0.140625 0.6992188
vt 0.828125 0.3320313
vt 0.9765625 0.3320313
vt 0.828125 0.3359375
vt 0.9765625 0.3359375
vt 0.8203125 0.3515625
vt 0.96875 0.3515625
vt 0.8203125 0.3554688
vt 0.96875 0.3554688
vt 0.8046875 0.1132813
vt 0.953125 0.1132813
vt 0.8046875 0.125
vt 0.953125 0.125
vt 0.5859375 0.5078125
vt 0.734375 0.5078125
vt 0.5859375 0.5117188
vt 0.734375 0.5117188
vt 0.4140625 0.4101563
vt 0.5546875 0.4101563
vt 0.4140625 0.4140625
vt 0.5546875 0.4140625
vt 0.0703125 0.5351563
vt 0.1015625 0.5351563
vt 0.0703125 0.7851563
vt 0.1015625 0.7851563
usemtl voxel
f 2/2/1 1/1/1 3/3/1
f 2/2/1 3/3/1 4/4/1
f 5/5/2 6/6/2 7/7/2
f 7/7/2 6/6/2 8/8/2
f 10/10/3 9/9/3 11/11/3
f 10/10/3 11/11/3 12/12/3
f 13/13/4 14/14/4 15/15/4
f 15/15/4 14/14/4 16/16/4
f 18/18/5 17/17/5 19/19/5
f 18/18/5 19/19/5 20/20/5
f 22/22/5 21/21/5 23/23/5
f 22/22/5 23/23/5 24/24/5
f 26/26/5 25/25/5 27/27/5
f 26/26/5 27/27/5 28/28/5
f 30/30/5 29/29/5 31/31/5
f 30/30/5 31/31/5 32/32/5
f 33/33/4 34/33/4 35/33/4
f 35/33/4 34/33/4 36/33/4
f 38/33/1 37/33/1 39/33/1
f 38/33/1 39/33/1 40/33/1
f 42/33/5 41/33/5 43/33/5
f 42/33/5 43/33/5 44/33/5
f 46/33/3 45/33/3 47/33/3
f 46/33/3 47/33/3 48/33/3
f 49/33/6 50/33/6 51/33/6
f 51/33/6 50/33/6 52/33/6
f 53/34/4 54/34/4 55/34/4
f 55/34/4 54/34/4 56/34/4
f 58/34/1 57/34/1 59/34/1
f 58/34/1 59/34/1 60/34/1
f 62/34/5 61/34/5 63/34/5
f 62/34/5 63/34/5 64/34/5
f 66/34/3 65/34/3 67/34/3
f 66/34/3 67/34/3 68/34/3
f 69/34/6 70/34/6 71/34/6
f 71/34/6 70/34/6 72/34/6
f 74/36/5 73/35/5 75/37/5
f 74/36/5 75/37/5 76/38/5
f 78/39/5 77/39/5 79/39/5
f 78/39/5 79/39/5 80/39/5
f 82/41/5 81/40/5 83/42/5
f 82/41/5 83/42/5 84/43/5
f 86/45/5 85/44/5 87/46/5
f 86/45/5 87/46/5 88/47/5
f 90/49/5 89/48/5 91/50/5
f 90/49/5 91/50/5 92/51/5
f 94/53/5 93/52/5 95/54/5
f 94/53/5 95/54/5 96/55/5
f 97/33/4 98/33/4 99/33/4
f 99/33/4 98/33/4 100/33/4
f 102/33/1 101/33/1 103/33/1
f 102/33/1 103/33/1 104/33/1
f 106/33/5 105/33/5 107/33/5
f 106/33/5 107/33/5 108/33/5
f 110/33/3 109/33/3 111/33/3
f 110/33/3 111/33/3 112/33/3
f 113/33/6 114/33/6 115/33/6
f 115/33/6 114/33/6 116/33/6
f 117/56/4 118/56/4 119/56/4
f 119/56/4 118/56/4 120/56/4
f 122/56/1 121/56/1 123/56/1
f 122/56/1 123/56/1 124/56/1
f 126/56/5 125/56/5 127/56/5
f 126/56/5 127/56/5 128/56/5
f 130/56/3 129/56/3 131/56/3
f 130/56/3 131/56/3 132/56/3
f 133/56/6 134/56/6 135/56/6
f 135/56/6 134/56/6 136/56/6
f 137/34/4 138/34/4 139/34/4
f 139/34/4 138/34/4 140/34/4
f 142/34/1 141/34/1 143/34/1
f 142/34/1 143/34/1 144/34/1
f 146/34/5 145/34/5 147/34/5
f 146/34/5 147/34/5 148/34/5
f 150/34/3 149/34/3 151/34/3
f 150/34/3 151/34/3 152/34/3
f 153/34/6 154/34/6 155/34/6
f 155/34/6 154/34/6 156/34/6
f 158/56/1 157/56/1 159/56/1
f 158/56/1 159/56/1 160/56/1
f 162/58/5 161/57/5 163/59/5
f 162/58/5 163/59/5 164/60/5
f 166/62/3 165/61/3 167/63/3
f 166/62/3 167/63/3 168/64/3
f 169/34/4 170/34/4 171/34/4
f 171/34/4 170/34/4 172/34/4
f 174/66/5 173/65/5 175/67/5
f 174/66/5 175/67/5 176/68/5
f 178/70/5 177/69/5 179/71/5
f 178/70/5 179/71/5 180/72/5
f 182/74/5 181/73/5 183/75/5
f 182/74/5 183/75/5 184/76/5
f 186/56/5 185/56/5 187/56/5
f 186/56/5 187/56/5 188/56/5
f 190/78/5 189/77/5 191/79/5
f 190/78/5 191/79/5 192/80/5
f 193/56/6 194/56/6 195/56/6
f 195/56/6 194/56/6 196/56/6
f 198/82/5 197/81/5 199/83/5
f 198/82/5 199/83/5 200/84/5
f 201/56/4 202/56/4 203/56/4
f 203/56/4 202/56/4 204/56/4
f 206/56/1 205/56/1 207/56/1
f 206/56/1 207/56/1 208/56/1
f 210/56/5 209/56/5 211/56/5
f 210/56/5 211/56/5 212/56/5
f 214/56/3 213/56/3 215/56/3
f 214/56/3 215/56/3 216/56/3
f 217/56/6 218/56/6 219/56/6
f 219/56/6 218/56/6 220/56/6
f 221/34/4 222/34/4 223/34/4
f 223/34/4 222/34/4 224/34/4
f 226/34/1 225/34/1 227/34/1
f 226/34/1 227/34/1 228/34/1
f 230/86/5 229/85/5 231/87/5
f 230/86/5 231/87/5 232/88/5
f 234/34/3 233/34/3 235/34/3
f 234/34/3 235/34/3 236/34/3
f 238/89/1 237/89/1 239/89/1
f 238/89/1 239/89/1 240/89/1
f 242/91/5 241/90/5 243/92/5
f 242/91/5 243/92/5 244/93/5
f 246/95/3 245/94/3 247/96/3
f 246/95/3 247/96/3 248/97/3
f 250/99/5 249/98/5 251/100/5
f 250/99/5 251/100/5 252/101/5
f 254/103/3 253/102/3 255/104/3
f 254/103/3 255/104/3 256/105/3
f 257/34/4 258/34/4 259/34/4
f 259/34/4 258/34/4 260/34/4
f 261/56/4 262/56/4 263/56/4
f 263/56/4 262/56/4 264/56/4
f 266/56/1 265/56/1 267/56/1
f 266/56/1 267/56/1 268/56/1
f 270/56/5 269/56/5 271/56/5
f 270/56/5 271/56/5 272/56/5
f 274/56/3 273/56/3 275/56/3
f 274/56/3 275/56/3 276/56/3
f 278/39/5 277/39/5 279/39/5
f 278/39/5 279/39/5 280/39/5
f 282/107/5 281/106/5 283/108/5
f 282/107/5 283/108/5 284/109/5
f 286/39/5 285/39/5 287/39/5
f 286/39/5 287/39/5 288/39/5
f 289/56/4 290/56/4 291/56/4
f 291/56/4 290/56/4 292/56/4
f 294/111/5 293/110/5 295/112/5
f 294/111/5 295/112/5 296/113/5
f 298/89/1 297/89/1 299/89/1
f 298/89/1 299/89/1 300/89/1
f 301/39/6 302/39/6 303/39/6
f 303/39/6 302/39/6 304/39/6
f 306/115/1 305/114/1 307/116/1
f 306/115/1 307/116/1 308/117/1
f 310/119/5 309/118/5 311/120/5
f 310/119/5 311/120/5 312/121/5
f 314/123/3 313/122/3 315/124/3
f 314/123/3 315/124/3 316/125/3
f 318/127/5 317/126/5 319/128/5
f 318/127/5 319/128/5 320/129/5
f 322/34/3 321/34/3 323/34/3
f 322/34/3 323/34/3 324/34/3
f 325/33/4 326/33/4 327/33/4
f 327/33/4 326/33/4 328/33/4
f 330/131/5 329/130/5 331/132/5
f 330/131/5 331/132/5 332/133/5
f 334/33/3 333/33/3 335/33/3
f 334/33/3 335/33/3 336/33/3
f 337/134/4 338/135/4 339/136/4
f 339/136/4 338/135/4 340/137/4
f 342/138/1 341/138/1 343/138/1
f 342/138/1 343/138/1 344/138/1
f 346/140/5 345/139/5 347/141/5
f 346/140/5 347/141/5 348/142/5
f 350/138/3 349/138/3 351/138/3
f 350/138/3 351/138/3 352/138/3
f 354/33/5 353/33/5 355/33/5
f 354/33/5 355/33/5 356/33/5
f 358/144/5 357/143/5 359/145/5
f 358/144/5 359/145/5 360/146/5
f 362/148/5 361/147/5 363/149/5
f 362/148/5 363/149/5 364/150/5
f 366/152/5 365/151/5 367/153/5
f 366/152/5 367/153/5 368/154/5
f 370/33/3 369/33/3 371/33/3
f 370/33/3 371/33/3 372/33/3
f 373/138/4 374/138/4 375/138/4
f 375/138/4 374/138/4 376/138/4
f 378/138/1 377/138/1 379/138/1
f 378/138/1 379/138/1 380/138/1
f 382/156/5 381/155/5 383/157/5
f 382/156/5 383/157/5 384/158/5
f 385/56/4 386/56/4 387/56/4
f 387/56/4 386/56/4 388/56/4
f 390/56/1 389/56/1 391/56/1
f 390/56/1 391/56/1 392/56/1
f 394/56/5 393/56/5 395/56/5
f 394/56/5 395/56/5 396/56/5
f 398/56/3 397/56/3 399/56/3
f 398/56/3 399/56/3 400/56/3
f 401/56/6 402/56/6 403/56/6
f 403/56/6 402/56/6 404/56/6
f 406/160/5 405/159/5 407/161/5
f 406/160/5 407/161/5 408/162/5
f 410/163/3 409/163/3 411/163/3
f 410/163/3 411/163/3 412/163/3
f 414/165/5 413/164/5 415/166/5
f 414/165/5 415/166/5 416/167/5
f 418/168/5 417/168/5 419/168/5
f 418/168/5 419/168/5 420/168/5
f 422/168/5 421/168/5 423/168/5
f 422/168/5 423/168/5 424/168/5
f 426/168/3 425/168/3 427/168/3
f 426/168/3 427/168/3 428/168/3
f 430/170/1 429/169/1 431/171/1
f 430/170/1 431/171/1 432/172/1
f 434/174/5 433/173/5 435/175/5
f 434/174/5 435/175/5 436/176/5
f 438/178/3 437/177/3 439/179/3
f 438/178/3 439/179/3 440/180/3
f 441/168/4 442/168/4 443/168/4
f 443/168/4 442/168/4 444/168/4
f 446/182/5 445/181/5 447/183/5
f 446/182/5 447/183/5 448/184/5
f 450/168/3 449/168/3 451/168/3
f 450/168/3 451/168/3 452/168/3
f 453/138/4 454/138/4 455/138/4
f 455/138/4 454/138/4 456/138/4
f 458/138/1 457/138/1 459/138/1
f 458/138/1 459/138/1 460/138/1
f 462/186/5 461/185/5 463/187/5
f 462/186/5 463/187/5 464/188/5
f 466/138/3 465/138/3 467/138/3
f 466/138/3 467/138/3 468/138/3
f 470/190/5 469/189/5 471/191/5
f 470/190/5 471/191/5 472/192/5
f 474/194/5 473/193/5 475/195/5
f 474/194/5 475/195/5 476/196/5
f 478/198/5 477/197/5 479/199/5
f 478/198/5 479/199/5 480/200/5
f 482/34/3 481/34/3 483/34/3
f 482/34/3 483/34/3 484/34/3
f 485/34/4 486/34/4 487/34/4
f 487/34/4 486/34/4 488/34/4
f 490/34/1 489/34/1 491/34/1
f 490/34/1 491/34/1 492/34/1
f 494/34/5 493/34/5 495/34/5
f 494/34/5 495/34/5 496/34/5
f 498/34/3 497/34/3 499/34/3
f 498/34/3 499/34/3 500/34/3
f 501/34/6 502/34/6 503/34/6
f 503/34/6 502/34/6 504/34/6
f 506/202/5 505/201/5 507/203/5
f 506/202/5 507/203/5 508/204/5
f 509/205/4 510/206/4 511/207/4
f 511/207/4 510/206/4 512/208/4
f 514/210/5 513/209/5 515/211/5
f 514/210/5 515/211/5 516/212/5
f 518/56/3 517/56/3 519/56/3
f 518/56/3 519/56/3 520/56/3
f 522/214/5 521/213/5 523/215/5
f 522/214/5 523/215/5 524/216/5
f 526/218/5 525/217/5 527/219/5
f 526/218/5 527/219/5 528/220/5
f 530/222/5 529/221/5 531/223/5
f 530/222/5 531/223/5 532/224/5
f 534/226/1 533/225/1 535/227/1
f 534/226/1 535/227/1 536/228/1
f 538/230/5 537/229/5 539/231/5
f 538/230/5 539/231/5 540/232/5
f 542/163/3 541/163/3 543/163/3
f 542/163/3 543/163/3 544/163/3
f 545/138/4 546/138/4 547/138/4
f 547/138/4 546/138/4 548/138/4
f 550/138/1 549/138/1 551/138/1
f 550/138/1 551/138/1 552/138/1
f 554/138/5 553/138/5 555/138/5
f 554/138/5 555/138/5 556/138/5
f 558/138/3 557/138/3 559/138/3
f 558/138/3 559/138/3 560/138/3
f 561/138/6 562/138/6 563/138/6
f 563/138/6 562/138/6 564/138/6
f 566/163/5 565/163/5 567/163/5
f 566/163/5 567/163/5 568/163/5
f 569/168/4 570/168/4 571/168/4
f 571/168/4 570/168/4 572/168/4
f 574/168/5 573/168/5 575/168/5
f 574/168/5 575/168/5 576/168/5
f 578/168/3 577/168/3 579/168/3
f 578/168/3 579/168/3 580/168/3
f 581/168/6 582/168/6 583/168/6
f 583/168/6 582/168/6 584/168/6
f 586/138/5 585/138/5 587/138/5
f 586/138/5 587/138/5 588/138/5
f 589/168/6 590/168/6 591/168/6
f 591/168/6 590/168/6 592/168/6
f 594/234/5 593/233/5 595/235/5
f 594/234/5 595/235/5 596/236/5
f 598/168/1 597/168/1 599/168/1
f 598/168/1 599/168/1 600/168/1
f 602/168/5 601/168/5 603/168/5
f 602/168/5 603/168/5 604/168/5
f 606/168/3 605/168/3 607/168/3
f 606/168/3 607/168/3 608/168/3
f 609/138/6 610/138/6 611/138/6
f 611/138/6 610/138/6 612/138/6
f 613/33/6 614/33/6 615/33/6
f 615/33/6 614/33/6 616/33/6
f 617/237/4 618/238/4 619/239/4
f 619/239/4 618/238/4 620/240/4
f 621/138/4 622/138/4 623/138/4
f 623/138/4 622/138/4 624/138/4
f 626/138/1 625/138/1 627/138/1
f 626/138/1 627/138/1 628/138/1
f 630/138/5 629/138/5 631/138/5
f 630/138/5 631/138/5 632/138/5
f 634/138/3 633/138/3 635/138/3
f 634/138/3 635/138/3 636/138/3
f 637/138/6 638/138/6 639/138/6
f 639/138/6 638/138/6 640/138/6
f 642/56/5 641/56/5 643/56/5
f 642/56/5 643/56/5 644/56/5
f 645/39/4 646/39/4 647/39/4
f 647/39/4 646/39/4 648/39/4
f 650/34/1 649/34/1 651/34/1
f 650/34/1 651/34/1 652/34/1
f 654/89/5 653/89/5 655/89/5
f 654/89/5 655/89/5 656/89/5
f 658/163/5 657/163/5 659/163/5
f 658/163/5 659/163/5 660/163/5
f 662/242/5 661/241/5 663/243/5
f 662/242/5 663/243/5 664/244/5
f 666/246/5 665/245/5 667/247/5
f 666/246/5 667/247/5 668/248/5
f 670/39/1 669/39/1 671/39/1
f 670/39/1 671/39/1 672/39/1
f 674/39/5 673/39/5 675/39/5
f 674/39/5 675/39/5 676/39/5
f 678/39/3 677/39/3 679/39/3
f 678/39/3 679/39/3 680/39/3
f 681/39/6 682/39/6 683/39/6
f 683/39/6 682/39/6 684/39/6
f 685/33/4 686/33/4 687/33/4
f 687/33/4 686/33/4 688/33/4
f 690/33/5 689/33/5 691/33/5
f 690/33/5 691/33/5 692/33/5
f 694/33/1 693/33/1 695/33/1
f 694/33/1 695/33/1 696/33/1
f 697/33/4 698/33/4 699/33/4
f 699/33/4 698/33/4 700/33/4
f 702/33/1 701/33/1 703/33/1
f 702/33/1 703/33/1 704/33/1
f 705/33/6 706/33/6 707/33/6
f 707/33/6 706/33/6 708/33/6
f 709/249/4 710/250/4 711/251/4
f 711/251/4 710/250/4 712/252/4
f 714/34/1 713/34/1 715/34/1
f 714/34/1 715/34/1 716/34/1
f 718/254/5 717/253/5 719/255/5
f 718/254/5 719/255/5 720/256/5
f 722/34/3 721/34/3 723/34/3
f 722/34/3 723/34/3 724/34/3
f 725/163/4 726/163/4 727/163/4
f 727/163/4 726/163/4 728/163/4
f 730/163/1 729/163/1 731/163/1
f 730/163/1 731/163/1 732/163/1
f 734/163/5 733/163/5 735/163/5
f 734/163/5 735/163/5 736/163/5
f 738/163/3 737/163/3 739/163/3
f 738/163/3 739/163/3 740/163/3
f 741/163/6 742/163/6 743/163/6
f 743/163/6 742/163/6 744/163/6
f 746/56/1 745/56/1 747/56/1
f 746/56/1 747/56/1 748/56/1
f 750/258/5 749/257/5 751/259/5
f 750/258/5 751/259/5 752/260/5
f 754/262/3 753/261/3 755/263/3
f 754/262/3 755/263/3 756/264/3
f 757/39/4 758/39/4 759/39/4
f 759/39/4 758/39/4 760/39/4
f 761/34/4 762/34/4 763/34/4
f 763/34/4 762/34/4 764/34/4
f 766/34/1 765/34/1 767/34/1
f 766/34/1 767/34/1 768/34/1
f 770/34/5 769/34/5 771/34/5
f 770/34/5 771/34/5 772/34/5
f 774/34/3 773/34/3 775/34/3
f 774/34/3 775/34/3 776/34/3
f 777/34/6 778/34/6 779/34/6
f 779/34/6 778/34/6 780/34/6
f 782/266/5 781/265/5 783/267/5
f 782/266/5 783/267/5 784/268/5
f 786/89/3 785/89/3 787/89/3
f 786/89/3 787/89/3 788/89/3
f 790/39/5 789/39/5 791/39/5
f 790/39/5 791/39/5 792/39/5
f 794/270/5 793/269/5 795/271/5
f 794/270/5 795/271/5 796/272/5
f 798/274/1 797/273/1 799/275/1
f 798/274/1 799/275/1 800/276/1
f 802/56/5 801/56/5 803/56/5
f 802/56/5 803/56/5 804/56/5
f 806/56/3 805/56/3 807/56/3
f 806/56/3 807/56/3 808/56/3
f 810/278/5 809/277/5 811/279/5
f 810/278/5 811/279/5 812/280/5
f 813/163/4 814/163/4 815/163/4
f 815/163/4 814/163/4 816/163/4
f 818/282/5 817/281/5 819/283/5
f 818/282/5 819/283/5 820/284/5
f 822/163/3 821/163/3 823/163/3
f 822/163/3 823/163/3 824/163/3
f 826/34/1 825/34/1 827/34/1
f 826/34/1 827/34/1 828/34/1
f 830/286/5 829/285/5 831/287/5
f 830/286/5 831/287/5 832/288/5
f 834/34/3 833/34/3 835/34/3
f 834/34/3 835/34/3 836/34/3
f 838/290/1 837/289/1 839/291/1
f 838/290/1 839/291/1 840/292/1
f 842/294/5 841/293/5 843/295/5
f 842/294/5 843/295/5 844/296/5
f 846/298/3 845/297/3 847/299/3
f 846/298/3 847/299/3 848/300/3
f 850/302/5 849/301/5 851/303/5
f 850/302/5 851/303/5 852/304/5
f 854/306/3 853/305/3 855/307/3
f 854/306/3 855/307/3 856/308/3
f 857/34/4 858/34/4 859/34/4
f 859/34/4 858/34/4 860/34/4
f 862/138/5 861/138/5 863/138/5
f 862/138/5 863/138/5 864/138/5
f 866/138/3 865/138/3 867/138/3
f 866/138/3 867/138/3 868/138/3
f 869/138/6 870/138/6 871/138/6
f 871/138/6 870/138/6 872/138/6
f 873/56/6 874/56/6 875/56/6
f 875/56/6 874/56/6 876/56/6
f 877/309/4 878/310/4 879/311/4
f 879/311/4 878/310/4 880/312/4
f 882/314/5 881/313/5 883/315/5
f 882/314/5 883/315/5 884/316/5
f 886/89/3 885/89/3 887/89/3
f 886/89/3 887/89/3 888/89/3
f 889/33/6 890/33/6 891/33/6
f 891/33/6 890/33/6 892/33/6
f 894/318/5 893/317/5 895/319/5
f 894/318/5 895/319/5 896/320/5
f 898/322/3 897/321/3 899/323/3
f 898/322/3 899/323/3 900/324/3
f 901/325/4 902/326/4 903/327/4
f 903/327/4 902/326/4 904/328/4
f 906/163/5 905/163/5 907/163/5
f 906/163/5 907/163/5 908/163/5
f 910/330/5 909/329/5 911/331/5
f 910/330/5 911/331/5 912/332/5
f 914/33/5 913/33/5 915/33/5
f 914/33/5 915/33/5 916/33/5
f 917/163/4 918/163/4 919/163/4
f 919/163/4 918/163/4 920/163/4
f 922/163/1 921/163/1 923/163/1
f 922/163/1 923/163/1 924/163/1
f 926/163/5 925/163/5 927/163/5
f 926/163/5 927/163/5 928/163/5
f 930/163/3 929/163/3 931/163/3
f 930/163/3 931/163/3 932/163/3
f 933/163/6 934/163/6 935/163/6
f 935/163/6 934/163/6 936/163/6
f 938/334/5 937/333/5 939/335/5
f 938/334/5 939/335/5 940/336/5
f 941/337/4 942/338/4 943/339/4
f 943/339/4 942/338/4 944/340/4
f 945/138/4 946/138/4 947/138/4
f 947/138/4 946/138/4 948/138/4
f 950/138/1 949/138/1 951/138/1
f 950/138/1 951/138/1 952/138/1
f 953/138/6 954/138/6 955/138/6
f 955/138/6 954/138/6 956/138/6
f 958/34/1 957/34/1 959/34/1
f 958/34/1 959/34/1 960/34/1
f 961/138/4 962/138/4 963/138/4
f 963/138/4 962/138/4 964/138/4
f 966/138/1 965/138/1 967/138/1
f 966/138/1 967/138/1 968/138/1
f 970/138/5 969/138/5 971/138/5
f 970/138/5 971/138/5 972/138/5
f 974/138/3 973/138/3 975/138/3
f 974/138/3 975/138/3 976/138/3
f 977/138/6 978/138/6 979/138/6
f 979/138/6 978/138/6 980/138/6
f 982/342/1 981/341/1 983/343/1
f 982/342/1 983/343/1 984/344/1
f 986/346/5 985/345/5 987/347/5
f 986/346/5 987/347/5 988/348/5
f 989/33/6 990/33/6 991/33/6
f 991/33/6 990/33/6 992/33/6
f 994/350/5 993/349/5 995/351/5
f 994/350/5 995/351/5 996/352/5
f 998/34/5 997/34/5 999/34/5
f 998/34/5 999/34/5 1000/34/5
f 1002/56/5 1001/56/5 1003/56/5
f 1002/56/5 1003/56/5 1004/56/5
f 1006/163/1 1005/163/1 1007/163/1
f 1006/163/1 1007/163/1 1008/163/1
f 1010/163/5 1009/163/5 1011/163/5
f 1010/163/5 1011/163/5 1012/163/5
f 1014/163/3 1013/163/3 1015/163/3
f 1014/163/3 1015/163/3 1016/163/3
f 1017/353/6 1018/354/6 1019/355/6
f 1019/355/6 1018/354/6 1020/356/6
f 1022/34/5 1021/34/5 1023/34/5
f 1022/34/5 1023/34/5 1024/34/5
f 1026/34/1 1025/34/1 1027/34/1
f 1026/34/1 1027/34/1 1028/34/1
f 1030/34/5 1029/34/5 1031/34/5
f 1030/34/5 1031/34/5 1032/34/5
f 1034/34/3 1033/34/3 1035/34/3
f 1034/34/3 1035/34/3 1036/34/3
f 1037/357/6 1038/358/6 1039/359/6
f 1039/359/6 1038/358/6 1040/360/6
f 1041/163/4 1042/163/4 1043/163/4
f 1043/163/4 1042/163/4 1044/163/4
f 1046/362/5 1045/361/5 1047/363/5
f 1046/362/5 1047/363/5 1048/364/5
f 1050/163/3 1049/163/3 1051/163/3
f 1050/163/3 1051/163/3 1052/163/3
f 1053/168/4 1054/168/4 1055/168/4
f 1055/168/4 1054/168/4 1056/168/4
f 1058/366/5 1057/365/5 1059/367/5
f 1058/366/5 1059/367/5 1060/368/5
f 1062/370/5 1061/369/5 1063/371/5
f 1062/370/5 1063/371/5 1064/372/5
f 1066/374/5 1065/373/5 1067/375/5
f 1066/374/5 1067/375/5 1068/376/5
f 1070/89/1 1069/89/1 1071/89/1
f 1070/89/1 1071/89/1 1072/89/1
f 1073/89/6 1074/89/6 1075/89/6
f 1075/89/6 1074/89/6 1076/89/6
f 1077/377/4 1078/378/4 1079/379/4
f 1079/379/4 1078/378/4 1080/380/4
f 1082/138/1 1081/138/1 1083/138/1
f 1082/138/1 1083/138/1 1084/138/1
f 1086/382/5 1085/381/5 1087/383/5
f 1086/382/5 1087/383/5 1088/384/5
f 1090/138/3 1089/138/3 1091/138/3
f 1090/138/3 1091/138/3 1092/138/3
f 1094/386/1 1093/385/1 1095/387/1
f 1094/386/1 1095/387/1 1096/388/1
f 1097/89/4 1098/89/4 1099/89/4
f 1099/89/4 1098/89/4 1100/89/4
f 1102/89/5 1101/89/5 1103/89/5
f 1102/89/5 1103/89/5 1104/89/5
f 1106/89/3 1105/89/3 1107/89/3
f 1106/89/3 1107/89/3 1108/89/3
f 1109/89/6 1110/89/6 1111/89/6
f 1111/89/6 1110/89/6 1112/89/6
f 1114/390/5 1113/389/5 1115/391/5
f 1114/390/5 1115/391/5 1116/392/5
f 1118/394/3 1117/393/3 1119/395/3
f 1118/394/3 1119/395/3 1120/396/3
f 1121/56/4 1122/56/4 1123/56/4
f 1123/56/4 1122/56/4 1124/56/4
f 1126/398/5 1125/397/5 1127/399/5
f 1126/398/5 1127/399/5 1128/400/5
f 1130/34/5 1129/34/5 1131/34/5
f 1130/34/5 1131/34/5 1132/34/5
f 1134/402/5 1133/401/5 1135/403/5
f 1134/402/5 1135/403/5 1136/404/5
f 1137/56/4 1138/56/4 1139/56/4
f 1139/56/4 1138/56/4 1140/56/4
f 1142/56/1 1141/56/1 1143/56/1
f 1142/56/1 1143/56/1 1144/56/1
f 1146/56/5 1145/56/5 1147/56/5
f 1146/56/5 1147/56/5 1148/56/5
f 1150/56/3 1149/56/3 1151/56/3
f 1150/56/3 1151/56/3 1152/56/3
f 1153/56/6 1154/56/6 1155/56/6
f 1155/56/6 1154/56/6 1156/56/6
f 1158/406/1 1157/405/1 1159/407/1
f 1158/406/1 1159/407/1 1160/408/1
f 1162/410/5 1161/409/5 1163/411/5
f 1162/410/5 1163/411/5 1164/412/5
f 1166/414/5 1165/413/5 1167/415/5
f 1166/414/5 1167/415/5 1168/416/5
f 1170/168/3 1169/168/3 1171/168/3
f 1170/168/3 1171/168/3 1172/168/3
f 1173/163/4 1174/163/4 1175/163/4
f 1175/163/4 1174/163/4 1176/163/4
f 1177/163/6 1178/163/6 1179/163/6
f 1179/163/6 1178/163/6 1180/163/6
f 1182/168/1 1181/168/1 1183/168/1
f 1182/168/1 1183/168/1 1184/168/1
f 1186/168/5 1185/168/5 1187/168/5
f 1186/168/5 1187/168/5 1188/168/5
f 1190/168/3 1189/168/3 1191/168/3
f 1190/168/3 1191/168/3 1192/168/3
f 1193/168/6 1194/168/6 1195/168/6
f 1195/168/6 1194/168/6 1196/168/6
f 1197/34/6 1198/34/6 1199/34/6
f 1199/34/6 1198/34/6 1200/34/6
f 1201/138/4 1202/138/4 1203/138/4
f 1203/138/4 1202/138/4 1204/138/4
f 1206/138/5 1205/138/5 1207/138/5
f 1206/138/5 1207/138/5 1208/138/5
f 1210/138/3 1209/138/3 1211/138/3
f 1210/138/3 1211/138/3 1212/138/3
f 1213/138/6 1214/138/6 1215/138/6
f 1215/138/6 1214/138/6 1216/138/6
f 1218/418/5 1217/417/5 1219/419/5
f 1218/418/5 1219/419/5 1220/420/5
f 1222/422/5 1221/421/5 1223/423/5
f 1222/422/5 1223/423/5 1224/424/5
f 1225/33/6 1226/33/6 1227/33/6
f 1227/33/6 1226/33/6 1228/33/6
f 1230/426/5 1229/425/5 1231/427/5
f 1230/426/5 1231/427/5 1232/428/5
f 1234/89/5 1233/89/5 1235/89/5
f 1234/89/5 1235/89/5 1236/89/5
f 1238/430/5 1237/429/5 1239/431/5
f 1238/430/5 1239/431/5 1240/432/5
f 1242/434/5 1241/433/5 1243/435/5
f 1242/434/5 1243/435/5 1244/436/5
f 1246/438/3 1245/437/3 1247/439/3
f 1246/438/3 1247/439/3 1248/440/3
f 1249/441/4 1250/442/4 1251/443/4
f 1251/443/4 1250/442/4 1252/444/4
f 1254/56/1 1253/56/1 1255/56/1
f 1254/56/1 1255/56/1 1256/56/1
f 1257/445/6 1258/446/6 1259/447/6
f 1259/447/6 1258/446/6 1260/448/6
f 1262/450/5 1261/449/5 1263/451/5
f 1262/450/5 1263/451/5 1264/452/5
f 1265/138/4 1266/138/4 1267/138/4
f 1267/138/4 1266/138/4 1268/138/4
f 1270/163/1 1269/163/1 1271/163/1
f 1270/163/1 1271/163/1 1272/163/1
f 1273/453/6 1274/454/6 1275/455/6
f 1275/455/6 1274/454/6 1276/456/6
f 1277/457/4 1278/458/4 1279/459/4
f 1279/459/4 1278/458/4 1280/460/4
f 1282/33/5 1281/33/5 1283/33/5
f 1282/33/5 1283/33/5 1284/33/5
f 1285/56/4 1286/56/4 1287/56/4
f 1287/56/4 1286/56/4 1288/56/4
f 1290/56/1 1289/56/1 1291/56/1
f 1290/56/1 1291/56/1 1292/56/1
f 1294/163/1 1293/163/1 1295/163/1
f 1294/163/1 1295/163/1 1296/163/1
f 1298/163/5 1297/163/5 1299/163/5
f 1298/163/5 1299/163/5 1300/163/5
f 1302/163/3 1301/163/3 1303/163/3
f 1302/163/3 1303/163/3 1304/163/3
f 1306/462/5 1305/461/5 1307/463/5
f 1306/462/5 1307/463/5 1308/464/5
f 1310/466/5 1309/465/5 1311/467/5
f 1310/466/5 1311/467/5 1312/468/5
f 1313/56/6 1314/56/6 1315/56/6
f 1315/56/6 1314/56/6 1316/56/6
f 1317/89/4 1318/89/4 1319/89/4
f 1319/89/4 1318/89/4 1320/89/4
f 1322/89/1 1321/89/1 1323/89/1
f 1322/89/1 1323/89/1 1324/89/1
f 1326/89/5 1325/89/5 1327/89/5
f 1326/89/5 1327/89/5 1328/89/5
f 1330/89/3 1329/89/3 1331/89/3
f 1330/89/3 1331/89/3 1332/89/3
f 1333/89/6 1334/89/6 1335/89/6
f 1335/89/6 1334/89/6 1336/89/6
f 1338/470/1 1337/469/1 1339/471/1
f 1338/470/1 1339/471/1 1340/472/1
f 1342/474/5 1341/473/5 1343/475/5
f 1342/474/5 1343/475/5 1344/476/5
f 1346/478/5 1345/477/5 1347/479/5
f 1346/478/5 1347/479/5 1348/480/5
f 1350/34/5 1349/34/5 1351/34/5
f 1350/34/5 1351/34/5 1352/34/5
f 1354/34/3 1353/34/3 1355/34/3
f 1354/34/3 1355/34/3 1356/34/3
f 1358/482/5 1357/481/5 1359/483/5
f 1358/482/5 1359/483/5 1360/484/5
f 1361/485/6 1362/486/6 1363/487/6
f 1363/487/6 1362/486/6 1364/488/6
f 1366/490/5 1365/489/5 1367/491/5
f 1366/490/5 1367/491/5 1368/492/5
f 1370/494/5 1369/493/5 1371/495/5
f 1370/494/5 1371/495/5 1372/496/5
f 1373/39/4 1374/39/4 1375/39/4
f 1375/39/4 1374/39/4 1376/39/4
f 1378/39/5 1377/39/5 1379/39/5
f 1378/39/5 1379/39/5 1380/39/5
f 1381/39/6 1382/39/6 1383/39/6
f 1383/39/6 1382/39/6 1384/39/6
f 1385/33/4 1386/33/4 1387/33/4
f 1387/33/4 1386/33/4 1388/33/4
f 1390/498/1 1389/497/1 1391/499/1
f 1390/498/1 1391/499/1 1392/500/1
f 1394/502/5 1393/501/5 1395/503/5
f 1394/502/5 1395/503/5 1396/504/5
f 1398/33/3 1397/33/3 1399/33/3
f 1398/33/3 1399/33/3 1400/33/3
f 1401/56/4 1402/56/4 1403/56/4
f 1403/56/4 1402/56/4 1404/56/4
f 1406/56/1 1405/56/1 1407/56/1
f 1406/56/1 1407/56/1 1408/56/1
f 1410/56/5 1409/56/5 1411/56/5
f 1410/56/5 1411/56/5 1412/56/5
f 1414/56/3 1413/56/3 1415/56/3
f 1414/56/3 1415/56/3 1416/56/3
f 1417/56/6 1418/56/6 1419/56/6
f 1419/56/6 1418/56/6 1420/56/6
f 1421/168/4 1422/168/4 1423/168/4
f 1423/168/4 1422/168/4 1424/168/4
f 1426/168/1 1425/168/1 1427/168/1
f 1426/168/1 1427/168/1 1428/168/1
f 1430/168/5 1429/168/5 1431/168/5
f 1430/168/5 1431/168/5 1432/168/5
f 1434/168/3 1433/168/3 1435/168/3
f 1434/168/3 1435/168/3 1436/168/3
f 1437/168/6 1438/168/6 1439/168/6
f 1439/168/6 1438/168/6 1440/168/6
f 1441/138/6 1442/138/6 1443/138/6
f 1443/138/6 1442/138/6 1444/138/6
f 1446/506/5 1445/505/5 1447/507/5
f 1446/506/5 1447/507/5 1448/508/5
f 1450/34/5 1449/34/5 1451/34/5
f 1450/34/5 1451/34/5 1452/34/5
f 1454/510/5 1453/509/5 1455/511/5
f 1454/510/5 1455/511/5 1456/512/5
f 1457/56/4 1458/56/4 1459/56/4
f 1459/56/4 1458/56/4 1460/56/4
f 1462/56/1 1461/56/1 1463/56/1
f 1462/56/1 1463/56/1 1464/56/1
f 1466/56/5 1465/56/5 1467/56/5
f 1466/56/5 1467/56/5 1468/56/5
f 1470/56/3 1469/56/3 1471/56/3
f 1470/56/3 1471/56/3 1472/56/3
f 1473/56/6 1474/56/6 1475/56/6
f 1475/56/6 1474/56/6 1476/56/6
f 1478/33/1 1477/33/1 1479/33/1
f 1478/33/1 1479/33/1 1480/33/1
f 1482/33/5 1481/33/5 1483/33/5
f 1482/33/5 1483/33/5 1484/33/5
f 1485/33/6 1486/33/6 1487/33/6
f 1487/33/6 1486/33/6 1488/33/6
f 1490/514/5 1489/513/5 1491/515/5
f 1490/514/5 1491/515/5 1492/516/5
f 1494/518/5 1493/517/5 1495/519/5
f 1494/518/5 1495/519/5 1496/520/5
f 1497/138/4 1498/138/4 1499/138/4
f 1499/138/4 1498/138/4 1500/138/4
f 1501/521/4 1502/522/4 1503/523/4
f 1503/523/4 1502/522/4 1504/524/4
f 1506/526/5 1505/525/5 1507/527/5
f 1506/526/5 1507/527/5 1508/528/5
f 1510/163/3 1509/163/3 1511/163/3
f 1510/163/3 1511/163/3 1512/163/3
f 1514/56/1 1513/56/1 1515/56/1
f 1514/56/1 1515/56/1 1516/56/1
f 1517/34/6 1518/34/6 1519/34/6
f 1519/34/6 1518/34/6 1520/34/6
f 1522/530/5 1521/529/5 1523/531/5
f 1522/530/5 1523/531/5 1524/532/5
f 1526/34/5 1525/34/5 1527/34/5
f 1526/34/5 1527/34/5 1528/34/5
f 1530/534/5 1529/533/5 1531/535/5
f 1530/534/5 1531/535/5 1532/536/5
f 1534/163/1 1533/163/1 1535/163/1
f 1534/163/1 1535/163/1 1536/163/1
f 1537/163/6 1538/163/6 1539/163/6
f 1539/163/6 1538/163/6 1540/163/6
f 1542/538/5 1541/537/5 1543/539/5
f 1542/538/5 1543/539/5 1544/540/5
f 1546/542/5 1545/541/5 1547/543/5
f 1546/542/5 1547/543/5 1548/544/5
f 1550/546/3 1549/545/3 1551/547/3
f 1550/546/3 1551/547/3 1552/548/3
f 1553/138/6 1554/138/6 1555/138/6
f 1555/138/6 1554/138/6 1556/138/6
f 1557/138/4 1558/138/4 1559/138/4
f 1559/138/4 1558/138/4 1560/138/4
f 1562/138/1 1561/138/1 1563/138/1
f 1562/138/1 1563/138/1 1564/138/1
f 1566/138/5 1565/138/5 1567/138/5
f 1566/138/5 1567/138/5 1568/138/5
f 1570/138/3 1569/138/3 1571/138/3
f 1570/138/3 1571/138/3 1572/138/3
f 1573/138/6 1574/138/6 1575/138/6
f 1575/138/6 1574/138/6 1576/138/6
f 1577/549/6 1578/550/6 1579/551/6
f 1579/551/6 1578/550/6 1580/552/6
f 1581/89/4 1582/89/4 1583/89/4
f 1583/89/4 1582/89/4 1584/89/4
f 1586/89/5 1585/89/5 1587/89/5
f 1586/89/5 1587/89/5 1588/89/5
f 1590/554/5 1589/553/5 1591/555/5
f 1590/554/5 1591/555/5 1592/556/5
f 1594/39/5 1593/39/5 1595/39/5
f 1594/39/5 1595/39/5 1596/39/5
f 1598/558/5 1597/557/5 1599/559/5
f 1598/558/5 1599/559/5 1600/560/5
f 1601/561/4 1602/562/4 1603/563/4
f 1603/563/4 1602/562/4 1604/564/4
f 1606/566/1 1605/565/1 1607/567/1
f 1606/566/1 1607/567/1 1608/568/1
f 1610/570/5 1609/569/5 1611/571/5
f 1610/570/5 1611/571/5 1612/572/5
f 1614/138/3 1613/138/3 1615/138/3
f 1614/138/3 1615/138/3 1616/138/3
f 1618/89/1 1617/89/1 1619/89/1
f 1618/89/1 1619/89/1 1620/89/1
f 1622/574/5 1621/573/5 1623/575/5
f 1622/574/5 1623/575/5 1624/576/5
f 1625/89/6 1626/89/6 1627/89/6
f 1627/89/6 1626/89/6 1628/89/6
f 1630/578/5 1629/577/5 1631/579/5
f 1630/578/5 1631/579/5 1632/580/5
f 1633/89/4 1634/89/4 1635/89/4
f 1635/89/4 1634/89/4 1636/89/4
f 1638/168/5 1637/168/5 1639/168/5
f 1638/168/5 1639/168/5 1640/168/5
f 1641/168/6 1642/168/6 1643/168/6
f 1643/168/6 1642/168/6 1644/168/6
f 1646/34/1 1645/34/1 1647/34/1
f 1646/34/1 1647/34/1 1648/34/1
f 1650/582/5 1649/581/5 1651/583/5
f 1650/582/5 1651/583/5 1652/584/5
f 1653/585/6 1654/586/6 1655/587/6
f 1655/587/6 1654/586/6 1656/588/6
f 1657/39/4 1658/39/4 1659/39/4
f 1659/39/4 1658/39/4 1660/39/4
f 1662/39/5 1661/39/5 1663/39/5
f 1662/39/5 1663/39/5 1664/39/5
f 1666/39/3 1665/39/3 1667/39/3
f 1666/39/3 1667/39/3 1668/39/3
f 1670/590/5 1669/589/5 1671/591/5
f 1670/590/5 1671/591/5 1672/592/5
f 1674/33/5 1673/33/5 1675/33/5
f 1674/33/5 1675/33/5 1676/33/5
f 1678/33/1 1677/33/1 1679/33/1
f 1678/33/1 1679/33/1 1680/33/1
f 1682/33/5 1681/33/5 1683/33/5
f 1682/33/5 1683/33/5 1684/33/5
f 1686/33/3 1685/33/3 1687/33/3
f 1686/33/3 1687/33/3 1688/33/3
f 1689/33/6 1690/33/6 1691/33/6
f 1691/33/6 1690/33/6 1692/33/6
f 1693/168/6 1694/168/6 1695/168/6
f 1695/168/6 1694/168/6 1696/168/6
f 1697/39/4 1698/39/4 1699/39/4
f 1699/39/4 1698/39/4 1700/39/4
f 1701/39/6 1702/39/6 1703/39/6
f 1703/39/6 1702/39/6 1704/39/6
f 1706/594/5 1705/593/5 1707/595/5
f 1706/594/5 1707/595/5 1708/596/5
f 1710/33/5 1709/33/5 1711/33/5
f 1710/33/5 1711/33/5 1712/33/5
f 1714/163/5 1713/163/5 1715/163/5
f 1714/163/5 1715/163/5 1716/163/5
f 1718/598/5 1717/597/5 1719/599/5
f 1718/598/5 1719/599/5 1720/600/5
f 1721/56/4 1722/56/4 1723/56/4
f 1723/56/4 1722/56/4 1724/56/4
f 1726/56/1 1725/56/1 1727/56/1
f 1726/56/1 1727/56/1 1728/56/1
f 1730/56/5 1729/56/5 1731/56/5
f 1730/56/5 1731/56/5 1732/56/5
f 1734/56/3 1733/56/3 1735/56/3
f 1734/56/3 1735/56/3 1736/56/3
f 1737/56/6 1738/56/6 1739/56/6
f 1739/56/6 1738/56/6 1740/56/6
f 1741/138/4 1742/138/4 1743/138/4
f 1743/138/4 1742/138/4 1744/138/4
f 1746/138/1 1745/138/1 1747/138/1
f 1746/138/1 1747/138/1 1748/138/1
f 1749/138/6 1750/138/6 1751/138/6
f 1751/138/6 1750/138/6 1752/138/6
f 1754/89/1 1753/89/1 1755/89/1
f 1754/89/1 1755/89/1 1756/89/1
f 1757/89/6 1758/89/6 1759/89/6
f 1759/89/6 1758/89/6 1760/89/6
f 1761/138/4 1762/138/4 1763/138/4
f 1763/138/4 1762/138/4 1764/138/4
f 1766/138/5 1765/138/5 1767/138/5
f 1766/138/5 1767/138/5 1768/138/5
f 1769/138/6 1770/138/6 1771/138/6
f 1771/138/6 1770/138/6 1772/138/6
f 1773/163/4 1774/163/4 1775/163/4
f 1775/163/4 1774/163/4 1776/163/4
f 1778/163/1 1777/163/1 1779/163/1
f 1778/163/1 1779/163/1 1780/163/1
f 1782/163/5 1781/163/5 1783/163/5
f 1782/163/5 1783/163/5 1784/163/5
f 1786/163/3 1785/163/3 1787/163/3
f 1786/163/3 1787/163/3 1788/163/3
f 1789/163/6 1790/163/6 1791/163/6
f 1791/163/6 1790/163/6 1792/163/6
f 1794/602/5 1793/601/5 1795/603/5
f 1794/602/5 1795/603/5 1796/604/5
f 1798/606/5 1797/605/5 1799/607/5
f 1798/606/5 1799/607/5 1800/608/5
f 1802/34/5 1801/34/5 1803/34/5
f 1802/34/5 1803/34/5 1804/34/5
f 1806/610/5 1805/609/5 1807/611/5
f 1806/610/5 1807/611/5 1808/612/5
f 1810/614/5 1809/613/5 1811/615/5
f 1810/614/5 1811/615/5 1812/616/5
f 1813/33/4 1814/33/4 1815/33/4
f 1815/33/4 1814/33/4 1816/33/4
f 1818/618/1 1817/617/1 1819/619/1
f 1818/618/1 1819/619/1 1820/620/1
f 1822/622/5 1821/621/5 1823/623/5
f 1822/622/5 1823/623/5 1824/624/5
f 1826/33/3 1825/33/3 1827/33/3
f 1826/33/3 1827/33/3 1828/33/3
f 1830/163/1 1829/163/1 1831/163/1
f 1830/163/1 1831/163/1 1832/163/1
f 1834/626/5 1833/625/5 1835/627/5
f 1834/626/5 1835/627/5 1836/628/5
f 1837/629/4 1838/630/4 1839/631/4
f 1839/631/4 1838/630/4 1840/632/4
f 1841/33/4 1842/33/4 1843/33/4
f 1843/33/4 1842/33/4 1844/33/4
f 1846/33/1 1845/33/1 1847/33/1
f 1846/33/1 1847/33/1 1848/33/1
f 1850/33/5 1849/33/5 1851/33/5
f 1850/33/5 1851/33/5 1852/33/5
f 1854/33/3 1853/33/3 1855/33/3
f 1854/33/3 1855/33/3 1856/33/3
f 1857/33/6 1858/33/6 1859/33/6
f 1859/33/6 1858/33/6 1860/33/6
f 1862/634/5 1861/633/5 1863/635/5
f 1862/634/5 1863/635/5 1864/636/5
f 1866/638/5 1865/637/5 1867/639/5
f 1866/638/5 1867/639/5 1868/640/5
f 1869/56/4 1870/56/4 1871/56/4
f 1871/56/4 1870/56/4 1872/56/4
f 1874/56/1 1873/56/1 1875/56/1
f 1874/56/1 1875/56/1 1876/56/1
f 1878/56/5 1877/56/5 1879/56/5
f 1878/56/5 1879/56/5 1880/56/5
f 1882/56/3 1881/56/3 1883/56/3
f 1882/56/3 1883/56/3 1884/56/3
f 1885/56/6 1886/56/6 1887/56/6
f 1887/56/6 1886/56/6 1888/56/6
f 1889/641/6 1890/642/6 1891/643/6
f 1891/643/6 1890/642/6 1892/644/6
f 1894/33/5 1893/33/5 1895/33/5
f 1894/33/5 1895/33/5 1896/33/5
f 1898/33/3 1897/33/3 1899/33/3
f 1898/33/3 1899/33/3 1900/33/3
f 1901/645/6 1902/646/6 1903/647/6
f 1903/647/6 1902/646/6 1904/648/6
f 1906/650/5 1905/649/5 1907/651/5
f 1906/650/5 1907/651/5 1908/652/5
f 1910/654/5 1909/653/5 1911/655/5
f 1910/654/5 1911/655/5 1912/656/5
f 1914/658/5 1913/657/5 1915/659/5
f 1914/658/5 1915/659/5 1916/660/5
f 1917/33/4 1918/33/4 1919/33/4
f 1919/33/4 1918/33/4 1920/33/4
f 1922/33/1 1921/33/1 1923/33/1
f 1922/33/1 1923/33/1 1924/33/1
f 1926/33/5 1925/33/5 1927/33/5
f 1926/33/5 1927/33/5 1928/33/5
f 1930/33/3 1929/33/3 1931/33/3
f 1930/33/3 1931/33/3 1932/33/3
f 1933/33/6 1934/33/6 1935/33/6
f 1935/33/6 1934/33/6 1936/33/6
f 1938/89/1 1937/89/1 1939/89/1
f 1938/89/1 1939/89/1 1940/89/1
f 1941/89/6 1942/89/6 1943/89/6
f 1943/89/6 1942/89/6 1944/89/6
f 1945/138/6 1946/138/6 1947/138/6
f 1947/138/6 1946/138/6 1948/138/6
f 1949/89/4 1950/89/4 1951/89/4
f 1951/89/4 1950/89/4 1952/89/4
f 1953/89/6 1954/89/6 1955/89/6
f 1955/89/6 1954/89/6 1956/89/6
f 1958/662/5 1957/661/5 1959/663/5
f 1958/662/5 1959/663/5 1960/664/5
f 1962/666/5 1961/665/5 1963/667/5
f 1962/666/5 1963/667/5 1964/668/5
f 1966/670/5 1965/669/5 1967/671/5
f 1966/670/5 1967/671/5 1968/672/5
f 1970/674/5 1969/673/5 1971/675/5
f 1970/674/5 1971/675/5 1972/676/5
f 1974/678/5 1973/677/5 1975/679/5
f 1974/678/5 1975/679/5 1976/680/5
f 1977/89/4 1978/89/4 1979/89/4
f 1979/89/4 1978/89/4 1980/89/4
f 1982/89/1 1981/89/1 1983/89/1
f 1982/89/1 1983/89/1 1984/89/1
f 1986/89/5 1985/89/5 1987/89/5
f 1986/89/5 1987/89/5 1988/89/5
f 1989/89/6 1990/89/6 1991/89/6
f 1991/89/6 1990/89/6 1992/89/6
f 1994/39/1 1993/39/1 1995/39/1
f 1994/39/1 1995/39/1 1996/39/1
f 1997/681/6 1998/682/6 1999/683/6
f 1999/683/6 1998/682/6 2000/684/6
f 2001/33/4 2002/33/4 2003/33/4
f 2003/33/4 2002/33/4 2004/33/4
f 2005/33/6 2006/33/6 2007/33/6
f 2007/33/6 2006/33/6 2008/33/6
f 2009/56/4 2010/56/4 2011/56/4
f 2011/56/4 2010/56/4 2012/56/4
f 2014/56/1 2013/56/1 2015/56/1
f 2014/56/1 2015/56/1 2016/56/1
f 2018/56/5 2017/56/5 2019/56/5
f 2018/56/5 2019/56/5 2020/56/5
f 2022/56/3 2021/56/3 2023/56/3
f 2022/56/3 2023/56/3 2024/56/3
f 2025/56/6 2026/56/6 2027/56/6
f 2027/56/6 2026/56/6 2028/56/6
f 2029/33/6 2030/33/6 2031/33/6
f 2031/33/6 2030/33/6 2032/33/6
f 2034/686/5 2033/685/5 2035/687/5
f 2034/686/5 2035/687/5 2036/688/5
f 2038/690/5 2037/689/5 2039/691/5
f 2038/690/5 2039/691/5 2040/692/5
f 2042/694/5 2041/693/5 2043/695/5
f 2042/694/5 2043/695/5 2044/696/5
f 2046/34/5 2045/34/5 2047/34/5
f 2046/34/5 2047/34/5 2048/34/5
f 2049/34/6 2050/34/6 2051/34/6
f 2051/34/6 2050/34/6 2052/34/6
f 2054/89/1 2053/89/1 2055/89/1
f 2054/89/1 2055/89/1 2056/89/1
f 2057/89/6 2058/89/6 2059/89/6
f 2059/89/6 2058/89/6 2060/89/6
f 2061/56/4 2062/56/4 2063/56/4
f 2063/56/4 2062/56/4 2064/56/4
f 2065/56/6 2066/56/6 2067/56/6
f 2067/56/6 2066/56/6 2068/56/6
f 2070/33/5 2069/33/5 2071/33/5
f 2070/33/5 2071/33/5 2072/33/5
f 2074/163/5 2073/163/5 2075/163/5
f 2074/163/5 2075/163/5 2076/163/5
f 2077/39/4 2078/39/4 2079/39/4
f 2079/39/4 2078/39/4 2080/39/4
f 2082/168/1 2081/168/1 2083/168/1
f 2082/168/1 2083/168/1 2084/168/1
f 2086/698/5 2085/697/5 2087/699/5
f 2086/698/5 2087/699/5 2088/700/5
f 2090/168/5 2089/168/5 2091/168/5
f 2090/168/5 2091/168/5 2092/168/5
f 2093/168/6 2094/168/6 2095/168/6
f 2095/168/6 2094/168/6 2096/168/6
f 2097/39/4 2098/39/4 2099/39/4
f 2099/39/4 2098/39/4 2100/39/4
f 2102/34/1 2101/34/1 2103/34/1
f 2102/34/1 2103/34/1 2104/34/1
f 2105/34/4 2106/34/4 2107/34/4
f 2107/34/4 2106/34/4 2108/34/4
f 2110/34/1 2109/34/1 2111/34/1
f 2110/34/1 2111/34/1 2112/34/1
f 2114/34/5 2113/34/5 2115/34/5
f 2114/34/5 2115/34/5 2116/34/5
f 2118/34/3 2117/34/3 2119/34/3
f 2118/34/3 2119/34/3 2120/34/3
f 2121/34/6 2122/34/6 2123/34/6
f 2123/34/6 2122/34/6 2124/34/6
f 2126/39/1 2125/39/1 2127/39/1
f 2126/39/1 2127/39/1 2128/39/1
f 2129/701/6 2130/702/6 2131/703/6
f 2131/703/6 2130/702/6 2132/704/6
f 2133/168/4 2134/168/4 2135/168/4
f 2135/168/4 2134/168/4 2136/168/4
f 2138/33/5 2137/33/5 2139/33/5
f 2138/33/5 2139/33/5 2140/33/5
f 2142/706/5 2141/705/5 2143/707/5
f 2142/706/5 2143/707/5 2144/708/5
f 2146/163/3 2145/163/3 2147/163/3
f 2146/163/3 2147/163/3 2148/163/3
f 2150/710/5 2149/709/5 2151/711/5
f 2150/710/5 2151/711/5 2152/712/5
f 2154/714/5 2153/713/5 2155/715/5
f 2154/714/5 2155/715/5 2156/716/5
f 2157/163/4 2158/163/4 2159/163/4
f 2159/163/4 2158/163/4 2160/163/4
f 2162/33/1 2161/33/1 2163/33/1
f 2162/33/1 2163/33/1 2164/33/1
f 2166/718/5 2165/717/5 2167/719/5
f 2166/718/5 2167/719/5 2168/720/5
f 2170/39/3 2169/39/3 2171/39/3
f 2170/39/3 2171/39/3 2172/39/3
f 2174/722/5 2173/721/5 2175/723/5
f 2174/722/5 2175/723/5 2176/724/5
f 2178/56/3 2177/56/3 2179/56/3
f 2178/56/3 2179/56/3 2180/56/3
f 2181/725/6 2182/726/6 2183/727/6
f 2183/727/6 2182/726/6 2184/728/6
