# Export of Cubik Model: Cubik Model
# Designed by MeLee with Cubik Studio - https://cubik.studio
# from Cubik OBJ Exporter v1.0
mtllib street_32_1c_M.mtl
v 0 0 1.907349E-06
v -16 0 1.907349E-06
v 0 2 1.907349E-06
v -16 2 1.907349E-06
v 0 0 1.907349E-06
v -16 0 1.907349E-06
v 0 0 -16
v -16 0 -16
v 0 0 1.907349E-06
v 0 2 1.907349E-06
v 0 0 -16
v 0 2 -16
v 0 0 -16
v -16 0 -16
v 0 2 -16
v -16 2 -16
v 0 2 1.907349E-06
v -1 2 1.907349E-06
v 0 2 -16
v -1 2 -16
v -1 1.5 -13.5
v -1 2 -13.5
v -1 1.5 -15
v -1 2 -15
v -1 1.5 -13.5
v -2 1.5 -13.5
v -1 1.5 -15
v -2 1.5 -15
v -1 2 1.907349E-06
v -1.5 2 1.907349E-06
v -1 2 -13.5
v -1.5 2 -13.5
v -1 1.5 -13.5
v -1.5 1.5 -13.5
v -1 2 -13.5
v -1.5 2 -13.5
v -1.5 1.5 -13
v -1.5 2 -13
v -1.5 1.5 -13.5
v -1.5 2 -13.5
v -1 1.5 -15
v -2.5 1.5 -15
v -1 2 -15
v -2.5 2 -15
v -1 2 -15
v -6.5 2 -15
v -1 2 -16
v -6.5 2 -16
v -2 1 -11
v -2 2 -11
v -2 1 -12
v -2 2 -12
v -1.5 1.5 -13
v -2.5 1.5 -13
v -1.5 1.5 -13.5
v -2.5 1.5 -13.5
v -2 1 -13.5
v -2 1.5 -13.5
v -2 1 -14
v -2 1.5 -14
v -1.5 2 1.907349E-06
v -2 2 1.907349E-06
v -1.5 2 -13
v -2 2 -13
v -2 1.5 -10.5
v -2 2 -10.5
v -2 1.5 -11
v -2 2 -11
v -2 1.5 -12
v -2 2 -12
v -2 1.5 -13
v -2 2 -13
v -1.5 1.5 -13
v -2 1.5 -13
v -1.5 2 -13
v -2 2 -13
v -2 1 -11
v -4 1 -11
v -2 1 -12
v -4 1 -12
v -2 1 -13.5
v -2.5 1 -13.5
v -2 1 -14
v -2.5 1 -14
v -2 1 -11
v -3 1 -11
v -2 1.5 -11
v -3 1.5 -11
v -2 1.5 -10.5
v -3 1.5 -10.5
v -2 1.5 -11
v -3 1.5 -11
v -2 1 -12
v -3 1 -12
v -2 1.5 -12
v -3 1.5 -12
v -2 1.5 -12
v -3 1.5 -12
v -2 1.5 -13
v -3 1.5 -13
v -2 1 -13.5
v -2.5 1 -13.5
v -2 1.5 -13.5
v -2.5 1.5 -13.5
v -2.5 1 -13
v -2.5 1.5 -13
v -2.5 1 -13.5
v -2.5 1.5 -13.5
v -2 1 -14
v -2.5 1 -14
v -2 1.5 -14
v -2.5 1.5 -14
v -2 1.5 -14
v -2.5 1.5 -14
v -2 1.5 -15
v -2.5 1.5 -15
v -2 2 1.907349E-06
v -2.5 2 1.907349E-06
v -2 2 -10.5
v -2.5 2 -10.5
v -2.5 1.5 -5.999998
v -2.5 2 -5.999998
v -2.5 1.5 -6.499998
v -2.5 2 -6.499998
v -2.5 1.5 -8.999998
v -2.5 2 -8.999998
v -2.5 1.5 -9.499998
v -2.5 2 -9.499998
v -2 1.5 -10.5
v -2.5 1.5 -10.5
v -2 2 -10.5
v -2.5 2 -10.5
v -2.5 1.5 -9.999998
v -2.5 2 -9.999998
v -2.5 1.5 -10.5
v -2.5 2 -10.5
v -2.5 1 -13
v -3.5 1 -13
v -2.5 1 -13.5
v -3.5 1 -13.5
v -2.5 1.5 -5.999998
v -3 1.5 -5.999998
v -2.5 1.5 -6.499998
v -3 1.5 -6.499998
v -3 1 -7.999998
v -3 2 -7.999998
v -3 1 -8.499998
v -3 2 -8.499998
v -2.5 1.5 -8.999998
v -4 1.5 -8.999998
v -2.5 1.5 -9.499998
v -4 1.5 -9.499998
v -2.5 1.5 -9.999998
v -4.5 1.5 -9.999998
v -2.5 1.5 -10.5
v -4.5 1.5 -10.5
v -3 1 -10.5
v -3 1.5 -10.5
v -3 1 -11
v -3 1.5 -11
v -3 1 -12
v -3 1.5 -12
v -3 1 -13
v -3 1.5 -13
v -2.5 1 -13
v -3 1 -13
v -2.5 1.5 -13
v -3 1.5 -13
v -2.5 1 -13.5
v -3.5 1 -13.5
v -2.5 1.5 -13.5
v -3.5 1.5 -13.5
v -2.5 1.5 -13.5
v -3 1.5 -13.5
v -2.5 1.5 -14.5
v -3 1.5 -14.5
v -2.5 1 -13.5
v -2.5 1.5 -13.5
v -2.5 1 -14
v -2.5 1.5 -14
v -2.5 2 1.907349E-06
v -16 2 1.907349E-06
v -2.5 2 -5.999998
v -16 2 -5.999998
v -2.5 1.5 -5.999998
v -3 1.5 -5.999998
v -2.5 2 -5.999998
v -3 2 -5.999998
v -2.5 1.5 -6.499998
v -3 1.5 -6.499998
v -2.5 2 -6.499998
v -3 2 -6.499998
v -2.5 2 -6.499998
v -3 2 -6.499998
v -2.5 2 -8.999998
v -3 2 -8.999998
v -3 1.5 -7.499998
v -3 2 -7.499998
v -3 1.5 -7.999998
v -3 2 -7.999998
v -2.5 1.5 -8.999998
v -3 1.5 -8.999998
v -2.5 2 -8.999998
v -3 2 -8.999998
v -3 1.5 -8.499998
v -3 2 -8.499998
v -3 1.5 -8.999998
v -3 2 -8.999998
v -2.5 1.5 -9.999998
v -3 1.5 -9.999998
v -2.5 2 -9.999998
v -3 2 -9.999998
v -2.5 1.5 -9.499998
v -3 1.5 -9.499998
v -2.5 2 -9.499998
v -3 2 -9.499998
v -2.5 2 -9.499998
v -3 2 -9.499998
v -2.5 2 -9.999998
v -3 2 -9.999998
v -3 1.5 -9.499998
v -3 2 -9.499998
v -3 1.5 -9.999998
v -3 2 -9.999998
v -2.5 1.5 -14.5
v -3 1.5 -14.5
v -2.5 2 -14.5
v -3 2 -14.5
v -2.5 2 -14.5
v -6 2 -14.5
v -2.5 2 -15
v -6 2 -15
v -2.5 1.5 -14.5
v -2.5 2 -14.5
v -2.5 1.5 -15
v -2.5 2 -15
v -3 1 -7.999998
v -3.5 1 -7.999998
v -3 1 -8.499998
v -3.5 1 -8.499998
v -3 1 -10.5
v -4 1 -10.5
v -3 1 -11
v -4 1 -11
v -3 1 -12
v -4 1 -12
v -3 1 -13
v -4 1 -13
v -3 1 -7.999998
v -3.5 1 -7.999998
v -3 1.5 -7.999998
v -3.5 1.5 -7.999998
v -3 1.5 -7.499998
v -3.5 1.5 -7.499998
v -3 1.5 -7.999998
v -3.5 1.5 -7.999998
v -3 1 -8.499998
v -3.5 1 -8.499998
v -3 1.5 -8.499998
v -3.5 1.5 -8.499998
v -3 1.5 -8.499998
v -4 1.5 -8.499998
v -3 1.5 -8.999998
v -4 1.5 -8.999998
v -3 1.5 -9.499998
v -3.5 1.5 -9.499998
v -3 1.5 -9.999998
v -3.5 1.5 -9.999998
v -3.5 1 -9.499998
v -3.5 1.5 -9.499998
v -3.5 1 -9.999998
v -3.5 1.5 -9.999998
v -3 1 -10.5
v -4 1 -10.5
v -3 1.5 -10.5
v -4 1.5 -10.5
v -3 1.5 -13.5
v -3.5 1.5 -13.5
v -3 1.5 -14
v -3.5 1.5 -14
v -3 2 -5.999998
v -16 2 -5.999998
v -3 2 -7.499998
v -16 2 -7.499998
v -3 1.5 -5.999998
v -3 2 -5.999998
v -3 1.5 -6.499998
v -3 2 -6.499998
v -3 1.5 -7.499998
v -3.5 1.5 -7.499998
v -3 2 -7.499998
v -3.5 2 -7.499998
v -3 1.5 -14
v -3.5 1.5 -14
v -3 2 -14
v -3.5 2 -14
v -3 2 -14
v -5.5 2 -14
v -3 2 -14.5
v -5.5 2 -14.5
v -3 1.5 -14
v -3 2 -14
v -3 1.5 -14.5
v -3 2 -14.5
v -3.5 1 -9.499998
v -4 1 -9.499998
v -3.5 1 -9.999998
v -4 1 -9.999998
v -3.5 1 -7.999998
v -3.5 2 -7.999998
v -3.5 1 -8.499998
v -3.5 2 -8.499998
v -3.5 1 -9.499998
v -4 1 -9.499998
v -3.5 1.5 -9.499998
v -4 1.5 -9.499998
v -3.5 1 -9.999998
v -4 1 -9.999998
v -3.5 1.5 -9.999998
v -4 1.5 -9.999998
v -3.5 1 -13
v -4.5 1 -13
v -3.5 1.5 -13
v -4.5 1.5 -13
v -3.5 1.5 -13
v -4.5 1.5 -13
v -3.5 1.5 -13.5
v -4.5 1.5 -13.5
v -3.5 1 -13
v -3.5 1.5 -13
v -3.5 1 -13.5
v -3.5 1.5 -13.5
v -3.5 2 -7.499998
v -7.5 2 -7.499998
v -3.5 2 -8.499998
v -7.5 2 -8.499998
v -3.5 1.5 -7.499998
v -3.5 2 -7.499998
v -3.5 1.5 -7.999998
v -3.5 2 -7.999998
v -3.5 1.5 -8.499998
v -4 1.5 -8.499998
v -3.5 2 -8.499998
v -4 2 -8.499998
v -3.5 1.5 -13.5
v -4.5 1.5 -13.5
v -3.5 2 -13.5
v -4.5 2 -13.5
v -3.5 2 -13.5
v -4.5 2 -13.5
v -3.5 2 -14
v -4.5 2 -14
v -3.5 1.5 -13.5
v -3.5 2 -13.5
v -3.5 1.5 -14
v -3.5 2 -14
v -4 1 -12.5
v -4.5 1 -12.5
v -4 1 -13
v -4.5 1 -13
v -4 1 -9.499998
v -4 2 -9.499998
v -4 1 -9.999998
v -4 2 -9.999998
v -4 1.5 -10.5
v -5 1.5 -10.5
v -4 1.5 -12.5
v -5 1.5 -12.5
v -4 1 -10.5
v -4 1.5 -10.5
v -4 1 -12.5
v -4 1.5 -12.5
v -4 1 -12.5
v -4.5 1 -12.5
v -4 1.5 -12.5
v -4.5 1.5 -12.5
v -4.5 1 -13
v -4.5 1.5 -13
v -4.5 1 -13.5
v -4.5 1.5 -13.5
v -4 2 -8.499998
v -5 2 -8.499998
v -4 2 -9.999998
v -5 2 -9.999998
v -4 1.5 -8.499998
v -4 2 -8.499998
v -4 1.5 -9.499998
v -4 2 -9.499998
v -4 1.5 -9.999998
v -4.5 1.5 -9.999998
v -4 2 -9.999998
v -4.5 2 -9.999998
v -4.5 1.5 -13.5
v -4.5 2 -13.5
v -4.5 1.5 -14
v -4.5 2 -14
v -4.5 1 -13
v -5 1 -13
v -4.5 1 -13.5
v -5 1 -13.5
v -5 1 -11.5
v -5 1.5 -11.5
v -5 1 -12
v -5 1.5 -12
v -4.5 1 -13
v -5 1 -13
v -4.5 1.5 -13
v -5 1.5 -13
v -4.5 1.5 -12.5
v -5 1.5 -12.5
v -4.5 1.5 -13
v -5 1.5 -13
v -4.5 1 -12.5
v -4.5 1.5 -12.5
v -4.5 1 -13
v -4.5 1.5 -13
v -4.5 1 -13.5
v -5 1 -13.5
v -4.5 1.5 -13.5
v -5 1.5 -13.5
v -4.5 1.5 -13.5
v -6.5 1.5 -13.5
v -4.5 1.5 -14
v -6.5 1.5 -14
v -5 1.5 -9.499998
v -5 2 -9.499998
v -5 1.5 -10.5
v -5 2 -10.5
v -4.5 1.5 -10.5
v -5 1.5 -10.5
v -4.5 2 -10.5
v -5 2 -10.5
v -4.5 2 -9.999998
v -5 2 -9.999998
v -4.5 2 -10.5
v -5 2 -10.5
v -4.5 1.5 -9.999998
v -4.5 2 -9.999998
v -4.5 1.5 -10.5
v -4.5 2 -10.5
v -4.5 1.5 -14
v -5.5 1.5 -14
v -4.5 2 -14
v -5.5 2 -14
v -5 1 -11.5
v -5.5 1 -11.5
v -5 1 -12
v -5.5 1 -12
v -5 1.5 -9.499998
v -6 1.5 -9.499998
v -5 1.5 -11.5
v -6 1.5 -11.5
v -5 1 -11.5
v -5.5 1 -11.5
v -5 1.5 -11.5
v -5.5 1.5 -11.5
v -5 1 -12
v -5.5 1 -12
v -5 1.5 -12
v -5.5 1.5 -12
v -5 1.5 -12
v -5.5 1.5 -12
v -5 1.5 -12.5
v -5.5 1.5 -12.5
v -5.5 1 -12
v -5.5 1.5 -12
v -5.5 1 -12.5
v -5.5 1.5 -12.5
v -5 1.5 -13
v -5.5 1.5 -13
v -5 1.5 -13.5
v -5.5 1.5 -13.5
v -5 1 -13
v -5 1.5 -13
v -5 1 -13.5
v -5 1.5 -13.5
v -5 2 -8.499998
v -6 2 -8.499998
v -5 2 -9.499998
v -6 2 -9.499998
v -5 1.5 -9.499998
v -6 1.5 -9.499998
v -5 2 -9.499998
v -6 2 -9.499998
v -5 1.5 -13
v -5.5 1.5 -13
v -5 2 -13
v -5.5 2 -13
v -5 1.5 -12.5
v -5.5 1.5 -12.5
v -5 2 -12.5
v -5.5 2 -12.5
v -5 2 -12.5
v -5.5 2 -12.5
v -5 2 -13
v -5.5 2 -13
v -5 1.5 -12.5
v -5 2 -12.5
v -5 1.5 -13
v -5 2 -13
v -5.5 1.5 -12.5
v -5.5 2 -12.5
v -5.5 1.5 -13
v -5.5 2 -13
v -5.5 1.5 -14
v -5.5 2 -14
v -5.5 1.5 -14.5
v -5.5 2 -14.5
v -5.5 1 -12
v -6.5 1 -12
v -5.5 1 -12.5
v -6.5 1 -12.5
v -5.5 1 -12
v -6.5 1 -12
v -5.5 1.5 -12
v -6.5 1.5 -12
v -5.5 1.5 -11.5
v -7 1.5 -11.5
v -5.5 1.5 -12
v -7 1.5 -12
v -5.5 1 -11.5
v -5.5 1.5 -11.5
v -5.5 1 -12
v -5.5 1.5 -12
v -5.5 1 -12.5
v -6.5 1 -12.5
v -5.5 1.5 -12.5
v -6.5 1.5 -12.5
v -5.5 1.5 -12.5
v -7.5 1.5 -12.5
v -5.5 1.5 -13
v -7.5 1.5 -13
v -5.5 1.5 -14
v -6 1.5 -14
v -5.5 1.5 -14.5
v -6 1.5 -14.5
v -6 1.5 -8.999998
v -6 2 -8.999998
v -6 1.5 -9.499998
v -6 2 -9.499998
v -5.5 1.5 -13.5
v -6 1.5 -13.5
v -5.5 2 -13.5
v -6 2 -13.5
v -5.5 1.5 -13
v -6 1.5 -13
v -5.5 2 -13
v -6 2 -13
v -5.5 2 -13
v -6 2 -13
v -5.5 2 -13.5
v -6 2 -13.5
v -5.5 1.5 -13
v -5.5 2 -13
v -5.5 1.5 -13.5
v -5.5 2 -13.5
v -6 1.5 -13
v -6 2 -13
v -6 1.5 -13.5
v -6 2 -13.5
v -5.5 1.5 -14.5
v -6 1.5 -14.5
v -5.5 2 -14.5
v -6 2 -14.5
v -6 1.5 -14.5
v -6 2 -14.5
v -6 1.5 -15
v -6 2 -15
v -6 1.5 -8.999998
v -7 1.5 -8.999998
v -6 1.5 -9.499998
v -7 1.5 -9.499998
v -6 1.5 -9.999998
v -6.5 1.5 -9.999998
v -6 1.5 -11
v -6.5 1.5 -11
v -6 1.5 -13
v -8 1.5 -13
v -6 1.5 -13.5
v -8 1.5 -13.5
v -6 1.5 -14.5
v -6.5 1.5 -14.5
v -6 1.5 -15
v -6.5 1.5 -15
v -6 1.5 -8.999998
v -7 1.5 -8.999998
v -6 2 -8.999998
v -7 2 -8.999998
v -6 2 -8.499998
v -7 2 -8.499998
v -6 2 -8.999998
v -7 2 -8.999998
v -6 1.5 -9.999998
v -6.5 1.5 -9.999998
v -6 2 -9.999998
v -6.5 2 -9.999998
v -6 1.5 -9.499998
v -6.5 1.5 -9.499998
v -6 2 -9.499998
v -6.5 2 -9.499998
v -6 2 -9.499998
v -6.5 2 -9.499998
v -6 2 -9.999998
v -6.5 2 -9.999998
v -6 1.5 -9.499998
v -6 2 -9.499998
v -6 1.5 -9.999998
v -6 2 -9.999998
v -6.5 1.5 -9.499998
v -6.5 2 -9.499998
v -6.5 1.5 -9.999998
v -6.5 2 -9.999998
v -6 1.5 -11.5
v -7 1.5 -11.5
v -6 2 -11.5
v -7 2 -11.5
v -6 1.5 -11
v -6.5 1.5 -11
v -6 2 -11
v -6.5 2 -11
v -6 2 -11
v -16 2 -11
v -6 2 -11.5
v -16 2 -11.5
v -6 1.5 -11
v -6 2 -11
v -6 1.5 -11.5
v -6 2 -11.5
v -6 1.5 -14.5
v -6.5 1.5 -14.5
v -6 2 -14.5
v -6.5 2 -14.5
v -6 1.5 -14
v -6.5 1.5 -14
v -6 2 -14
v -6.5 2 -14
v -6 2 -14
v -6.5 2 -14
v -6 2 -14.5
v -6.5 2 -14.5
v -6 1.5 -14
v -6 2 -14
v -6 1.5 -14.5
v -6 2 -14.5
v -6.5 1.5 -14
v -6.5 2 -14
v -6.5 1.5 -14.5
v -6.5 2 -14.5
v -6 1.5 -15
v -6.5 1.5 -15
v -6 2 -15
v -6.5 2 -15
v -6.5 1.5 -15
v -6.5 2 -15
v -6.5 1.5 -15.5
v -6.5 2 -15.5
v -7 1 -8.499998
v -7 1.5 -8.499998
v -7 1 -9.499998
v -7 1.5 -9.499998
v -6.5 1.5 -9.499998
v -7 1.5 -9.499998
v -6.5 1.5 -9.999998
v -7 1.5 -9.999998
v -6.5 1.5 -12
v -7 1.5 -12
v -6.5 1.5 -12.5
v -7 1.5 -12.5
v -6.5 1 -12
v -6.5 1.5 -12
v -6.5 1 -12.5
v -6.5 1.5 -12.5
v -6.5 1.5 -14
v -7 1.5 -14
v -6.5 1.5 -14.5
v -7 1.5 -14.5
v -6.5 1.5 -15
v -7 1.5 -15
v -6.5 1.5 -15.5
v -7 1.5 -15.5
v -7 1.5 -8.499998
v -7 2 -8.499998
v -7 1.5 -8.999998
v -7 2 -8.999998
v -6.5 1.5 -9.999998
v -7 1.5 -9.999998
v -6.5 2 -9.999998
v -7 2 -9.999998
v -6.5 2 -9.999998
v -16 2 -9.999998
v -6.5 2 -11
v -16 2 -11
v -6.5 1.5 -9.999998
v -6.5 2 -9.999998
v -6.5 1.5 -11
v -6.5 2 -11
v -6.5 1.5 -14
v -7 1.5 -14
v -6.5 2 -14
v -7 2 -14
v -6.5 1.5 -13.5
v -7 1.5 -13.5
v -6.5 2 -13.5
v -7 2 -13.5
v -6.5 2 -13.5
v -7 2 -13.5
v -6.5 2 -14
v -7 2 -14
v -6.5 1.5 -13.5
v -6.5 2 -13.5
v -6.5 1.5 -14
v -6.5 2 -14
v -7 1.5 -13.5
v -7 2 -13.5
v -7 1.5 -14
v -7 2 -14
v -6.5 1.5 -15
v -7 1.5 -15
v -6.5 2 -15
v -7 2 -15
v -6.5 1.5 -14.5
v -7 1.5 -14.5
v -6.5 2 -14.5
v -7 2 -14.5
v -6.5 2 -14.5
v -7.5 2 -14.5
v -6.5 2 -15
v -7.5 2 -15
v -6.5 1.5 -14.5
v -6.5 2 -14.5
v -6.5 1.5 -15
v -6.5 2 -15
v -6.5 1.5 -15.5
v -7 1.5 -15.5
v -6.5 2 -15.5
v -7 2 -15.5
v -6.5 2 -15.5
v -16 2 -15.5
v -6.5 2 -16
v -16 2 -16
v -7 1 -8.499998
v -7.5 1 -8.499998
v -7 1 -9.499998
v -7.5 1 -9.499998
v -7 1 -8.499998
v -7.5 1 -8.499998
v -7 2 -8.499998
v -7.5 2 -8.499998
v -7 1 -9.499998
v -7.5 1 -9.499998
v -7 2 -9.499998
v -7.5 2 -9.499998
v -7 1.5 -13.5
v -9 1.5 -13.5
v -7 1.5 -14
v -9 1.5 -14
v -7.5 1.5 -7.999998
v -7.5 2 -7.999998
v -7.5 1.5 -8.499998
v -7.5 2 -8.499998
v -7 2 -9.499998
v -16 2 -9.499998
v -7 2 -9.999998
v -16 2 -9.999998
v -7 1.5 -9.499998
v -7 2 -9.499998
v -7 1.5 -9.999998
v -7 2 -9.999998
v -7 2 -11.5
v -16 2 -11.5
v -7 2 -12.5
v -16 2 -12.5
v -7 1.5 -11.5
v -7 2 -11.5
v -7 1.5 -12.5
v -7 2 -12.5
v -7 1.5 -12.5
v -7.5 1.5 -12.5
v -7 2 -12.5
v -7.5 2 -12.5
v -7 1.5 -14
v -9 1.5 -14
v -7 2 -14
v -9 2 -14
v -7 2 -14
v -16 2 -14
v -7 2 -14.5
v -16 2 -14.5
v -7 1.5 -14
v -7 2 -14
v -7 1.5 -14.5
v -7 2 -14.5
v -7.5 1.5 -14.5
v -7.5 2 -14.5
v -7.5 1.5 -15
v -7.5 2 -15
v -7 2 -15
v -16 2 -15
v -7 2 -15.5
v -16 2 -15.5
v -7 1.5 -15
v -7 2 -15
v -7 1.5 -15.5
v -7 2 -15.5
v -7.5 1 -8.499998
v -8 1 -8.499998
v -7.5 1 -8.999998
v -8 1 -8.999998
v -7.5 1 -8.499998
v -8 1 -8.499998
v -7.5 1.5 -8.499998
v -8 1.5 -8.499998
v -7.5 1.5 -7.999998
v -8.5 1.5 -7.999998
v -7.5 1.5 -8.499998
v -8.5 1.5 -8.499998
v -7.5 1 -8.999998
v -8 1 -8.999998
v -7.5 1.5 -8.999998
v -8 1.5 -8.999998
v -7.5 1 -8.999998
v -7.5 2 -8.999998
v -7.5 1 -9.499998
v -7.5 2 -9.499998
v -7.5 1.5 -14.5
v -8 1.5 -14.5
v -7.5 1.5 -15
v -8 1.5 -15
v -7.5 1.5 -7.999998
v -8.5 1.5 -7.999998
v -7.5 2 -7.999998
v -8.5 2 -7.999998
v -7.5 2 -7.499998
v -8.5 2 -7.499998
v -7.5 2 -7.999998
v -8.5 2 -7.999998
v -7.5 1.5 -8.499998
v -8.5 1.5 -8.499998
v -7.5 2 -8.499998
v -8.5 2 -8.499998
v -7.5 1.5 -8.499998
v -8 1.5 -8.499998
v -7.5 1.5 -8.999998
v -8 1.5 -8.999998
v -7.5 2 -8.499998
v -16 2 -8.499998
v -7.5 2 -9.499998
v -16 2 -9.499998
v -7.5 1.5 -8.499998
v -7.5 2 -8.499998
v -7.5 1.5 -8.999998
v -7.5 2 -8.999998
v -7.5 1.5 -13
v -8 1.5 -13
v -7.5 2 -13
v -8 2 -13
v -7.5 2 -12.5
v -16 2 -12.5
v -7.5 2 -13
v -16 2 -13
v -7.5 1.5 -12.5
v -7.5 2 -12.5
v -7.5 1.5 -13
v -7.5 2 -13
v -7.5 1.5 -14.5
v -8 1.5 -14.5
v -7.5 2 -14.5
v -8 2 -14.5
v -7.5 1.5 -15
v -8 1.5 -15
v -7.5 2 -15
v -8 2 -15
v -8 1 -8.499998
v -8 1.5 -8.499998
v -8 1 -8.999998
v -8 1.5 -8.999998
v -8.5 1.5 -7.499998
v -8.5 2 -7.499998
v -8.5 1.5 -7.999998
v -8.5 2 -7.999998
v -8 1.5 -13.5
v -9 1.5 -13.5
v -8 2 -13.5
v -9 2 -13.5
v -8 2 -13
v -16 2 -13
v -8 2 -13.5
v -16 2 -13.5
v -8 1.5 -13
v -8 2 -13
v -8 1.5 -13.5
v -8 2 -13.5
v -8 2 -14.5
v -16 2 -14.5
v -8 2 -15
v -16 2 -15
v -8 1.5 -14.5
v -8 2 -14.5
v -8 1.5 -15
v -8 2 -15
v -8.5 1.5 -7.499998
v -9 1.5 -7.499998
v -8.5 1.5 -7.999998
v -9 1.5 -7.999998
v -8.5 1.5 -7.499998
v -9 1.5 -7.499998
v -8.5 2 -7.499998
v -9 2 -7.499998
v -8.5 1.5 -7.999998
v -9 1.5 -7.999998
v -8.5 2 -7.999998
v -9 2 -7.999998
v -8.5 2 -7.999998
v -16 2 -7.999998
v -8.5 2 -8.499998
v -16 2 -8.499998
v -8.5 1.5 -7.999998
v -8.5 2 -7.999998
v -8.5 1.5 -8.499998
v -8.5 2 -8.499998
v -9 2 -7.499998
v -16 2 -7.499998
v -9 2 -7.999998
v -16 2 -7.999998
v -9 1.5 -7.499998
v -9 2 -7.499998
v -9 1.5 -7.999998
v -9 2 -7.999998
v -9 2 -13.5
v -16 2 -13.5
v -9 2 -14
v -16 2 -14
v -9 1.5 -13.5
v -9 2 -13.5
v -9 1.5 -14
v -9 2 -14
v -16 0 1.907349E-06
v -16 2 1.907349E-06
v -16 0 -16
v -16 2 -16
vn 0 -5.960464E-08 0.9999999
vn 0 -0.9999999 -5.960464E-08
vn 1 0 0
vn 0 5.960464E-08 -0.9999999
vn 0 0.9999999 5.960464E-08
vn -1 0 0
vt 0.0078125 0.828125
vt 0.2578125 0.828125
vt 0.0078125 0.890625
vt 0.2578125 0.890625
vt 0.0078125 0.015625
vt 0.2578125 0.015625
vt 0.0078125 0.515625
vt 0.2578125 0.515625
vt 0.2890625 0.015625
vt 0.3203125 0.015625
vt 0.2890625 0.515625
vt 0.3203125 0.515625
vt 0.3515625 0.015625
vt 0.6015625 0.015625
vt 0.3515625 0.078125
vt 0.6015625 0.078125
vt 0.4140625 0.140625
vt 0.4296875 0.140625
vt 0.4140625 0.640625
vt 0.4296875 0.640625
vt 0.25 0.71875
vt 0.2578125 0.71875
vt 0.25 0.765625
vt 0.2578125 0.765625
vt 0.0390625 0.953125
vt 0.4609375 0.140625
vt 0.46875 0.140625
vt 0.4609375 0.5625
vt 0.46875 0.5625
vt 0.0078125 0.953125
vt 0.8671875 0.015625
vt 0.953125 0.015625
vt 0.8671875 0.046875
vt 0.953125 0.046875
vt 0.4140625 0.828125
vt 0.4296875 0.828125
vt 0.4140625 0.859375
vt 0.4296875 0.859375
vt 0.5 0.234375
vt 0.5078125 0.234375
vt 0.5 0.640625
vt 0.5078125 0.640625
vt 0.1328125 0.953125
vt 0.5 0.890625
vt 0.5078125 0.890625
vt 0.5 0.921875
vt 0.5078125 0.921875
vt 0.1015625 0.953125
vt 0.7578125 0.71875
vt 0.7734375 0.71875
vt 0.7578125 0.734375
vt 0.7734375 0.734375
vt 0.7578125 0.640625
vt 0.7734375 0.640625
vt 0.7578125 0.65625
vt 0.7734375 0.65625
vt 0.7109375 0.484375
vt 0.7265625 0.484375
vt 0.7109375 0.515625
vt 0.7265625 0.515625
vt 0.2890625 0.578125
vt 0.296875 0.578125
vt 0.2890625 0.90625
vt 0.296875 0.90625
vt 0.0703125 0.953125
vt 0.9765625 0.328125
vt 0.1953125 0.953125
vt 0.3515625 0.9375
vt 0.3828125 0.9375
vt 0.3515625 0.953125
vt 0.3828125 0.953125
vt 0.7578125 0.796875
vt 0.765625 0.796875
vt 0.7578125 0.828125
vt 0.765625 0.828125
vt 0.7578125 0.890625
vt 0.765625 0.890625
vt 0.7578125 0.921875
vt 0.765625 0.921875
vt 0.0078125 0.578125
vt 0.21875 0.578125
vt 0.0078125 0.765625
vt 0.21875 0.765625
vt 0.25 0.578125
vt 0.2578125 0.578125
vt 0.25 0.65625
vt 0.2578125 0.65625
vt 0.2578125 0.953125
vt 0.890625 0.328125
vt 0.9453125 0.328125
vt 0.890625 0.34375
vt 0.9453125 0.34375
vt 0.84375 0.40625
vt 0.859375 0.40625
vt 0.84375 0.421875
vt 0.859375 0.421875
vt 0.6328125 0.015625
vt 0.8359375 0.015625
vt 0.6328125 0.0625
vt 0.8359375 0.0625
vt 0.7109375 0.40625
vt 0.75 0.40625
vt 0.7109375 0.421875
vt 0.75 0.421875
vt 0.890625 0.40625
vt 0.90625 0.40625
vt 0.890625 0.421875
vt 0.90625 0.421875
vt 0.890625 0.234375
vt 0.953125 0.234375
vt 0.890625 0.265625
vt 0.953125 0.265625
vt 0.7578125 0.484375
vt 0.7734375 0.484375
vt 0.7578125 0.5
vt 0.7734375 0.5
vt 0.7109375 0.890625
vt 0.7265625 0.890625
vt 0.7109375 0.90625
vt 0.7265625 0.90625
vt 0.3515625 0.703125
vt 0.3671875 0.703125
vt 0.3515625 0.765625
vt 0.3671875 0.765625
vt 0.4140625 0.703125
vt 0.421875 0.703125
vt 0.4140625 0.765625
vt 0.421875 0.765625
vt 0.3515625 0.828125
vt 0.3671875 0.828125
vt 0.3515625 0.875
vt 0.3671875 0.875
vt 0.4609375 0.625
vt 0.46875 0.625
vt 0.4609375 0.65625
vt 0.46875 0.65625
vt 0.78125 0.40625
vt 0.8125 0.40625
vt 0.78125 0.421875
vt 0.8125 0.421875
vt 0.4609375 0.71875
vt 0.46875 0.71875
vt 0.4609375 0.75
vt 0.46875 0.75
vt 0.4140625 0.921875
vt 0.4296875 0.921875
vt 0.4140625 0.953125
vt 0.4296875 0.953125
vt 0.9375 0.40625
vt 0.953125 0.40625
vt 0.9375 0.421875
vt 0.953125 0.421875
vt 0.7109375 0.578125
vt 0.7265625 0.578125
vt 0.7109375 0.59375
vt 0.7265625 0.59375
vt 0.7109375 0.65625
vt 0.7265625 0.65625
vt 0.7109375 0.671875
vt 0.7265625 0.671875
vt 0.7109375 0.734375
vt 0.7265625 0.734375
vt 0.7109375 0.75
vt 0.7265625 0.75
vt 0.703125 0.234375
vt 0.859375 0.234375
vt 0.703125 0.25
vt 0.859375 0.25
vt 0.2265625 0.953125
vt 0.4609375 0.8125
vt 0.46875 0.8125
vt 0.4609375 0.84375
vt 0.46875 0.84375
vt 0.5 0.140625
vt 0.6484375 0.140625
vt 0.5 0.171875
vt 0.6484375 0.171875
vt 0.4609375 0.90625
vt 0.46875 0.90625
vt 0.4609375 0.9375
vt 0.46875 0.9375
vt 0.7109375 0.8125
vt 0.7265625 0.8125
vt 0.7109375 0.828125
vt 0.7265625 0.828125
vt 0.5390625 0.328125
vt 0.6875 0.328125
vt 0.5390625 0.34375
vt 0.6875 0.34375
vt 0.5 0.703125
vt 0.5078125 0.703125
vt 0.5 0.734375
vt 0.5078125 0.734375
vt 0.5 0.796875
vt 0.5078125 0.796875
vt 0.5 0.828125
vt 0.5078125 0.828125
vt 0.71875 0.328125
vt 0.859375 0.328125
vt 0.71875 0.34375
vt 0.859375 0.34375
vt 0.6796875 0.140625
vt 0.8203125 0.140625
vt 0.6796875 0.171875
vt 0.8203125 0.171875
vt 0.5390625 0.484375
vt 0.6796875 0.484375
vt 0.5390625 0.5
vt 0.6796875 0.5
vt 0.5390625 0.40625
vt 0.6796875 0.40625
vt 0.5390625 0.421875
vt 0.6796875 0.421875
vt 0.7578125 0.5625
vt 0.7734375 0.5625
vt 0.7578125 0.578125
vt 0.7734375 0.578125
vt 0.8046875 0.484375
vt 0.8203125 0.484375
vt 0.8046875 0.5
vt 0.8203125 0.5
vt 0.8515625 0.484375
vt 0.8671875 0.484375
vt 0.8515625 0.5
vt 0.8671875 0.5
vt 0.8984375 0.484375
vt 0.9140625 0.484375
vt 0.8984375 0.5
vt 0.9140625 0.5
vt 0.9453125 0.484375
vt 0.9609375 0.484375
vt 0.9453125 0.5
vt 0.9609375 0.5
vt 0.5390625 0.234375
vt 0.671875 0.234375
vt 0.5390625 0.265625
vt 0.671875 0.265625
vt 0.5390625 0.5625
vt 0.671875 0.5625
vt 0.5390625 0.578125
vt 0.671875 0.578125
vt 0.8046875 0.5625
vt 0.8203125 0.5625
vt 0.8046875 0.578125
vt 0.8203125 0.578125
vt 0.8515625 0.140625
vt 0.9765625 0.140625
vt 0.8515625 0.15625
vt 0.9765625 0.15625
vt 0.5390625 0.640625
vt 0.6640625 0.640625
vt 0.5390625 0.65625
vt 0.6640625 0.65625
vt 0.1640625 0.953125
vt 0.5390625 0.71875
vt 0.65625 0.71875
vt 0.5390625 0.734375
vt 0.65625 0.734375
vt 0.5390625 0.796875
vt 0.6484375 0.796875
vt 0.5390625 0.8125
vt 0.6484375 0.8125
vt 0.5390625 0.875
vt 0.6484375 0.875
vt 0.5390625 0.890625
vt 0.6484375 0.890625
vt 0.3515625 0.140625
vt 0.3828125 0.140625
vt 0.3515625 0.640625
vt 0.3828125 0.640625
usemtl voxel
f 2/2/1 1/1/1 3/3/1
f 2/2/1 3/3/1 4/4/1
f 5/5/2 6/6/2 7/7/2
f 7/7/2 6/6/2 8/8/2
f 10/10/3 9/9/3 11/11/3
f 10/10/3 11/11/3 12/12/3
f 13/13/4 14/14/4 15/15/4
f 15/15/4 14/14/4 16/16/4
f 18/18/5 17/17/5 19/19/5
f 18/18/5 19/19/5 20/20/5
f 21/21/6 22/22/6 23/23/6
f 23/23/6 22/22/6 24/24/6
f 26/25/5 25/25/5 27/25/5
f 26/25/5 27/25/5 28/25/5
f 30/27/5 29/26/5 31/28/5
f 30/27/5 31/28/5 32/29/5
f 33/30/4 34/30/4 35/30/4
f 35/30/4 34/30/4 36/30/4
f 37/30/6 38/30/6 39/30/6
f 39/30/6 38/30/6 40/30/6
f 42/25/1 41/25/1 43/25/1
f 42/25/1 43/25/1 44/25/1
f 46/32/5 45/31/5 47/33/5
f 46/32/5 47/33/5 48/34/5
f 49/35/6 50/36/6 51/37/6
f 51/37/6 50/36/6 52/38/6
f 54/25/5 53/25/5 55/25/5
f 54/25/5 55/25/5 56/25/5
f 57/25/6 58/25/6 59/25/6
f 59/25/6 58/25/6 60/25/6
f 62/40/5 61/39/5 63/41/5
f 62/40/5 63/41/5 64/42/5
f 65/43/6 66/43/6 67/43/6
f 67/43/6 66/43/6 68/43/6
f 69/44/6 70/45/6 71/46/6
f 71/46/6 70/45/6 72/47/6
f 73/43/4 74/43/4 75/43/4
f 75/43/4 74/43/4 76/43/4
f 78/48/5 77/48/5 79/48/5
f 78/48/5 79/48/5 80/48/5
f 82/48/5 81/48/5 83/48/5
f 82/48/5 83/48/5 84/48/5
f 85/49/4 86/50/4 87/51/4
f 87/51/4 86/50/4 88/52/4
f 90/54/5 89/53/5 91/55/5
f 90/54/5 91/55/5 92/56/5
f 94/25/1 93/25/1 95/25/1
f 94/25/1 95/25/1 96/25/1
f 98/58/5 97/57/5 99/59/5
f 98/58/5 99/59/5 100/60/5
f 101/25/4 102/25/4 103/25/4
f 103/25/4 102/25/4 104/25/4
f 105/25/6 106/25/6 107/25/6
f 107/25/6 106/25/6 108/25/6
f 110/25/1 109/25/1 111/25/1
f 110/25/1 111/25/1 112/25/1
f 114/25/5 113/25/5 115/25/5
f 114/25/5 115/25/5 116/25/5
f 118/62/5 117/61/5 119/63/5
f 118/62/5 119/63/5 120/64/5
f 121/65/6 122/65/6 123/65/6
f 123/65/6 122/65/6 124/65/6
f 125/66/6 126/66/6 127/66/6
f 127/66/6 126/66/6 128/66/6
f 129/66/4 130/66/4 131/66/4
f 131/66/4 130/66/4 132/66/4
f 133/66/6 134/66/6 135/66/6
f 135/66/6 134/66/6 136/66/6
f 138/48/5 137/48/5 139/48/5
f 138/48/5 139/48/5 140/48/5
f 142/67/5 141/67/5 143/67/5
f 142/67/5 143/67/5 144/67/5
f 145/67/6 146/67/6 147/67/6
f 147/67/6 146/67/6 148/67/6
f 150/25/5 149/25/5 151/25/5
f 150/25/5 151/25/5 152/25/5
f 154/69/5 153/68/5 155/70/5
f 154/69/5 155/70/5 156/71/5
f 157/48/6 158/48/6 159/48/6
f 159/48/6 158/48/6 160/48/6
f 161/72/6 162/73/6 163/74/6
f 163/74/6 162/73/6 164/75/6
f 165/48/4 166/48/4 167/48/4
f 167/48/4 166/48/4 168/48/4
f 170/48/1 169/48/1 171/48/1
f 170/48/1 171/48/1 172/48/1
f 174/77/5 173/76/5 175/78/5
f 174/77/5 175/78/5 176/79/5
f 178/48/3 177/48/3 179/48/3
f 178/48/3 179/48/3 180/48/3
f 182/81/5 181/80/5 183/82/5
f 182/81/5 183/82/5 184/83/5
f 185/25/4 186/25/4 187/25/4
f 187/25/4 186/25/4 188/25/4
f 190/66/1 189/66/1 191/66/1
f 190/66/1 191/66/1 192/66/1
f 194/85/5 193/84/5 195/86/5
f 194/85/5 195/86/5 196/87/5
f 197/88/6 198/88/6 199/88/6
f 199/88/6 198/88/6 200/88/6
f 201/25/4 202/25/4 203/25/4
f 203/25/4 202/25/4 204/25/4
f 205/25/6 206/25/6 207/25/6
f 207/25/6 206/25/6 208/25/6
f 209/67/4 210/67/4 211/67/4
f 211/67/4 210/67/4 212/67/4
f 214/67/1 213/67/1 215/67/1
f 214/67/1 215/67/1 216/67/1
f 218/67/5 217/67/5 219/67/5
f 218/67/5 219/67/5 220/67/5
f 221/67/6 222/67/6 223/67/6
f 223/67/6 222/67/6 224/67/6
f 226/30/1 225/30/1 227/30/1
f 226/30/1 227/30/1 228/30/1
f 230/90/5 229/89/5 231/91/5
f 230/90/5 231/91/5 232/92/5
f 234/30/3 233/30/3 235/30/3
f 234/30/3 235/30/3 236/30/3
f 238/48/5 237/48/5 239/48/5
f 238/48/5 239/48/5 240/48/5
f 242/48/5 241/48/5 243/48/5
f 242/48/5 243/48/5 244/48/5
f 246/48/5 245/48/5 247/48/5
f 246/48/5 247/48/5 248/48/5
f 249/88/4 250/88/4 251/88/4
f 251/88/4 250/88/4 252/88/4
f 254/88/5 253/88/5 255/88/5
f 254/88/5 255/88/5 256/88/5
f 258/25/1 257/25/1 259/25/1
f 258/25/1 259/25/1 260/25/1
f 262/25/5 261/25/5 263/25/5
f 262/25/5 263/25/5 264/25/5
f 266/25/5 265/25/5 267/25/5
f 266/25/5 267/25/5 268/25/5
f 269/25/6 270/25/6 271/25/6
f 271/25/6 270/25/6 272/25/6
f 273/93/4 274/94/4 275/95/4
f 275/95/4 274/94/4 276/96/4
f 278/48/5 277/48/5 279/48/5
f 278/48/5 279/48/5 280/48/5
f 282/98/5 281/97/5 283/99/5
f 282/98/5 283/99/5 284/100/5
f 286/25/3 285/25/3 287/25/3
f 286/25/3 287/25/3 288/25/3
f 289/67/4 290/67/4 291/67/4
f 291/67/4 290/67/4 292/67/4
f 294/25/1 293/25/1 295/25/1
f 294/25/1 295/25/1 296/25/1
f 298/102/5 297/101/5 299/103/5
f 298/102/5 299/103/5 300/104/5
f 302/25/3 301/25/3 303/25/3
f 302/25/3 303/25/3 304/25/3
f 306/25/5 305/25/5 307/25/5
f 306/25/5 307/25/5 308/25/5
f 310/106/3 309/105/3 311/107/3
f 310/106/3 311/107/3 312/108/3
f 313/25/4 314/25/4 315/25/4
f 315/25/4 314/25/4 316/25/4
f 318/48/1 317/48/1 319/48/1
f 318/48/1 319/48/1 320/48/1
f 322/48/1 321/48/1 323/48/1
f 322/48/1 323/48/1 324/48/1
f 326/48/5 325/48/5 327/48/5
f 326/48/5 327/48/5 328/48/5
f 330/48/3 329/48/3 331/48/3
f 330/48/3 331/48/3 332/48/3
f 334/110/5 333/109/5 335/111/5
f 334/110/5 335/111/5 336/112/5
f 338/88/3 337/88/3 339/88/3
f 338/88/3 339/88/3 340/88/3
f 341/25/4 342/25/4 343/25/4
f 343/25/4 342/25/4 344/25/4
f 346/114/1 345/113/1 347/115/1
f 346/114/1 347/115/1 348/116/1
f 350/118/5 349/117/5 351/119/5
f 350/118/5 351/119/5 352/120/5
f 354/48/3 353/48/3 355/48/3
f 354/48/3 355/48/3 356/48/3
f 358/48/5 357/48/5 359/48/5
f 358/48/5 359/48/5 360/48/5
f 362/25/3 361/25/3 363/25/3
f 362/25/3 363/25/3 364/25/3
f 366/122/5 365/121/5 367/123/5
f 366/122/5 367/123/5 368/124/5
f 370/126/3 369/125/3 371/127/3
f 370/126/3 371/127/3 372/128/3
f 373/48/4 374/48/4 375/48/4
f 375/48/4 374/48/4 376/48/4
f 377/48/6 378/48/6 379/48/6
f 379/48/6 378/48/6 380/48/6
f 382/130/5 381/129/5 383/131/5
f 382/130/5 383/131/5 384/132/5
f 386/134/3 385/133/3 387/135/3
f 386/134/3 387/135/3 388/136/3
f 389/25/4 390/25/4 391/25/4
f 391/25/4 390/25/4 392/25/4
f 393/25/6 394/25/6 395/25/6
f 395/25/6 394/25/6 396/25/6
f 398/48/5 397/48/5 399/48/5
f 398/48/5 399/48/5 400/48/5
f 401/48/6 402/48/6 403/48/6
f 403/48/6 402/48/6 404/48/6
f 405/25/4 406/25/4 407/25/4
f 407/25/4 406/25/4 408/25/4
f 410/25/5 409/25/5 411/25/5
f 410/25/5 411/25/5 412/25/5
f 414/25/3 413/25/3 415/25/3
f 414/25/3 415/25/3 416/25/3
f 418/25/1 417/25/1 419/25/1
f 418/25/1 419/25/1 420/25/1
f 422/138/5 421/137/5 423/139/5
f 422/138/5 423/139/5 424/140/5
f 425/141/6 426/142/6 427/143/6
f 427/143/6 426/142/6 428/144/6
f 429/25/4 430/25/4 431/25/4
f 431/25/4 430/25/4 432/25/4
f 434/25/5 433/25/5 435/25/5
f 434/25/5 435/25/5 436/25/5
f 438/25/3 437/25/3 439/25/3
f 438/25/3 439/25/3 440/25/3
f 442/25/1 441/25/1 443/25/1
f 442/25/1 443/25/1 444/25/1
f 446/48/5 445/48/5 447/48/5
f 446/48/5 447/48/5 448/48/5
f 450/25/5 449/25/5 451/25/5
f 450/25/5 451/25/5 452/25/5
f 453/25/4 454/25/4 455/25/4
f 455/25/4 454/25/4 456/25/4
f 458/48/1 457/48/1 459/48/1
f 458/48/1 459/48/1 460/48/1
f 462/48/5 461/48/5 463/48/5
f 462/48/5 463/48/5 464/48/5
f 465/48/6 466/48/6 467/48/6
f 467/48/6 466/48/6 468/48/6
f 470/25/5 469/25/5 471/25/5
f 470/25/5 471/25/5 472/25/5
f 474/25/3 473/25/3 475/25/3
f 474/25/3 475/25/3 476/25/3
f 478/146/5 477/145/5 479/147/5
f 478/146/5 479/147/5 480/148/5
f 481/25/4 482/25/4 483/25/4
f 483/25/4 482/25/4 484/25/4
f 485/25/4 486/25/4 487/25/4
f 487/25/4 486/25/4 488/25/4
f 490/25/1 489/25/1 491/25/1
f 490/25/1 491/25/1 492/25/1
f 494/25/5 493/25/5 495/25/5
f 494/25/5 495/25/5 496/25/5
f 498/25/3 497/25/3 499/25/3
f 498/25/3 499/25/3 500/25/3
f 501/25/6 502/25/6 503/25/6
f 503/25/6 502/25/6 504/25/6
f 505/25/6 506/25/6 507/25/6
f 507/25/6 506/25/6 508/25/6
f 510/48/5 509/48/5 511/48/5
f 510/48/5 511/48/5 512/48/5
f 513/25/4 514/25/4 515/25/4
f 515/25/4 514/25/4 516/25/4
f 518/25/5 517/25/5 519/25/5
f 518/25/5 519/25/5 520/25/5
f 522/25/3 521/25/3 523/25/3
f 522/25/3 523/25/3 524/25/3
f 526/25/1 525/25/1 527/25/1
f 526/25/1 527/25/1 528/25/1
f 530/25/5 529/25/5 531/25/5
f 530/25/5 531/25/5 532/25/5
f 534/25/5 533/25/5 535/25/5
f 534/25/5 535/25/5 536/25/5
f 537/25/6 538/25/6 539/25/6
f 539/25/6 538/25/6 540/25/6
f 541/25/4 542/25/4 543/25/4
f 543/25/4 542/25/4 544/25/4
f 546/25/1 545/25/1 547/25/1
f 546/25/1 547/25/1 548/25/1
f 550/25/5 549/25/5 551/25/5
f 550/25/5 551/25/5 552/25/5
f 554/25/3 553/25/3 555/25/3
f 554/25/3 555/25/3 556/25/3
f 557/25/6 558/25/6 559/25/6
f 559/25/6 558/25/6 560/25/6
f 562/25/1 561/25/1 563/25/1
f 562/25/1 563/25/1 564/25/1
f 565/25/6 566/25/6 567/25/6
f 567/25/6 566/25/6 568/25/6
f 570/150/5 569/149/5 571/151/5
f 570/150/5 571/151/5 572/152/5
f 574/25/5 573/25/5 575/25/5
f 574/25/5 575/25/5 576/25/5
f 578/25/5 577/25/5 579/25/5
f 578/25/5 579/25/5 580/25/5
f 582/25/5 581/25/5 583/25/5
f 582/25/5 583/25/5 584/25/5
f 585/153/4 586/154/4 587/155/4
f 587/155/4 586/154/4 588/156/4
f 590/158/5 589/157/5 591/159/5
f 590/158/5 591/159/5 592/160/5
f 593/25/4 594/25/4 595/25/4
f 595/25/4 594/25/4 596/25/4
f 598/25/1 597/25/1 599/25/1
f 598/25/1 599/25/1 600/25/1
f 602/25/5 601/25/5 603/25/5
f 602/25/5 603/25/5 604/25/5
f 606/25/3 605/25/3 607/25/3
f 606/25/3 607/25/3 608/25/3
f 609/25/6 610/25/6 611/25/6
f 611/25/6 610/25/6 612/25/6
f 613/161/4 614/162/4 615/163/4
f 615/163/4 614/162/4 616/164/4
f 618/25/1 617/25/1 619/25/1
f 618/25/1 619/25/1 620/25/1
f 622/166/5 621/165/5 623/167/5
f 622/166/5 623/167/5 624/168/5
f 626/25/3 625/25/3 627/25/3
f 626/25/3 627/25/3 628/25/3
f 629/25/4 630/25/4 631/25/4
f 631/25/4 630/25/4 632/25/4
f 634/25/1 633/25/1 635/25/1
f 634/25/1 635/25/1 636/25/1
f 638/25/5 637/25/5 639/25/5
f 638/25/5 639/25/5 640/25/5
f 642/25/3 641/25/3 643/25/3
f 642/25/3 643/25/3 644/25/3
f 645/25/6 646/25/6 647/25/6
f 647/25/6 646/25/6 648/25/6
f 650/169/1 649/169/1 651/169/1
f 650/169/1 651/169/1 652/169/1
f 653/169/6 654/169/6 655/169/6
f 655/169/6 654/169/6 656/169/6
f 657/170/6 658/171/6 659/172/6
f 659/172/6 658/171/6 660/173/6
f 662/66/5 661/66/5 663/66/5
f 662/66/5 663/66/5 664/66/5
f 666/25/5 665/25/5 667/25/5
f 666/25/5 667/25/5 668/25/5
f 670/25/3 669/25/3 671/25/3
f 670/25/3 671/25/3 672/25/3
f 674/48/5 673/48/5 675/48/5
f 674/48/5 675/48/5 676/48/5
f 678/25/5 677/25/5 679/25/5
f 678/25/5 679/25/5 680/25/5
f 681/25/6 682/25/6 683/25/6
f 683/25/6 682/25/6 684/25/6
f 686/30/1 685/30/1 687/30/1
f 686/30/1 687/30/1 688/30/1
f 690/175/5 689/174/5 691/176/5
f 690/175/5 691/176/5 692/177/5
f 694/179/3 693/178/3 695/180/3
f 694/179/3 695/180/3 696/181/3
f 697/25/4 698/25/4 699/25/4
f 699/25/4 698/25/4 700/25/4
f 702/25/1 701/25/1 703/25/1
f 702/25/1 703/25/1 704/25/1
f 706/25/5 705/25/5 707/25/5
f 706/25/5 707/25/5 708/25/5
f 710/25/3 709/25/3 711/25/3
f 710/25/3 711/25/3 712/25/3
f 713/25/6 714/25/6 715/25/6
f 715/25/6 714/25/6 716/25/6
f 717/88/4 718/88/4 719/88/4
f 719/88/4 718/88/4 720/88/4
f 722/88/1 721/88/1 723/88/1
f 722/88/1 723/88/1 724/88/1
f 726/183/5 725/182/5 727/184/5
f 726/183/5 727/184/5 728/185/5
f 730/88/3 729/88/3 731/88/3
f 730/88/3 731/88/3 732/88/3
f 734/67/1 733/67/1 735/67/1
f 734/67/1 735/67/1 736/67/1
f 738/187/5 737/186/5 739/188/5
f 738/187/5 739/188/5 740/189/5
f 742/25/5 741/25/5 743/25/5
f 742/25/5 743/25/5 744/25/5
f 745/190/4 746/191/4 747/192/4
f 747/192/4 746/191/4 748/193/4
f 750/195/1 749/194/1 751/196/1
f 750/195/1 751/196/1 752/197/1
f 754/25/5 753/25/5 755/25/5
f 754/25/5 755/25/5 756/25/5
f 757/25/6 758/25/6 759/25/6
f 759/25/6 758/25/6 760/25/6
f 762/199/5 761/198/5 763/200/5
f 762/199/5 763/200/5 764/201/5
f 766/88/3 765/88/3 767/88/3
f 766/88/3 767/88/3 768/88/3
f 770/203/5 769/202/5 771/204/5
f 770/203/5 771/204/5 772/205/5
f 774/25/3 773/25/3 775/25/3
f 774/25/3 775/25/3 776/25/3
f 777/25/4 778/25/4 779/25/4
f 779/25/4 778/25/4 780/25/4
f 782/25/1 781/25/1 783/25/1
f 782/25/1 783/25/1 784/25/1
f 786/207/5 785/206/5 787/208/5
f 786/207/5 787/208/5 788/209/5
f 790/25/3 789/25/3 791/25/3
f 790/25/3 791/25/3 792/25/3
f 793/30/6 794/30/6 795/30/6
f 795/30/6 794/30/6 796/30/6
f 798/211/5 797/210/5 799/212/5
f 798/211/5 799/212/5 800/213/5
f 802/88/3 801/88/3 803/88/3
f 802/88/3 803/88/3 804/88/3
f 806/48/5 805/48/5 807/48/5
f 806/48/5 807/48/5 808/48/5
f 809/48/4 810/48/4 811/48/4
f 811/48/4 810/48/4 812/48/4
f 814/215/5 813/214/5 815/216/5
f 814/215/5 815/216/5 816/217/5
f 818/67/1 817/67/1 819/67/1
f 818/67/1 819/67/1 820/67/1
f 822/219/3 821/218/3 823/220/3
f 822/219/3 823/220/3 824/221/3
f 826/25/5 825/25/5 827/25/5
f 826/25/5 827/25/5 828/25/5
f 829/222/4 830/223/4 831/224/4
f 831/224/4 830/223/4 832/225/4
f 834/227/5 833/226/5 835/228/5
f 834/227/5 835/228/5 836/229/5
f 838/231/1 837/230/1 839/232/1
f 838/231/1 839/232/1 840/233/1
f 841/25/2 842/25/2 843/25/2
f 843/25/2 842/25/2 844/25/2
f 846/235/5 845/234/5 847/236/5
f 846/235/5 847/236/5 848/237/5
f 850/25/3 849/25/3 851/25/3
f 850/25/3 851/25/3 852/25/3
f 853/25/4 854/25/4 855/25/4
f 855/25/4 854/25/4 856/25/4
f 858/239/5 857/238/5 859/240/5
f 858/239/5 859/240/5 860/241/5
f 862/25/3 861/25/3 863/25/3
f 862/25/3 863/25/3 864/25/3
f 865/25/4 866/25/4 867/25/4
f 867/25/4 866/25/4 868/25/4
f 870/88/1 869/88/1 871/88/1
f 870/88/1 871/88/1 872/88/1
f 874/88/3 873/88/3 875/88/3
f 874/88/3 875/88/3 876/88/3
f 877/25/6 878/25/6 879/25/6
f 879/25/6 878/25/6 880/25/6
f 881/242/4 882/243/4 883/244/4
f 883/244/4 882/243/4 884/245/4
f 886/247/5 885/246/5 887/248/5
f 886/247/5 887/248/5 888/249/5
f 890/25/3 889/25/3 891/25/3
f 890/25/3 891/25/3 892/25/3
f 894/251/5 893/250/5 895/252/5
f 894/251/5 895/252/5 896/253/5
f 898/254/3 897/254/3 899/254/3
f 898/254/3 899/254/3 900/254/3
f 902/30/5 901/30/5 903/30/5
f 902/30/5 903/30/5 904/30/5
f 905/169/4 906/169/4 907/169/4
f 907/169/4 906/169/4 908/169/4
f 910/30/1 909/30/1 911/30/1
f 910/30/1 911/30/1 912/30/1
f 914/256/5 913/255/5 915/257/5
f 914/256/5 915/257/5 916/258/5
f 918/30/3 917/30/3 919/30/3
f 918/30/3 919/30/3 920/30/3
f 922/260/5 921/259/5 923/261/5
f 922/260/5 923/261/5 924/262/5
f 926/67/3 925/67/3 927/67/3
f 926/67/3 927/67/3 928/67/3
f 930/264/5 929/263/5 931/265/5
f 930/264/5 931/265/5 932/266/5
f 934/25/3 933/25/3 935/25/3
f 934/25/3 935/25/3 936/25/3
f 937/267/6 938/268/6 939/269/6
f 939/269/6 938/268/6 940/270/6
