# Export of Cubik Model: Cubik Model
# Designed by MeLee with Cubik Studio - https://cubik.studio
# from Cubik OBJ Exporter v1.0
mtllib street_32_1b_c_M.mtl
v 0 0 1.907349E-06
v -16 0 1.907349E-06
v 0 2 1.907349E-06
v -16 2 1.907349E-06
v 0 0 1.907349E-06
v -16 0 1.907349E-06
v 0 0 -16
v -16 0 -16
v 0 0 1.907349E-06
v 0 2 1.907349E-06
v 0 0 -16
v 0 2 -16
v 0 0 -16
v -16 0 -16
v 0 2 -16
v -16 2 -16
v 0 2 1.907349E-06
v -2 2 1.907349E-06
v 0 2 -16
v -2 2 -16
v -2 1.5 -9.499998
v -2 2 -9.499998
v -2 1.5 -9.999998
v -2 2 -9.999998
v -2 1.5 -9.499998
v -2.5 1.5 -9.499998
v -2 1.5 -9.999998
v -2.5 1.5 -9.999998
v -2 2 1.907349E-06
v -2.5 2 1.907349E-06
v -2 2 -9.499998
v -2.5 2 -9.499998
v -2.5 1.5 -1.999998
v -2.5 2 -1.999998
v -2.5 1.5 -2.499998
v -2.5 2 -2.499998
v -2.5 1.5 -8.499998
v -2.5 2 -8.499998
v -2.5 1.5 -9.499998
v -2.5 2 -9.499998
v -2 1.5 -9.499998
v -2.5 1.5 -9.499998
v -2 2 -9.499998
v -2.5 2 -9.499998
v -2 1.5 -9.999998
v -2.5 1.5 -9.999998
v -2 2 -9.999998
v -2.5 2 -9.999998
v -2 2 -9.999998
v -5.5 2 -9.999998
v -2 2 -16
v -5.5 2 -16
v -2.5 1.5 -1.999998
v -3 1.5 -1.999998
v -2.5 1.5 -2.499998
v -3 1.5 -2.499998
v -2.5 1.5 -8.499998
v -3 1.5 -8.499998
v -2.5 1.5 -9.499998
v -3 1.5 -9.499998
v -2.5 2 1.907349E-06
v -6 2 1.907349E-06
v -2.5 2 -1.999998
v -6 2 -1.999998
v -2.5 1.5 -1.999998
v -3 1.5 -1.999998
v -2.5 2 -1.999998
v -3 2 -1.999998
v -2.5 1.5 -2.499998
v -3 1.5 -2.499998
v -2.5 2 -2.499998
v -3 2 -2.499998
v -2.5 2 -2.499998
v -3 2 -2.499998
v -2.5 2 -8.499998
v -3 2 -8.499998
v -3 1.5 -6.999998
v -3 2 -6.999998
v -3 1.5 -8.499998
v -3 2 -8.499998
v -2.5 1.5 -8.499998
v -3 1.5 -8.499998
v -2.5 2 -8.499998
v -3 2 -8.499998
v -2.5 1.5 -9.499998
v -3 1.5 -9.499998
v -2.5 2 -9.499998
v -3 2 -9.499998
v -2.5 2 -9.499998
v -6 2 -9.499998
v -2.5 2 -9.999998
v -6 2 -9.999998
v -2.5 1.5 -9.499998
v -2.5 2 -9.499998
v -2.5 1.5 -9.999998
v -2.5 2 -9.999998
v -3 1.5 -6.999998
v -3.5 1.5 -6.999998
v -3 1.5 -8.499998
v -3.5 1.5 -8.499998
v -3 2 -1.999998
v -3.5 2 -1.999998
v -3 2 -6.999998
v -3.5 2 -6.999998
v -3 1.5 -1.999998
v -3 2 -1.999998
v -3 1.5 -2.499998
v -3 2 -2.499998
v -3.5 1.5 -2.999998
v -3.5 2 -2.999998
v -3.5 1.5 -4.499998
v -3.5 2 -4.499998
v -3.5 1.5 -5.999998
v -3.5 2 -5.999998
v -3.5 1.5 -6.999998
v -3.5 2 -6.999998
v -3 1.5 -6.999998
v -3.5 1.5 -6.999998
v -3 2 -6.999998
v -3.5 2 -6.999998
v -3 1.5 -8.499998
v -3.5 1.5 -8.499998
v -3 2 -8.499998
v -3.5 2 -8.499998
v -3 2 -8.499998
v -6.5 2 -8.499998
v -3 2 -9.499998
v -6.5 2 -9.499998
v -3 1.5 -8.499998
v -3 2 -8.499998
v -3 1.5 -9.499998
v -3 2 -9.499998
v -3.5 1.5 -2.999998
v -4 1.5 -2.999998
v -3.5 1.5 -4.499998
v -4 1.5 -4.499998
v -3.5 1.5 -5.999998
v -4 1.5 -5.999998
v -3.5 1.5 -7.999998
v -4 1.5 -7.999998
v -3.5 2 -1.999998
v -8 2 -1.999998
v -3.5 2 -2.999998
v -8 2 -2.999998
v -3.5 1.5 -2.999998
v -4 1.5 -2.999998
v -3.5 2 -2.999998
v -4 2 -2.999998
v -3.5 1.5 -4.499998
v -4 1.5 -4.499998
v -3.5 2 -4.499998
v -4 2 -4.499998
v -3.5 2 -4.499998
v -4 2 -4.499998
v -3.5 2 -5.999998
v -4 2 -5.999998
v -3.5 1.5 -5.999998
v -4 1.5 -5.999998
v -3.5 2 -5.999998
v -4 2 -5.999998
v -4 1.5 -5.499998
v -4 2 -5.499998
v -4 1.5 -5.999998
v -4 2 -5.999998
v -3.5 1.5 -7.999998
v -4 1.5 -7.999998
v -3.5 2 -7.999998
v -4 2 -7.999998
v -3.5 2 -7.999998
v -6.5 2 -7.999998
v -3.5 2 -8.499998
v -6.5 2 -8.499998
v -3.5 1.5 -7.999998
v -3.5 2 -7.999998
v -3.5 1.5 -8.499998
v -3.5 2 -8.499998
v -4 1.5 -5.499998
v -4.5 1.5 -5.499998
v -4 1.5 -7.499998
v -4.5 1.5 -7.499998
v -4 2 -2.999998
v -4.5 2 -2.999998
v -4 2 -5.499998
v -4.5 2 -5.499998
v -4 1.5 -2.999998
v -4 2 -2.999998
v -4 1.5 -4.499998
v -4 2 -4.499998
v -4 1.5 -5.499998
v -4.5 1.5 -5.499998
v -4 2 -5.499998
v -4.5 2 -5.499998
v -4.5 1.5 -4.999998
v -4.5 2 -4.999998
v -4.5 1.5 -5.499998
v -4.5 2 -5.499998
v -4 1.5 -7.499998
v -4.5 1.5 -7.499998
v -4 2 -7.499998
v -4.5 2 -7.499998
v -4 2 -7.499998
v -5.5 2 -7.499998
v -4 2 -7.999998
v -5.5 2 -7.999998
v -4 1.5 -7.499998
v -4 2 -7.499998
v -4 1.5 -7.999998
v -4 2 -7.999998
v -5 0.5 -4.999998
v -5 1.5 -4.999998
v -5 0.5 -5.499998
v -5 1.5 -5.499998
v -4.5 1.5 -4.999998
v -5 1.5 -4.999998
v -4.5 1.5 -6.999998
v -5 1.5 -6.999998
v -4.5 2 -2.999998
v -6 2 -2.999998
v -4.5 2 -4.999998
v -6 2 -4.999998
v -4.5 1.5 -4.999998
v -6 1.5 -4.999998
v -4.5 2 -4.999998
v -6 2 -4.999998
v -4.5 1.5 -6.999998
v -5 1.5 -6.999998
v -4.5 2 -6.999998
v -5 2 -6.999998
v -4.5 2 -6.999998
v -6.5 2 -6.999998
v -4.5 2 -7.499998
v -6.5 2 -7.499998
v -4.5 1.5 -6.999998
v -4.5 2 -6.999998
v -4.5 1.5 -7.499998
v -4.5 2 -7.499998
v -5 0.5 -4.999998
v -5.5 0.5 -4.999998
v -5 0.5 -5.499998
v -5.5 0.5 -5.499998
v -5 0.5 -4.999998
v -5.5 0.5 -4.999998
v -5 1.5 -4.999998
v -5.5 1.5 -4.999998
v -5 0.5 -5.499998
v -5.5 0.5 -5.499998
v -5 1.5 -5.499998
v -5.5 1.5 -5.499998
v -5 1.5 -5.499998
v -5.5 1.5 -5.499998
v -5 1.5 -6.499998
v -5.5 1.5 -6.499998
v -5.5 1 -5.499998
v -5.5 1.5 -5.499998
v -5.5 1 -5.999998
v -5.5 1.5 -5.999998
v -5 1.5 -6.499998
v -5.5 1.5 -6.499998
v -5 2 -6.499998
v -5.5 2 -6.499998
v -5 2 -6.499998
v -6.5 2 -6.499998
v -5 2 -6.999998
v -6.5 2 -6.999998
v -5 1.5 -6.499998
v -5 2 -6.499998
v -5 1.5 -6.999998
v -5 2 -6.999998
v -5.5 1.5 -7.499998
v -5.5 2 -7.499998
v -5.5 1.5 -7.999998
v -5.5 2 -7.999998
v -5.5 1.5 -10.5
v -5.5 2 -10.5
v -5.5 1.5 -11
v -5.5 2 -11
v -5.5 1 -4.999998
v -6 1 -4.999998
v -5.5 1 -5.999998
v -6 1 -5.999998
v -5.5 0.5 -4.999998
v -5.5 1 -4.999998
v -5.5 0.5 -5.499998
v -5.5 1 -5.499998
v -5.5 1 -4.999998
v -7 1 -4.999998
v -5.5 1.5 -4.999998
v -7 1.5 -4.999998
v -5.5 1 -5.999998
v -6 1 -5.999998
v -5.5 2 -5.999998
v -6 2 -5.999998
v -5.5 1.5 -7.499998
v -6 1.5 -7.499998
v -5.5 1.5 -7.999998
v -6 1.5 -7.999998
v -6 1 -9.499998
v -6 2 -9.499998
v -6 1 -10.5
v -6 2 -10.5
v -5.5 1.5 -10.5
v -6 1.5 -10.5
v -5.5 1.5 -11
v -6 1.5 -11
v -6 1.5 -0.9999981
v -6 2 -0.9999981
v -6 1.5 -1.499998
v -6 2 -1.499998
v -6 1.5 -4.499998
v -6 2 -4.499998
v -6 1.5 -4.999998
v -6 2 -4.999998
v -5.5 2 -5.999998
v -6 2 -5.999998
v -5.5 2 -6.499998
v -6 2 -6.499998
v -5.5 1.5 -5.999998
v -5.5 2 -5.999998
v -5.5 1.5 -6.499998
v -5.5 2 -6.499998
v -6 1.5 -5.999998
v -6 2 -5.999998
v -6 1.5 -6.499998
v -6 2 -6.499998
v -5.5 1.5 -7.499998
v -6 1.5 -7.499998
v -5.5 2 -7.499998
v -6 2 -7.499998
v -5.5 1.5 -7.999998
v -6 1.5 -7.999998
v -5.5 2 -7.999998
v -6 2 -7.999998
v -5.5 1.5 -10.5
v -6 1.5 -10.5
v -5.5 2 -10.5
v -6 2 -10.5
v -5.5 2 -9.999998
v -6 2 -9.999998
v -5.5 2 -10.5
v -6 2 -10.5
v -5.5 1.5 -11
v -6 1.5 -11
v -5.5 2 -11
v -6 2 -11
v -5.5 2 -11
v -16 2 -11
v -5.5 2 -16
v -16 2 -16
v -6 1 -4.999998
v -7 1 -4.999998
v -6 1 -5.499998
v -7 1 -5.499998
v -6 1 -9.499998
v -6.5 1 -9.499998
v -6 1 -10.5
v -6.5 1 -10.5
v -6 1.5 -0.9999981
v -7 1.5 -0.9999981
v -6 1.5 -1.499998
v -7 1.5 -1.499998
v -6 1.5 -4.499998
v -7 1.5 -4.499998
v -6 1.5 -4.999998
v -7 1.5 -4.999998
v -6 1 -5.499998
v -6.5 1 -5.499998
v -6 1.5 -5.499998
v -6.5 1.5 -5.499998
v -6 1.5 -5.499998
v -6.5 1.5 -5.499998
v -6 1.5 -6.499998
v -6.5 1.5 -6.499998
v -6 1 -5.499998
v -6 1.5 -5.499998
v -6 1 -5.999998
v -6 1.5 -5.999998
v -6.5 1 -5.499998
v -6.5 1.5 -5.499998
v -6.5 1 -5.999998
v -6.5 1.5 -5.999998
v -6 1 -9.499998
v -6.5 1 -9.499998
v -6 2 -9.499998
v -6.5 2 -9.499998
v -6 1 -10.5
v -6.5 1 -10.5
v -6 2 -10.5
v -6.5 2 -10.5
v -6 2 1.907349E-06
v -11.5 2 1.907349E-06
v -6 2 -0.9999981
v -11.5 2 -0.9999981
v -6 1.5 -0.9999981
v -7 1.5 -0.9999981
v -6 2 -0.9999981
v -7 2 -0.9999981
v -6 1.5 -1.499998
v -7 1.5 -1.499998
v -6 2 -1.499998
v -7 2 -1.499998
v -6 2 -1.499998
v -7 2 -1.499998
v -6 2 -1.999998
v -7 2 -1.999998
v -6 2 -2.999998
v -6.5 2 -2.999998
v -6 2 -4.499998
v -6.5 2 -4.499998
v -6 1.5 -4.499998
v -6.5 1.5 -4.499998
v -6 2 -4.499998
v -6.5 2 -4.499998
v -6.5 1.5 -3.999998
v -6.5 2 -3.999998
v -6.5 1.5 -4.499998
v -6.5 2 -4.499998
v -6 1.5 -6.499998
v -6.5 1.5 -6.499998
v -6 2 -6.499998
v -6.5 2 -6.499998
v -6.5 1.5 -6.499998
v -6.5 2 -6.499998
v -6.5 1.5 -9.499998
v -6.5 2 -9.499998
v -6 2 -7.499998
v -6.5 2 -7.499998
v -6 2 -7.999998
v -6.5 2 -7.999998
v -6 1.5 -7.499998
v -6 2 -7.499998
v -6 1.5 -7.999998
v -6 2 -7.999998
v -6 2 -10.5
v -8 2 -10.5
v -6 2 -11
v -8 2 -11
v -6 1.5 -10.5
v -6 2 -10.5
v -6 1.5 -11
v -6 2 -11
v -7 0.5 -4.499998
v -7 1 -4.499998
v -7 0.5 -5.499998
v -7 1 -5.499998
v -6.5 1 -5.499998
v -7.5 1 -5.499998
v -6.5 1 -5.999998
v -7.5 1 -5.999998
v -6.5 1 -9.499998
v -7 1 -9.499998
v -6.5 1 -9.999998
v -7 1 -9.999998
v -6.5 1.5 -3.999998
v -7 1.5 -3.999998
v -6.5 1.5 -4.499998
v -7 1.5 -4.499998
v -7 1 -3.999998
v -7 1.5 -3.999998
v -7 1 -4.999998
v -7 1.5 -4.999998
v -6.5 1 -5.999998
v -7 1 -5.999998
v -6.5 1.5 -5.999998
v -7 1.5 -5.999998
v -6.5 1.5 -5.999998
v -7 1.5 -5.999998
v -6.5 1.5 -9.499998
v -7 1.5 -9.499998
v -7 1 -5.999998
v -7 1.5 -5.999998
v -7 1 -8.999998
v -7 1.5 -8.999998
v -6.5 1 -9.499998
v -7 1 -9.499998
v -6.5 1.5 -9.499998
v -7 1.5 -9.499998
v -6.5 1 -9.999998
v -7 1 -9.999998
v -6.5 2 -9.999998
v -7 2 -9.999998
v -6.5 1 -9.999998
v -6.5 2 -9.999998
v -6.5 1 -10.5
v -6.5 2 -10.5
v -7 1.5 -1.499998
v -7 2 -1.499998
v -7 1.5 -1.999998
v -7 2 -1.999998
v -6.5 2 -2.999998
v -7 2 -2.999998
v -6.5 2 -3.999998
v -7 2 -3.999998
v -7 1.5 -2.999998
v -7 2 -2.999998
v -7 1.5 -3.999998
v -7 2 -3.999998
v -6.5 1.5 -3.999998
v -7 1.5 -3.999998
v -6.5 2 -3.999998
v -7 2 -3.999998
v -6.5 2 -9.999998
v -16 2 -9.999998
v -6.5 2 -10.5
v -16 2 -10.5
v -7 0.5 -4.499998
v -9 0.5 -4.499998
v -7 0.5 -5.499998
v -9 0.5 -5.499998
v -7 0.5 -4.499998
v -9 0.5 -4.499998
v -7 1 -4.499998
v -9 1 -4.499998
v -7 1 -3.999998
v -10.5 1 -3.999998
v -7 1 -4.499998
v -10.5 1 -4.499998
v -7 0.5 -5.499998
v -7.5 0.5 -5.499998
v -7 1 -5.499998
v -7.5 1 -5.499998
v -7.5 0.5 -5.499998
v -7.5 1 -5.499998
v -7.5 0.5 -6.499998
v -7.5 1 -6.499998
v -7 1 -5.999998
v -7.5 1 -5.999998
v -7 1 -8.999998
v -7.5 1 -8.999998
v -7 1.5 -1.499998
v -8.5 1.5 -1.499998
v -7 1.5 -1.999998
v -8.5 1.5 -1.999998
v -7 1.5 -2.999998
v -7.5 1.5 -2.999998
v -7 1.5 -3.999998
v -7.5 1.5 -3.999998
v -7 1 -3.999998
v -8.5 1 -3.999998
v -7 1.5 -3.999998
v -8.5 1.5 -3.999998
v -7 1 -8.999998
v -7.5 1 -8.999998
v -7 1.5 -8.999998
v -7.5 1.5 -8.999998
v -7 1.5 -8.999998
v -7.5 1.5 -8.999998
v -7 1.5 -9.999998
v -7.5 1.5 -9.999998
v -7 1 -9.499998
v -7 1.5 -9.499998
v -7 1 -9.999998
v -7 1.5 -9.999998
v -7 1.5 -1.499998
v -8.5 1.5 -1.499998
v -7 2 -1.499998
v -8.5 2 -1.499998
v -7 2 -0.9999981
v -11 2 -0.9999981
v -7 2 -1.499998
v -11 2 -1.499998
v -7 1.5 -0.9999981
v -7 2 -0.9999981
v -7 1.5 -1.499998
v -7 2 -1.499998
v -7 1.5 -1.999998
v -8 1.5 -1.999998
v -7 2 -1.999998
v -8 2 -1.999998
v -7 1.5 -2.999998
v -7.5 1.5 -2.999998
v -7 2 -2.999998
v -7.5 2 -2.999998
v -7 1.5 -9.999998
v -7.5 1.5 -9.999998
v -7 2 -9.999998
v -7.5 2 -9.999998
v -7.5 0.5 -5.499998
v -8.5 0.5 -5.499998
v -7.5 0.5 -6.499998
v -8.5 0.5 -6.499998
v -7.5 0.5 -6.499998
v -8.5 0.5 -6.499998
v -7.5 1 -6.499998
v -8.5 1 -6.499998
v -7.5 1 -6.499998
v -8 1 -6.499998
v -7.5 1 -7.999998
v -8 1 -7.999998
v -7.5 1.5 -3.499998
v -8.5 1.5 -3.499998
v -7.5 1.5 -3.999998
v -8.5 1.5 -3.999998
v -7.5 1 -7.999998
v -8 1 -7.999998
v -7.5 1.5 -7.999998
v -8 1.5 -7.999998
v -7.5 1.5 -7.999998
v -9 1.5 -7.999998
v -7.5 1.5 -8.499998
v -9 1.5 -8.499998
v -7.5 1 -7.999998
v -7.5 1.5 -7.999998
v -7.5 1 -8.999998
v -7.5 1.5 -8.999998
v -8 1.5 -1.999998
v -8 2 -1.999998
v -8 1.5 -2.499998
v -8 2 -2.499998
v -7.5 1.5 -3.499998
v -8.5 1.5 -3.499998
v -7.5 2 -3.499998
v -8.5 2 -3.499998
v -7.5 2 -2.999998
v -8.5 2 -2.999998
v -7.5 2 -3.499998
v -8.5 2 -3.499998
v -7.5 1.5 -2.999998
v -7.5 2 -2.999998
v -7.5 1.5 -3.499998
v -7.5 2 -3.499998
v -7.5 1.5 -8.499998
v -9 1.5 -8.499998
v -7.5 2 -8.499998
v -9 2 -8.499998
v -7.5 2 -8.499998
v -9 2 -8.499998
v -7.5 2 -9.999998
v -9 2 -9.999998
v -7.5 1.5 -8.499998
v -7.5 2 -8.499998
v -7.5 1.5 -9.999998
v -7.5 2 -9.999998
v -8 1.5 -10.5
v -8 2 -10.5
v -8 1.5 -11
v -8 2 -11
v -8 1 -6.499998
v -8.5 1 -6.499998
v -8 1 -7.499998
v -8.5 1 -7.499998
v -8 1.5 -1.999998
v -8.5 1.5 -1.999998
v -8 1.5 -2.499998
v -8.5 1.5 -2.499998
v -8.5 1 -3.499998
v -8.5 1.5 -3.499998
v -8.5 1 -3.999998
v -8.5 1.5 -3.999998
v -8 1 -7.499998
v -8.5 1 -7.499998
v -8 1.5 -7.499998
v -8.5 1.5 -7.499998
v -8 1.5 -7.499998
v -11 1.5 -7.499998
v -8 1.5 -7.999998
v -11 1.5 -7.999998
v -8 1 -7.499998
v -8 1.5 -7.499998
v -8 1 -7.999998
v -8 1.5 -7.999998
v -8 1.5 -10.5
v -9 1.5 -10.5
v -8 1.5 -11
v -9 1.5 -11
v -8 1.5 -2.499998
v -8.5 1.5 -2.499998
v -8 2 -2.499998
v -8.5 2 -2.499998
v -8 2 -2.499998
v -9 2 -2.499998
v -8 2 -2.999998
v -9 2 -2.999998
v -8.5 1.5 -2.999998
v -8.5 2 -2.999998
v -8.5 1.5 -3.499998
v -8.5 2 -3.499998
v -8 1.5 -10.5
v -9 1.5 -10.5
v -8 2 -10.5
v -9 2 -10.5
v -8 1.5 -11
v -9 1.5 -11
v -8 2 -11
v -9 2 -11
v -8.5 0.5 -5.499998
v -9 0.5 -5.499998
v -8.5 0.5 -5.999998
v -9 0.5 -5.999998
v -8.5 1 -3.499998
v -9.5 1 -3.499998
v -8.5 1 -3.999998
v -9.5 1 -3.999998
v -8.5 0.5 -5.999998
v -9 0.5 -5.999998
v -8.5 1 -5.999998
v -9 1 -5.999998
v -8.5 1 -5.999998
v -9.5 1 -5.999998
v -8.5 1 -6.999998
v -9.5 1 -6.999998
v -8.5 0.5 -5.999998
v -8.5 1 -5.999998
v -8.5 0.5 -6.499998
v -8.5 1 -6.499998
v -8.5 1 -3.499998
v -9.5 1 -3.499998
v -8.5 1.5 -3.499998
v -9.5 1.5 -3.499998
v -8.5 1.5 -2.999998
v -11.5 1.5 -2.999998
v -8.5 1.5 -3.499998
v -11.5 1.5 -3.499998
v -8.5 1 -6.999998
v -9.5 1 -6.999998
v -8.5 1.5 -6.999998
v -9.5 1.5 -6.999998
v -8.5 1.5 -6.999998
v -11 1.5 -6.999998
v -8.5 1.5 -7.499998
v -11 1.5 -7.499998
v -8.5 1 -6.999998
v -8.5 1.5 -6.999998
v -8.5 1 -7.499998
v -8.5 1.5 -7.499998
v -8.5 2 -1.499998
v -10.5 2 -1.499998
v -8.5 2 -2.499998
v -10.5 2 -2.499998
v -8.5 1.5 -1.499998
v -8.5 2 -1.499998
v -8.5 1.5 -2.499998
v -8.5 2 -2.499998
v -8.5 1.5 -2.999998
v -9 1.5 -2.999998
v -8.5 2 -2.999998
v -9 2 -2.999998
v -9 1.5 -2.499998
v -9 2 -2.499998
v -9 1.5 -2.999998
v -9 2 -2.999998
v -9 1.5 -8.999998
v -9 2 -8.999998
v -9 1.5 -9.499998
v -9 2 -9.499998
v -9 0.5 -4.999998
v -9.5 0.5 -4.999998
v -9 0.5 -5.499998
v -9.5 0.5 -5.499998
v -9 0.5 -4.999998
v -9.5 0.5 -4.999998
v -9 1 -4.999998
v -9.5 1 -4.999998
v -9 1 -4.499998
v -10.5 1 -4.499998
v -9 1 -4.999998
v -10.5 1 -4.999998
v -9 0.5 -4.499998
v -9 1 -4.499998
v -9 0.5 -4.999998
v -9 1 -4.999998
v -9 0.5 -5.499998
v -9.5 0.5 -5.499998
v -9 1 -5.499998
v -9.5 1 -5.499998
v -9 1 -5.499998
v -10 1 -5.499998
v -9 1 -5.999998
v -10 1 -5.999998
v -9 0.5 -5.499998
v -9 1 -5.499998
v -9 0.5 -5.999998
v -9 1 -5.999998
v -9 1.5 -2.499998
v -12 1.5 -2.499998
v -9 1.5 -2.999998
v -12 1.5 -2.999998
v -9 1.5 -8.999998
v -9.5 1.5 -8.999998
v -9 1.5 -9.499998
v -9.5 1.5 -9.499998
v -9 1.5 -2.499998
v -10.5 1.5 -2.499998
v -9 2 -2.499998
v -10.5 2 -2.499998
v -9 1.5 -7.999998
v -11 1.5 -7.999998
v -9 2 -7.999998
v -11 2 -7.999998
v -9 2 -7.999998
v -13 2 -7.999998
v -9 2 -8.999998
v -13 2 -8.999998
v -9 1.5 -7.999998
v -9 2 -7.999998
v -9 1.5 -8.499998
v -9 2 -8.499998
v -9 1.5 -8.999998
v -9.5 1.5 -8.999998
v -9 2 -8.999998
v -9.5 2 -8.999998
v -9 1.5 -9.499998
v -9.5 1.5 -9.499998
v -9 2 -9.499998
v -9.5 2 -9.499998
v -9 2 -9.499998
v -16 2 -9.499998
v -9 2 -9.999998
v -16 2 -9.999998
v -9 2 -10.5
v -16 2 -10.5
v -9 2 -11
v -16 2 -11
v -9 1.5 -10.5
v -9 2 -10.5
v -9 1.5 -11
v -9 2 -11
v -9.5 1 -4.999998
v -10 1 -4.999998
v -9.5 1 -5.499998
v -10 1 -5.499998
v -9.5 0.5 -4.999998
v -9.5 1 -4.999998
v -9.5 0.5 -5.499998
v -9.5 1 -5.499998
v -9.5 1 -3.999998
v -10.5 1 -3.999998
v -9.5 1.5 -3.999998
v -10.5 1.5 -3.999998
v -9.5 1.5 -3.499998
v -11.5 1.5 -3.499998
v -9.5 1.5 -3.999998
v -11.5 1.5 -3.999998
v -9.5 1 -3.499998
v -9.5 1.5 -3.499998
v -9.5 1 -3.999998
v -9.5 1.5 -3.999998
v -9.5 1 -5.999998
v -10 1 -5.999998
v -9.5 1.5 -5.999998
v -10 1.5 -5.999998
v -9.5 1.5 -5.999998
v -11 1.5 -5.999998
v -9.5 1.5 -6.999998
v -11 1.5 -6.999998
v -9.5 1 -5.999998
v -9.5 1.5 -5.999998
v -9.5 1 -6.999998
v -9.5 1.5 -6.999998
v -9.5 2 -8.999998
v -16 2 -8.999998
v -9.5 2 -9.499998
v -16 2 -9.499998
v -9.5 1.5 -8.999998
v -9.5 2 -8.999998
v -9.5 1.5 -9.499998
v -9.5 2 -9.499998
v -10 1 -4.999998
v -10.5 1 -4.999998
v -10 1.5 -4.999998
v -10.5 1.5 -4.999998
v -10 1.5 -4.999998
v -10.5 1.5 -4.999998
v -10 1.5 -5.999998
v -10.5 1.5 -5.999998
v -10 1 -4.999998
v -10 1.5 -4.999998
v -10 1 -5.999998
v -10 1.5 -5.999998
v -10.5 1.5 -1.499998
v -10.5 2 -1.499998
v -10.5 1.5 -2.499998
v -10.5 2 -2.499998
v -10.5 1.5 -1.499998
v -11 1.5 -1.499998
v -10.5 1.5 -2.499998
v -11 1.5 -2.499998
v -11 1 -1.999998
v -11 1.5 -1.999998
v -11 1 -2.499998
v -11 1.5 -2.499998
v -10.5 1.5 -3.999998
v -11 1.5 -3.999998
v -10.5 1.5 -4.999998
v -11 1.5 -4.999998
v -10.5 1 -3.999998
v -10.5 1.5 -3.999998
v -10.5 1 -4.999998
v -10.5 1.5 -4.999998
v -10.5 1.5 -5.499998
v -11.5 1.5 -5.499998
v -10.5 1.5 -5.999998
v -11.5 1.5 -5.999998
v -10.5 1.5 -1.499998
v -11 1.5 -1.499998
v -10.5 2 -1.499998
v -11 2 -1.499998
v -11 1.5 -0.9999981
v -11 2 -0.9999981
v -11 1.5 -1.499998
v -11 2 -1.499998
v -10.5 1.5 -5.499998
v -11 1.5 -5.499998
v -10.5 2 -5.499998
v -11 2 -5.499998
v -10.5 1.5 -4.999998
v -11 1.5 -4.999998
v -10.5 2 -4.999998
v -11 2 -4.999998
v -10.5 2 -4.999998
v -11 2 -4.999998
v -10.5 2 -5.499998
v -11 2 -5.499998
v -10.5 1.5 -4.999998
v -10.5 2 -4.999998
v -10.5 1.5 -5.499998
v -10.5 2 -5.499998
v -11 1.5 -4.999998
v -11 2 -4.999998
v -11 1.5 -5.499998
v -11 2 -5.499998
v -11 1 -1.999998
v -11.5 1 -1.999998
v -11 1 -2.499998
v -11.5 1 -2.499998
v -11 1.5 -0.9999981
v -11.5 1.5 -0.9999981
v -11 1.5 -1.999998
v -11.5 1.5 -1.999998
v -11 1 -1.999998
v -11.5 1 -1.999998
v -11 1.5 -1.999998
v -11.5 1.5 -1.999998
v -11 1 -2.499998
v -11.5 1 -2.499998
v -11 1.5 -2.499998
v -11.5 1.5 -2.499998
v -11 1.5 -3.999998
v -11.5 1.5 -3.999998
v -11 1.5 -4.499998
v -11.5 1.5 -4.499998
v -11 1.5 -4.999998
v -12 1.5 -4.999998
v -11 1.5 -5.499998
v -12 1.5 -5.499998
v -11 1.5 -6.499998
v -12 1.5 -6.499998
v -11 1.5 -6.999998
v -12 1.5 -6.999998
v -11 1.5 -0.9999981
v -11.5 1.5 -0.9999981
v -11 2 -0.9999981
v -11.5 2 -0.9999981
v -11.5 1.5 -0.4999981
v -11.5 2 -0.4999981
v -11.5 1.5 -0.9999981
v -11.5 2 -0.9999981
v -11 1.5 -4.999998
v -12 1.5 -4.999998
v -11 2 -4.999998
v -12 2 -4.999998
v -11 1.5 -4.499998
v -11.5 1.5 -4.499998
v -11 2 -4.499998
v -11.5 2 -4.499998
v -11 2 -4.499998
v -16 2 -4.499998
v -11 2 -4.999998
v -16 2 -4.999998
v -11 1.5 -4.499998
v -11 2 -4.499998
v -11 1.5 -4.999998
v -11 2 -4.999998
v -11 1.5 -6.499998
v -12 1.5 -6.499998
v -11 2 -6.499998
v -12 2 -6.499998
v -11 1.5 -5.999998
v -11.5 1.5 -5.999998
v -11 2 -5.999998
v -11.5 2 -5.999998
v -11 2 -5.999998
v -12.5 2 -5.999998
v -11 2 -6.499998
v -12.5 2 -6.499998
v -11 1.5 -5.999998
v -11 2 -5.999998
v -11 1.5 -6.499998
v -11 2 -6.499998
v -11 1.5 -6.999998
v -12 1.5 -6.999998
v -11 2 -6.999998
v -12 2 -6.999998
v -11 2 -6.999998
v -12 2 -6.999998
v -11 2 -7.999998
v -12 2 -7.999998
v -11 1.5 -6.999998
v -11 2 -6.999998
v -11 1.5 -7.999998
v -11 2 -7.999998
v -11.5 1.5 -0.4999981
v -12 1.5 -0.4999981
v -11.5 1.5 -0.9999981
v -12 1.5 -0.9999981
v -11.5 1.5 -1.999998
v -12 1.5 -1.999998
v -11.5 1.5 -2.499998
v -12 1.5 -2.499998
v -11.5 1 -1.999998
v -11.5 1.5 -1.999998
v -11.5 1 -2.499998
v -11.5 1.5 -2.499998
v -11.5 1.5 -0.4999981
v -12 1.5 -0.4999981
v -11.5 2 -0.4999981
v -12 2 -0.4999981
v -11.5 2 1.907349E-06
v -16 2 1.907349E-06
v -11.5 2 -0.4999981
v -16 2 -0.4999981
v -11.5 1.5 -0.9999981
v -12 1.5 -0.9999981
v -11.5 2 -0.9999981
v -12 2 -0.9999981
v -11.5 2 -0.9999981
v -16 2 -0.9999981
v -11.5 2 -1.999998
v -16 2 -1.999998
v -11.5 1.5 -0.9999981
v -11.5 2 -0.9999981
v -11.5 1.5 -1.999998
v -11.5 2 -1.999998
v -11.5 1.5 -1.999998
v -12 1.5 -1.999998
v -11.5 2 -1.999998
v -12 2 -1.999998
v -11.5 1.5 -2.999998
v -12 1.5 -2.999998
v -11.5 2 -2.999998
v -12 2 -2.999998
v -11.5 2 -2.999998
v -16 2 -2.999998
v -11.5 2 -4.499998
v -16 2 -4.499998
v -11.5 1.5 -2.999998
v -11.5 2 -2.999998
v -11.5 1.5 -4.499998
v -11.5 2 -4.499998
v -11.5 1.5 -5.499998
v -12 1.5 -5.499998
v -11.5 2 -5.499998
v -12 2 -5.499998
v -11.5 2 -5.499998
v -12 2 -5.499998
v -11.5 2 -5.999998
v -12 2 -5.999998
v -11.5 1.5 -5.499998
v -11.5 2 -5.499998
v -11.5 1.5 -5.999998
v -11.5 2 -5.999998
v -12 1.5 -5.499998
v -12 2 -5.499998
v -12 1.5 -5.999998
v -12 2 -5.999998
v -12 1.5 -6.999998
v -12 2 -6.999998
v -12 1.5 -7.499998
v -12 2 -7.499998
v -12 1.5 -5.499998
v -12.5 1.5 -5.499998
v -12 1.5 -5.999998
v -12.5 1.5 -5.999998
v -12 1.5 -6.999998
v -12.5 1.5 -6.999998
v -12 1.5 -7.499998
v -12.5 1.5 -7.499998
v -12 2 -0.4999981
v -16 2 -0.4999981
v -12 2 -0.9999981
v -16 2 -0.9999981
v -12 1.5 -0.4999981
v -12 2 -0.4999981
v -12 1.5 -0.9999981
v -12 2 -0.9999981
v -12 2 -1.999998
v -16 2 -1.999998
v -12 2 -2.999998
v -16 2 -2.999998
v -12 1.5 -1.999998
v -12 2 -1.999998
v -12 1.5 -2.999998
v -12 2 -2.999998
v -12 1.5 -5.499998
v -12.5 1.5 -5.499998
v -12 2 -5.499998
v -12.5 2 -5.499998
v -12 2 -4.999998
v -16 2 -4.999998
v -12 2 -5.499998
v -16 2 -5.499998
v -12 1.5 -4.999998
v -12 2 -4.999998
v -12 1.5 -5.499998
v -12 2 -5.499998
v -12 1.5 -5.999998
v -12.5 1.5 -5.999998
v -12 2 -5.999998
v -12.5 2 -5.999998
v -12.5 1.5 -5.999998
v -12.5 2 -5.999998
v -12.5 1.5 -6.499998
v -12.5 2 -6.499998
v -12 1.5 -6.999998
v -12.5 1.5 -6.999998
v -12 2 -6.999998
v -12.5 2 -6.999998
v -12 2 -6.499998
v -13 2 -6.499998
v -12 2 -6.999998
v -13 2 -6.999998
v -12 1.5 -6.499998
v -12 2 -6.499998
v -12 1.5 -6.999998
v -12 2 -6.999998
v -12 1.5 -7.499998
v -12.5 1.5 -7.499998
v -12 2 -7.499998
v -12.5 2 -7.499998
v -12 2 -7.499998
v -16 2 -7.499998
v -12 2 -7.999998
v -16 2 -7.999998
v -12.5 1.5 -5.999998
v -13.5 1.5 -5.999998
v -12.5 1.5 -6.499998
v -13.5 1.5 -6.499998
v -12.5 1.5 -5.999998
v -13.5 1.5 -5.999998
v -12.5 2 -5.999998
v -13.5 2 -5.999998
v -12.5 2 -5.499998
v -16 2 -5.499998
v -12.5 2 -5.999998
v -16 2 -5.999998
v -12.5 1.5 -5.499998
v -12.5 2 -5.499998
v -12.5 1.5 -5.999998
v -12.5 2 -5.999998
v -12.5 1.5 -6.499998
v -13 1.5 -6.499998
v -12.5 2 -6.499998
v -13 2 -6.499998
v -13 1.5 -6.499998
v -13 2 -6.499998
v -13 1.5 -6.999998
v -13 2 -6.999998
v -12.5 2 -6.999998
v -16 2 -6.999998
v -12.5 2 -7.499998
v -16 2 -7.499998
v -12.5 1.5 -6.999998
v -12.5 2 -6.999998
v -12.5 1.5 -7.499998
v -12.5 2 -7.499998
v -13 1.5 -7.999998
v -13 2 -7.999998
v -13 1.5 -8.499998
v -13 2 -8.499998
v -13 1.5 -6.499998
v -13.5 1.5 -6.499998
v -13 1.5 -6.999998
v -13.5 1.5 -6.999998
v -13 1.5 -7.999998
v -13.5 1.5 -7.999998
v -13 1.5 -8.499998
v -13.5 1.5 -8.499998
v -13 1.5 -6.999998
v -13.5 1.5 -6.999998
v -13 2 -6.999998
v -13.5 2 -6.999998
v -13 1.5 -7.999998
v -13.5 1.5 -7.999998
v -13 2 -7.999998
v -13.5 2 -7.999998
v -13 1.5 -8.499998
v -13.5 1.5 -8.499998
v -13 2 -8.499998
v -13.5 2 -8.499998
v -13 2 -8.499998
v -16 2 -8.499998
v -13 2 -8.999998
v -16 2 -8.999998
v -13.5 2 -5.999998
v -16 2 -5.999998
v -13.5 2 -6.999998
v -16 2 -6.999998
v -13.5 1.5 -5.999998
v -13.5 2 -5.999998
v -13.5 1.5 -6.999998
v -13.5 2 -6.999998
v -13.5 2 -7.999998
v -16 2 -7.999998
v -13.5 2 -8.499998
v -16 2 -8.499998
v -13.5 1.5 -7.999998
v -13.5 2 -7.999998
v -13.5 1.5 -8.499998
v -13.5 2 -8.499998
v -16 0 1.907349E-06
v -16 2 1.907349E-06
v -16 0 -16
v -16 2 -16
vn 0 -5.960464E-08 0.9999999
vn 0 -0.9999999 -5.960464E-08
vn 1 0 0
vn 0 5.960464E-08 -0.9999999
vn 0 0.9999999 5.960464E-08
vn -1 0 0
vt 0.484375 0.0078125
vt 0.734375 0.0078125
vt 0.484375 0.0390625
vt 0.734375 0.0390625
vt 0.0078125 0.0078125
vt 0.2578125 0.0078125
vt 0.0078125 0.2578125
vt 0.2578125 0.2578125
vt 0.765625 0.0078125
vt 0.796875 0.0078125
vt 0.765625 0.2578125
vt 0.796875 0.2578125
vt 0.484375 0.0703125
vt 0.734375 0.0703125
vt 0.484375 0.1015625
vt 0.734375 0.1015625
vt 0.828125 0.0078125
vt 0.859375 0.0078125
vt 0.828125 0.2578125
vt 0.859375 0.2578125
vt 0.21875 0.90625
vt 0.2109375 0.3671875
vt 0.953125 0.0078125
vt 0.9609375 0.0078125
vt 0.953125 0.15625
vt 0.9609375 0.15625
vt 0.21875 0.328125
vt 0.2890625 0.1171875
vt 0.34375 0.1171875
vt 0.2890625 0.2109375
vt 0.34375 0.2109375
vt 0.375 0.171875
vt 0.4296875 0.171875
vt 0.375 0.203125
vt 0.4296875 0.203125
vt 0.109375 0.875
vt 0.0078125 0.2890625
vt 0.015625 0.2890625
vt 0.0078125 0.3828125
vt 0.015625 0.3828125
vt 0.140625 0.7578125
vt 0.1484375 0.7578125
vt 0.140625 0.78125
vt 0.1484375 0.78125
vt 0.5390625 0.2890625
vt 0.046875 0.5859375
vt 0.1015625 0.5859375
vt 0.046875 0.59375
vt 0.1015625 0.59375
vt 0.0078125 0.4140625
vt 0.015625 0.4140625
vt 0.0078125 0.4921875
vt 0.015625 0.4921875
vt 0.1796875 0.7578125
vt 0.1875 0.7578125
vt 0.1796875 0.78125
vt 0.1875 0.78125
vt 0.2890625 0.2421875
vt 0.34375 0.2421875
vt 0.2890625 0.2578125
vt 0.34375 0.2578125
vt 0.25 0.6875
vt 0.2578125 0.6875
vt 0.25 0.703125
vt 0.2578125 0.703125
vt 0.140625 0.6484375
vt 0.1484375 0.6484375
vt 0.140625 0.6796875
vt 0.1484375 0.6796875
vt 0.484375 0.21875
vt 0.5546875 0.21875
vt 0.484375 0.234375
vt 0.5546875 0.234375
vt 0.6328125 0.2890625
vt 0.25 0.328125
vt 0.2578125 0.328125
vt 0.25 0.3515625
vt 0.2578125 0.3515625
vt 0.046875 0.921875
vt 0.09375 0.921875
vt 0.046875 0.9296875
vt 0.09375 0.9296875
vt 0.0078125 0.8984375
vt 0.015625 0.8984375
vt 0.0078125 0.9296875
vt 0.015625 0.9296875
vt 0.0078125 0.765625
vt 0.015625 0.765625
vt 0.0078125 0.8046875
vt 0.015625 0.8046875
vt 0.1796875 0.90625
vt 0.1875 0.90625
vt 0.1796875 0.9296875
vt 0.1875 0.9296875
vt 0.6015625 0.2890625
vt 0.25 0.2890625
vt 0.2734375 0.2890625
vt 0.25 0.296875
vt 0.2734375 0.296875
vt 0.0078125 0.8359375
vt 0.015625 0.8359375
vt 0.0078125 0.8671875
vt 0.015625 0.8671875
vt 0.953125 0.1875
vt 0.9765625 0.1875
vt 0.953125 0.21875
vt 0.9765625 0.21875
vt 0.1796875 0.8125
vt 0.203125 0.8125
vt 0.1796875 0.8203125
vt 0.203125 0.8203125
vt 0.140625 0.53125
vt 0.171875 0.53125
vt 0.140625 0.5390625
vt 0.171875 0.5390625
vt 0.25 0.78125
vt 0.2578125 0.78125
vt 0.25 0.796875
vt 0.2578125 0.796875
vt 0.25 0.828125
vt 0.2578125 0.828125
vt 0.25 0.84375
vt 0.2578125 0.84375
vt 0.5703125 0.2890625
vt 0.2109375 0.40625
vt 0.1875 0.7109375
vt 0.203125 0.7109375
vt 0.1875 0.7265625
vt 0.203125 0.7265625
vt 0.734375 0.25
vt 0.2890625 0.0078125
vt 0.453125 0.0078125
vt 0.2890625 0.0859375
vt 0.453125 0.0859375
vt 0.25 0.875
vt 0.265625 0.875
vt 0.25 0.8828125
vt 0.265625 0.8828125
vt 0.3046875 0.328125
vt 0.3125 0.328125
vt 0.3046875 0.34375
vt 0.3125 0.34375
vt 0.3046875 0.515625
vt 0.3125 0.515625
vt 0.3046875 0.53125
vt 0.3125 0.53125
vt 0.484375 0.171875
vt 0.5703125 0.171875
vt 0.484375 0.1875
vt 0.5703125 0.1875
vt 0.3984375 0.2890625
vt 0.4140625 0.2890625
vt 0.3984375 0.296875
vt 0.4140625 0.296875
vt 0.4453125 0.2890625
vt 0.4609375 0.2890625
vt 0.4453125 0.296875
vt 0.4609375 0.296875
vt 0.140625 0.8125
vt 0.1484375 0.8125
vt 0.140625 0.8359375
vt 0.1484375 0.8359375
vt 0.0078125 0.6875
vt 0.015625 0.6875
vt 0.0078125 0.734375
vt 0.015625 0.734375
vt 0.140625 0.5703125
vt 0.171875 0.5703125
vt 0.140625 0.578125
vt 0.171875 0.578125
vt 0.3046875 0.375
vt 0.3125 0.375
vt 0.3046875 0.390625
vt 0.3125 0.390625
vt 0.0078125 0.5234375
vt 0.015625 0.5234375
vt 0.0078125 0.578125
vt 0.015625 0.578125
vt 0.0078125 0.609375
vt 0.015625 0.609375
vt 0.0078125 0.65625
vt 0.015625 0.65625
vt 0.3046875 0.421875
vt 0.3125 0.421875
vt 0.3046875 0.4375
vt 0.3125 0.4375
vt 0.4921875 0.2890625
vt 0.5078125 0.2890625
vt 0.4921875 0.296875
vt 0.5078125 0.296875
vt 0.484375 0.1328125
vt 0.6328125 0.1328125
vt 0.484375 0.140625
vt 0.6328125 0.140625
vt 0.140625 0.609375
vt 0.171875 0.609375
vt 0.140625 0.6171875
vt 0.171875 0.6171875
vt 0.046875 0.625
vt 0.1015625 0.625
vt 0.046875 0.6328125
vt 0.1015625 0.6328125
vt 0.0078125 0.9609375
vt 0.015625 0.9609375
vt 0.0078125 0.9765625
vt 0.015625 0.9765625
vt 0.25 0.3828125
vt 0.2734375 0.3828125
vt 0.25 0.390625
vt 0.2734375 0.390625
vt 0.046875 0.421875
vt 0.109375 0.421875
vt 0.046875 0.4296875
vt 0.109375 0.4296875
vt 0.140625 0.7109375
vt 0.15625 0.7109375
vt 0.140625 0.7265625
vt 0.15625 0.7265625
vt 0.140625 0.90625
vt 0.1484375 0.90625
vt 0.140625 0.9296875
vt 0.1484375 0.9296875
vt 0.25 0.421875
vt 0.2734375 0.421875
vt 0.25 0.4296875
vt 0.2734375 0.4296875
vt 0.140625 0.9609375
vt 0.1484375 0.9609375
vt 0.140625 0.9765625
vt 0.1484375 0.9765625
vt 0.953125 0.25
vt 0.9765625 0.25
vt 0.953125 0.2578125
vt 0.9765625 0.2578125
vt 0.046875 0.7421875
vt 0.0703125 0.7421875
vt 0.046875 0.765625
vt 0.0703125 0.765625
vt 0.1015625 0.7421875
vt 0.109375 0.7421875
vt 0.1015625 0.765625
vt 0.109375 0.765625
vt 0.25 0.5625
vt 0.2578125 0.5625
vt 0.25 0.578125
vt 0.2578125 0.578125
vt 0.046875 0.796875
vt 0.09375 0.796875
vt 0.046875 0.8046875
vt 0.09375 0.8046875
vt 0.203125 0.5703125
vt 0.21875 0.5703125
vt 0.203125 0.578125
vt 0.21875 0.578125
vt 0.25 0.609375
vt 0.265625 0.609375
vt 0.25 0.6171875
vt 0.265625 0.6171875
vt 0.25 0.6484375
vt 0.265625 0.6484375
vt 0.25 0.65625
vt 0.265625 0.65625
vt 0.1796875 0.6484375
vt 0.1953125 0.6484375
vt 0.1796875 0.6640625
vt 0.1953125 0.6640625
vt 0.046875 0.8359375
vt 0.09375 0.8359375
vt 0.046875 0.84375
vt 0.09375 0.84375
vt 0.140625 0.3671875
vt 0.1796875 0.3671875
vt 0.140625 0.375
vt 0.1796875 0.375
vt 0.046875 0.875
vt 0.078125 0.875
vt 0.046875 0.890625
vt 0.078125 0.890625
vt 0.25 0.9609375
vt 0.2578125 0.9609375
vt 0.25 0.9765625
vt 0.2578125 0.9765625
vt 0.1796875 0.9609375
vt 0.203125 0.9609375
vt 0.1796875 0.96875
vt 0.203125 0.96875
vt 0.046875 0.9609375
vt 0.09375 0.9609375
vt 0.046875 0.96875
vt 0.09375 0.96875
vt 0.140625 0.8671875
vt 0.1640625 0.8671875
vt 0.140625 0.875
vt 0.1640625 0.875
vt 0.140625 0.4921875
vt 0.171875 0.4921875
vt 0.140625 0.5
vt 0.171875 0.5
vt 0.046875 0.2890625
vt 0.109375 0.2890625
vt 0.046875 0.3046875
vt 0.109375 0.3046875
vt 0.6015625 0.2109375
vt 0.7109375 0.2109375
vt 0.6015625 0.21875
vt 0.7109375 0.21875
vt 0.6015625 0.171875
vt 0.7109375 0.171875
vt 0.6015625 0.1796875
vt 0.7109375 0.1796875
vt 0.140625 0.4453125
vt 0.1640625 0.4453125
vt 0.140625 0.4609375
vt 0.1640625 0.4609375
vt 0.6015625 0.25
vt 0.703125 0.25
vt 0.6015625 0.2578125
vt 0.703125 0.2578125
vt 0.21875 0.7578125
vt 0.25 0.515625
vt 0.2578125 0.515625
vt 0.25 0.53125
vt 0.2578125 0.53125
vt 0.203125 0.4921875
vt 0.21875 0.4921875
vt 0.203125 0.5
vt 0.21875 0.5
vt 0.140625 0.2890625
vt 0.21875 0.2890625
vt 0.140625 0.296875
vt 0.21875 0.296875
vt 0.203125 0.53125
vt 0.21875 0.53125
vt 0.203125 0.5390625
vt 0.21875 0.5390625
vt 0.1953125 0.8671875
vt 0.21875 0.8671875
vt 0.1953125 0.875
vt 0.21875 0.875
vt 0.203125 0.609375
vt 0.21875 0.609375
vt 0.203125 0.6171875
vt 0.21875 0.6171875
vt 0.1953125 0.4453125
vt 0.2109375 0.4453125
vt 0.1953125 0.4609375
vt 0.2109375 0.4609375
vt 0.6640625 0.1328125
vt 0.734375 0.1328125
vt 0.6640625 0.140625
vt 0.734375 0.140625
vt 0.375 0.234375
vt 0.4453125 0.234375
vt 0.375 0.25
vt 0.4453125 0.25
vt 0.25 0.734375
vt 0.2578125 0.734375
vt 0.25 0.75
vt 0.2578125 0.75
vt 0.375 0.1171875
vt 0.4453125 0.1171875
vt 0.375 0.140625
vt 0.4453125 0.140625
vt 0.25 0.4609375
vt 0.2578125 0.4609375
vt 0.25 0.484375
vt 0.2578125 0.484375
vt 0.046875 0.4609375
vt 0.109375 0.4609375
vt 0.046875 0.46875
vt 0.109375 0.46875
vt 0.046875 0.3359375
vt 0.109375 0.3359375
vt 0.046875 0.3515625
vt 0.109375 0.3515625
vt 0.25 0.9140625
vt 0.2578125 0.9140625
vt 0.25 0.9296875
vt 0.2578125 0.9296875
vt 0.046875 0.5
vt 0.109375 0.5
vt 0.046875 0.5078125
vt 0.109375 0.5078125
vt 0.3046875 0.2890625
vt 0.3203125 0.2890625
vt 0.3046875 0.296875
vt 0.3203125 0.296875
vt 0.046875 0.3828125
vt 0.109375 0.3828125
vt 0.046875 0.390625
vt 0.109375 0.390625
vt 0.3515625 0.2890625
vt 0.3671875 0.2890625
vt 0.3515625 0.296875
vt 0.3671875 0.296875
vt 0.046875 0.703125
vt 0.1015625 0.703125
vt 0.046875 0.7109375
vt 0.1015625 0.7109375
vt 0.046875 0.6640625
vt 0.1015625 0.6640625
vt 0.046875 0.671875
vt 0.1015625 0.671875
vt 0.140625 0.328125
vt 0.1875 0.328125
vt 0.140625 0.3359375
vt 0.1875 0.3359375
vt 0.046875 0.5390625
vt 0.0859375 0.5390625
vt 0.046875 0.5546875
vt 0.0859375 0.5546875
vt 0.3046875 0.46875
vt 0.3125 0.46875
vt 0.3046875 0.484375
vt 0.3125 0.484375
vt 0.140625 0.40625
vt 0.1796875 0.40625
vt 0.140625 0.4140625
vt 0.1796875 0.4140625
vt 0.890625 0.0078125
vt 0.921875 0.0078125
vt 0.890625 0.2578125
vt 0.921875 0.2578125
usemtl voxel
f 2/2/1 1/1/1 3/3/1
f 2/2/1 3/3/1 4/4/1
f 5/5/2 6/6/2 7/7/2
f 7/7/2 6/6/2 8/8/2
f 10/10/3 9/9/3 11/11/3
f 10/10/3 11/11/3 12/12/3
f 13/13/4 14/14/4 15/15/4
f 15/15/4 14/14/4 16/16/4
f 18/18/5 17/17/5 19/19/5
f 18/18/5 19/19/5 20/20/5
f 21/21/6 22/21/6 23/21/6
f 23/21/6 22/21/6 24/21/6
f 26/22/5 25/22/5 27/22/5
f 26/22/5 27/22/5 28/22/5
f 30/24/5 29/23/5 31/25/5
f 30/24/5 31/25/5 32/26/5
f 33/22/6 34/22/6 35/22/6
f 35/22/6 34/22/6 36/22/6
f 37/22/6 38/22/6 39/22/6
f 39/22/6 38/22/6 40/22/6
f 41/22/4 42/22/4 43/22/4
f 43/22/4 42/22/4 44/22/4
f 46/27/1 45/27/1 47/27/1
f 46/27/1 47/27/1 48/27/1
f 50/29/5 49/28/5 51/30/5
f 50/29/5 51/30/5 52/31/5
f 54/22/5 53/22/5 55/22/5
f 54/22/5 55/22/5 56/22/5
f 58/22/5 57/22/5 59/22/5
f 58/22/5 59/22/5 60/22/5
f 62/33/5 61/32/5 63/34/5
f 62/33/5 63/34/5 64/35/5
f 65/22/4 66/22/4 67/22/4
f 67/22/4 66/22/4 68/22/4
f 70/36/1 69/36/1 71/36/1
f 70/36/1 71/36/1 72/36/1
f 74/38/5 73/37/5 75/39/5
f 74/38/5 75/39/5 76/40/5
f 77/41/6 78/42/6 79/43/6
f 79/43/6 78/42/6 80/44/6
f 81/22/4 82/22/4 83/22/4
f 83/22/4 82/22/4 84/22/4
f 86/45/1 85/45/1 87/45/1
f 86/45/1 87/45/1 88/45/1
f 90/47/5 89/46/5 91/48/5
f 90/47/5 91/48/5 92/49/5
f 94/45/3 93/45/3 95/45/3
f 94/45/3 95/45/3 96/45/3
f 98/22/5 97/22/5 99/22/5
f 98/22/5 99/22/5 100/22/5
f 102/51/5 101/50/5 103/52/5
f 102/51/5 103/52/5 104/53/5
f 106/21/3 105/21/3 107/21/3
f 106/21/3 107/21/3 108/21/3
f 109/54/6 110/55/6 111/56/6
f 111/56/6 110/55/6 112/57/6
f 113/22/6 114/22/6 115/22/6
f 115/22/6 114/22/6 116/22/6
f 117/22/4 118/22/4 119/22/4
f 119/22/4 118/22/4 120/22/4
f 122/45/1 121/45/1 123/45/1
f 122/45/1 123/45/1 124/45/1
f 126/59/5 125/58/5 127/60/5
f 126/59/5 127/60/5 128/61/5
f 130/63/3 129/62/3 131/64/3
f 130/63/3 131/64/3 132/65/3
f 134/22/5 133/22/5 135/22/5
f 134/22/5 135/22/5 136/22/5
f 138/67/5 137/66/5 139/68/5
f 138/67/5 139/68/5 140/69/5
f 142/71/5 141/70/5 143/72/5
f 142/71/5 143/72/5 144/73/5
f 145/74/4 146/74/4 147/74/4
f 147/74/4 146/74/4 148/74/4
f 150/21/1 149/21/1 151/21/1
f 150/21/1 151/21/1 152/21/1
f 154/76/5 153/75/5 155/77/5
f 154/76/5 155/77/5 156/78/5
f 157/22/4 158/22/4 159/22/4
f 159/22/4 158/22/4 160/22/4
f 161/22/6 162/22/6 163/22/6
f 163/22/6 162/22/6 164/22/6
f 166/27/1 165/27/1 167/27/1
f 166/27/1 167/27/1 168/27/1
f 170/80/5 169/79/5 171/81/5
f 170/80/5 171/81/5 172/82/5
f 174/27/3 173/27/3 175/27/3
f 174/27/3 175/27/3 176/27/3
f 178/84/5 177/83/5 179/85/5
f 178/84/5 179/85/5 180/86/5
f 182/88/5 181/87/5 183/89/5
f 182/88/5 183/89/5 184/90/5
f 186/92/3 185/91/3 187/93/3
f 186/92/3 187/93/3 188/94/3
f 189/22/4 190/22/4 191/22/4
f 191/22/4 190/22/4 192/22/4
f 193/22/6 194/22/6 195/22/6
f 195/22/6 194/22/6 196/22/6
f 198/95/1 197/95/1 199/95/1
f 198/95/1 199/95/1 200/95/1
f 202/97/5 201/96/5 203/98/5
f 202/97/5 203/98/5 204/99/5
f 206/95/3 205/95/3 207/95/3
f 206/95/3 207/95/3 208/95/3
f 209/22/6 210/22/6 211/22/6
f 211/22/6 210/22/6 212/22/6
f 214/101/5 213/100/5 215/102/5
f 214/101/5 215/102/5 216/103/5
f 218/105/5 217/104/5 219/106/5
f 218/105/5 219/106/5 220/107/5
f 221/108/4 222/109/4 223/110/4
f 223/110/4 222/109/4 224/111/4
f 226/27/1 225/27/1 227/27/1
f 226/27/1 227/27/1 228/27/1
f 230/113/5 229/112/5 231/114/5
f 230/113/5 231/114/5 232/115/5
f 234/27/3 233/27/3 235/27/3
f 234/27/3 235/27/3 236/27/3
f 238/22/5 237/22/5 239/22/5
f 238/22/5 239/22/5 240/22/5
f 241/22/4 242/22/4 243/22/4
f 243/22/4 242/22/4 244/22/4
f 246/117/1 245/116/1 247/118/1
f 246/117/1 247/118/1 248/119/1
f 250/121/5 249/120/5 251/122/5
f 250/121/5 251/122/5 252/123/5
f 253/124/6 254/124/6 255/124/6
f 255/124/6 254/124/6 256/124/6
f 258/22/1 257/22/1 259/22/1
f 258/22/1 259/22/1 260/22/1
f 262/22/5 261/22/5 263/22/5
f 262/22/5 263/22/5 264/22/5
f 266/22/3 265/22/3 267/22/3
f 266/22/3 267/22/3 268/22/3
f 269/125/6 270/125/6 271/125/6
f 271/125/6 270/125/6 272/125/6
f 273/45/6 274/45/6 275/45/6
f 275/45/6 274/45/6 276/45/6
f 278/22/5 277/22/5 279/22/5
f 278/22/5 279/22/5 280/22/5
f 282/22/3 281/22/3 283/22/3
f 282/22/3 283/22/3 284/22/3
f 285/22/4 286/22/4 287/22/4
f 287/22/4 286/22/4 288/22/4
f 290/22/1 289/22/1 291/22/1
f 290/22/1 291/22/1 292/22/1
f 294/22/5 293/22/5 295/22/5
f 294/22/5 295/22/5 296/22/5
f 297/126/6 298/127/6 299/128/6
f 299/128/6 298/127/6 300/129/6
f 302/22/5 301/22/5 303/22/5
f 302/22/5 303/22/5 304/22/5
f 305/22/6 306/22/6 307/22/6
f 307/22/6 306/22/6 308/22/6
f 309/22/6 310/22/6 311/22/6
f 311/22/6 310/22/6 312/22/6
f 314/22/5 313/22/5 315/22/5
f 314/22/5 315/22/5 316/22/5
f 318/22/3 317/22/3 319/22/3
f 318/22/3 319/22/3 320/22/3
f 321/22/6 322/22/6 323/22/6
f 323/22/6 322/22/6 324/22/6
f 325/130/4 326/130/4 327/130/4
f 327/130/4 326/130/4 328/130/4
f 330/27/1 329/27/1 331/27/1
f 330/27/1 331/27/1 332/27/1
f 333/27/4 334/27/4 335/27/4
f 335/27/4 334/27/4 336/27/4
f 338/27/5 337/27/5 339/27/5
f 338/27/5 339/27/5 340/27/5
f 342/21/1 341/21/1 343/21/1
f 342/21/1 343/21/1 344/21/1
f 346/132/5 345/131/5 347/133/5
f 346/132/5 347/133/5 348/134/5
f 350/136/5 349/135/5 351/137/5
f 350/136/5 351/137/5 352/138/5
f 354/22/5 353/22/5 355/22/5
f 354/22/5 355/22/5 356/22/5
f 358/22/5 357/22/5 359/22/5
f 358/22/5 359/22/5 360/22/5
f 362/22/5 361/22/5 363/22/5
f 362/22/5 363/22/5 364/22/5
f 366/22/1 365/22/1 367/22/1
f 366/22/1 367/22/1 368/22/1
f 370/22/5 369/22/5 371/22/5
f 370/22/5 371/22/5 372/22/5
f 374/22/3 373/22/3 375/22/3
f 374/22/3 375/22/3 376/22/3
f 377/22/6 378/22/6 379/22/6
f 379/22/6 378/22/6 380/22/6
f 381/139/4 382/140/4 383/141/4
f 383/141/4 382/140/4 384/142/4
f 386/144/1 385/143/1 387/145/1
f 386/144/1 387/145/1 388/146/1
f 390/148/5 389/147/5 391/149/5
f 390/148/5 391/149/5 392/150/5
f 393/22/4 394/22/4 395/22/4
f 395/22/4 394/22/4 396/22/4
f 398/152/1 397/151/1 399/153/1
f 398/152/1 399/153/1 400/154/1
f 402/156/5 401/155/5 403/157/5
f 402/156/5 403/157/5 404/158/5
f 406/160/5 405/159/5 407/161/5
f 406/160/5 407/161/5 408/162/5
f 409/22/4 410/22/4 411/22/4
f 411/22/4 410/22/4 412/22/4
f 413/22/6 414/22/6 415/22/6
f 415/22/6 414/22/6 416/22/6
f 418/22/1 417/22/1 419/22/1
f 418/22/1 419/22/1 420/22/1
f 421/163/6 422/164/6 423/165/6
f 423/165/6 422/164/6 424/166/6
f 426/36/5 425/36/5 427/36/5
f 426/36/5 427/36/5 428/36/5
f 430/36/3 429/36/3 431/36/3
f 430/36/3 431/36/3 432/36/3
f 434/168/5 433/167/5 435/169/5
f 434/168/5 435/169/5 436/170/5
f 438/74/3 437/74/3 439/74/3
f 438/74/3 439/74/3 440/74/3
f 441/171/6 442/172/6 443/173/6
f 443/173/6 442/172/6 444/174/6
f 446/124/5 445/124/5 447/124/5
f 446/124/5 447/124/5 448/124/5
f 450/22/5 449/22/5 451/22/5
f 450/22/5 451/22/5 452/22/5
f 454/22/5 453/22/5 455/22/5
f 454/22/5 455/22/5 456/22/5
f 457/22/6 458/22/6 459/22/6
f 459/22/6 458/22/6 460/22/6
f 462/124/1 461/124/1 463/124/1
f 462/124/1 463/124/1 464/124/1
f 466/176/5 465/175/5 467/177/5
f 466/176/5 467/177/5 468/178/5
f 469/179/6 470/180/6 471/181/6
f 471/181/6 470/180/6 472/182/6
f 473/22/4 474/22/4 475/22/4
f 475/22/4 474/22/4 476/22/4
f 478/184/1 477/183/1 479/185/1
f 478/184/1 479/185/1 480/186/1
f 482/188/3 481/187/3 483/189/3
f 482/188/3 483/189/3 484/190/3
f 485/45/6 486/45/6 487/45/6
f 487/45/6 486/45/6 488/45/6
f 490/22/5 489/22/5 491/22/5
f 490/22/5 491/22/5 492/22/5
f 493/22/6 494/22/6 495/22/6
f 495/22/6 494/22/6 496/22/6
f 497/22/4 498/22/4 499/22/4
f 499/22/4 498/22/4 500/22/4
f 502/192/5 501/191/5 503/193/5
f 502/192/5 503/193/5 504/194/5
f 506/124/5 505/124/5 507/124/5
f 506/124/5 507/124/5 508/124/5
f 509/195/4 510/196/4 511/197/4
f 511/197/4 510/196/4 512/198/4
f 514/200/5 513/199/5 515/201/5
f 514/200/5 515/201/5 516/202/5
f 518/124/1 517/124/1 519/124/1
f 518/124/1 519/124/1 520/124/1
f 521/124/6 522/124/6 523/124/6
f 523/124/6 522/124/6 524/124/6
f 526/124/5 525/124/5 527/124/5
f 526/124/5 527/124/5 528/124/5
f 530/22/5 529/22/5 531/22/5
f 530/22/5 531/22/5 532/22/5
f 534/22/5 533/22/5 535/22/5
f 534/22/5 535/22/5 536/22/5
f 537/22/4 538/22/4 539/22/4
f 539/22/4 538/22/4 540/22/4
f 542/124/1 541/124/1 543/124/1
f 542/124/1 543/124/1 544/124/1
f 546/204/5 545/203/5 547/205/5
f 546/204/5 547/205/5 548/206/5
f 550/22/3 549/22/3 551/22/3
f 550/22/3 551/22/3 552/22/3
f 553/207/4 554/208/4 555/209/4
f 555/209/4 554/208/4 556/210/4
f 558/212/5 557/211/5 559/213/5
f 558/212/5 559/213/5 560/214/5
f 562/130/3 561/130/3 563/130/3
f 562/130/3 563/130/3 564/130/3
f 566/130/1 565/130/1 567/130/1
f 566/130/1 567/130/1 568/130/1
f 569/22/4 570/22/4 571/22/4
f 571/22/4 570/22/4 572/22/4
f 574/21/1 573/21/1 575/21/1
f 574/21/1 575/21/1 576/21/1
f 578/216/5 577/215/5 579/217/5
f 578/216/5 579/217/5 580/218/5
f 582/124/1 581/124/1 583/124/1
f 582/124/1 583/124/1 584/124/1
f 586/220/5 585/219/5 587/221/5
f 586/220/5 587/221/5 588/222/5
f 590/22/5 589/22/5 591/22/5
f 590/22/5 591/22/5 592/22/5
f 594/22/1 593/22/1 595/22/1
f 594/22/1 595/22/1 596/22/1
f 598/224/5 597/223/5 599/225/5
f 598/224/5 599/225/5 600/226/5
f 602/228/3 601/227/3 603/229/3
f 602/228/3 603/229/3 604/230/3
f 605/130/6 606/130/6 607/130/6
f 607/130/6 606/130/6 608/130/6
f 609/22/4 610/22/4 611/22/4
f 611/22/4 610/22/4 612/22/4
f 614/22/5 613/22/5 615/22/5
f 614/22/5 615/22/5 616/22/5
f 618/22/3 617/22/3 619/22/3
f 618/22/3 619/22/3 620/22/3
f 622/232/1 621/231/1 623/233/1
f 622/232/1 623/233/1 624/234/1
f 626/236/5 625/235/5 627/237/5
f 626/236/5 627/237/5 628/238/5
f 630/240/3 629/239/3 631/241/3
f 630/240/3 631/241/3 632/242/3
f 633/27/6 634/27/6 635/27/6
f 635/27/6 634/27/6 636/27/6
f 638/244/5 637/243/5 639/245/5
f 638/244/5 639/245/5 640/246/5
f 642/22/5 641/22/5 643/22/5
f 642/22/5 643/22/5 644/22/5
f 645/22/6 646/22/6 647/22/6
f 647/22/6 646/22/6 648/22/6
f 650/124/1 649/124/1 651/124/1
f 650/124/1 651/124/1 652/124/1
f 654/248/5 653/247/5 655/249/5
f 654/248/5 655/249/5 656/250/5
f 658/124/3 657/124/3 659/124/3
f 658/124/3 659/124/3 660/124/3
f 662/22/5 661/22/5 663/22/5
f 662/22/5 663/22/5 664/22/5
f 666/95/1 665/95/1 667/95/1
f 666/95/1 667/95/1 668/95/1
f 670/252/5 669/251/5 671/253/5
f 670/252/5 671/253/5 672/254/5
f 673/22/6 674/22/6 675/22/6
f 675/22/6 674/22/6 676/22/6
f 677/255/4 678/256/4 679/257/4
f 679/257/4 678/256/4 680/258/4
f 682/260/1 681/259/1 683/261/1
f 682/260/1 683/261/1 684/262/1
f 686/124/5 685/124/5 687/124/5
f 686/124/5 687/124/5 688/124/5
f 690/124/5 689/124/5 691/124/5
f 690/124/5 691/124/5 692/124/5
f 694/124/1 693/124/1 695/124/1
f 694/124/1 695/124/1 696/124/1
f 698/264/5 697/263/5 699/265/5
f 698/264/5 699/265/5 700/266/5
f 702/124/3 701/124/3 703/124/3
f 702/124/3 703/124/3 704/124/3
f 705/22/4 706/22/4 707/22/4
f 707/22/4 706/22/4 708/22/4
f 710/268/5 709/267/5 711/269/5
f 710/268/5 711/269/5 712/270/5
f 714/124/1 713/124/1 715/124/1
f 714/124/1 715/124/1 716/124/1
f 718/272/5 717/271/5 719/273/5
f 718/272/5 719/273/5 720/274/5
f 722/124/3 721/124/3 723/124/3
f 722/124/3 723/124/3 724/124/3
f 726/276/5 725/275/5 727/277/5
f 726/276/5 727/277/5 728/278/5
f 730/280/3 729/279/3 731/281/3
f 730/280/3 731/281/3 732/282/3
f 733/22/4 734/22/4 735/22/4
f 735/22/4 734/22/4 736/22/4
f 737/22/6 738/22/6 739/22/6
f 739/22/6 738/22/6 740/22/6
f 741/95/6 742/95/6 743/95/6
f 743/95/6 742/95/6 744/95/6
f 746/124/5 745/124/5 747/124/5
f 746/124/5 747/124/5 748/124/5
f 749/124/4 750/124/4 751/124/4
f 751/124/4 750/124/4 752/124/4
f 754/284/5 753/283/5 755/285/5
f 754/284/5 755/285/5 756/286/5
f 758/124/3 757/124/3 759/124/3
f 758/124/3 759/124/3 760/124/3
f 762/124/1 761/124/1 763/124/1
f 762/124/1 763/124/1 764/124/1
f 766/124/5 765/124/5 767/124/5
f 766/124/5 767/124/5 768/124/5
f 770/124/3 769/124/3 771/124/3
f 770/124/3 771/124/3 772/124/3
f 774/288/5 773/287/5 775/289/5
f 774/288/5 775/289/5 776/290/5
f 778/22/5 777/22/5 779/22/5
f 778/22/5 779/22/5 780/22/5
f 781/291/4 782/292/4 783/293/4
f 783/293/4 782/292/4 784/294/4
f 786/296/1 785/295/1 787/297/1
f 786/296/1 787/297/1 788/298/1
f 790/300/5 789/299/5 791/301/5
f 790/300/5 791/301/5 792/302/5
f 794/22/3 793/22/3 795/22/3
f 794/22/3 795/22/3 796/22/3
f 797/45/4 798/45/4 799/45/4
f 799/45/4 798/45/4 800/45/4
f 802/36/1 801/36/1 803/36/1
f 802/36/1 803/36/1 804/36/1
f 806/304/5 805/303/5 807/305/5
f 806/304/5 807/305/5 808/306/5
f 810/308/5 809/307/5 811/309/5
f 810/308/5 811/309/5 812/310/5
f 814/74/3 813/74/3 815/74/3
f 814/74/3 815/74/3 816/74/3
f 818/124/5 817/124/5 819/124/5
f 818/124/5 819/124/5 820/124/5
f 822/124/3 821/124/3 823/124/3
f 822/124/3 823/124/3 824/124/3
f 825/22/4 826/22/4 827/22/4
f 827/22/4 826/22/4 828/22/4
f 830/22/5 829/22/5 831/22/5
f 830/22/5 831/22/5 832/22/5
f 834/22/3 833/22/3 835/22/3
f 834/22/3 835/22/3 836/22/3
f 838/124/1 837/124/1 839/124/1
f 838/124/1 839/124/1 840/124/1
f 842/312/5 841/311/5 843/313/5
f 842/312/5 843/313/5 844/314/5
f 846/124/3 845/124/3 847/124/3
f 846/124/3 847/124/3 848/124/3
f 850/316/5 849/315/5 851/317/5
f 850/316/5 851/317/5 852/318/5
f 854/74/3 853/74/3 855/74/3
f 854/74/3 855/74/3 856/74/3
f 858/319/1 857/319/1 859/319/1
f 858/319/1 859/319/1 860/319/1
f 862/319/5 861/319/5 863/319/5
f 862/319/5 863/319/5 864/319/5
f 866/319/3 865/319/3 867/319/3
f 866/319/3 867/319/3 868/319/3
f 869/320/6 870/321/6 871/322/6
f 871/322/6 870/321/6 872/323/6
f 874/22/5 873/22/5 875/22/5
f 874/22/5 875/22/5 876/22/5
f 877/22/6 878/22/6 879/22/6
f 879/22/6 878/22/6 880/22/6
f 882/22/5 881/22/5 883/22/5
f 882/22/5 883/22/5 884/22/5
f 886/22/3 885/22/3 887/22/3
f 886/22/3 887/22/3 888/22/3
f 890/22/5 889/22/5 891/22/5
f 890/22/5 891/22/5 892/22/5
f 893/22/4 894/22/4 895/22/4
f 895/22/4 894/22/4 896/22/4
f 897/22/6 898/22/6 899/22/6
f 899/22/6 898/22/6 900/22/6
f 901/22/4 902/22/4 903/22/4
f 903/22/4 902/22/4 904/22/4
f 906/22/1 905/22/1 907/22/1
f 906/22/1 907/22/1 908/22/1
f 910/22/5 909/22/5 911/22/5
f 910/22/5 911/22/5 912/22/5
f 914/22/3 913/22/3 915/22/3
f 914/22/3 915/22/3 916/22/3
f 917/22/6 918/22/6 919/22/6
f 919/22/6 918/22/6 920/22/6
f 922/22/5 921/22/5 923/22/5
f 922/22/5 923/22/5 924/22/5
f 926/22/5 925/22/5 927/22/5
f 926/22/5 927/22/5 928/22/5
f 929/22/4 930/22/4 931/22/4
f 931/22/4 930/22/4 932/22/4
f 934/124/1 933/124/1 935/124/1
f 934/124/1 935/124/1 936/124/1
f 938/22/5 937/22/5 939/22/5
f 938/22/5 939/22/5 940/22/5
f 942/22/5 941/22/5 943/22/5
f 942/22/5 943/22/5 944/22/5
f 946/22/5 945/22/5 947/22/5
f 946/22/5 947/22/5 948/22/5
f 949/22/4 950/22/4 951/22/4
f 951/22/4 950/22/4 952/22/4
f 953/22/6 954/22/6 955/22/6
f 955/22/6 954/22/6 956/22/6
f 957/324/4 958/325/4 959/326/4
f 959/326/4 958/325/4 960/327/4
f 962/319/1 961/319/1 963/319/1
f 962/319/1 963/319/1 964/319/1
f 966/329/5 965/328/5 967/330/5
f 966/329/5 967/330/5 968/331/5
f 970/319/3 969/319/3 971/319/3
f 970/319/3 971/319/3 972/319/3
f 973/332/4 974/333/4 975/334/4
f 975/334/4 974/333/4 976/335/4
f 978/22/1 977/22/1 979/22/1
f 978/22/1 979/22/1 980/22/1
f 982/337/5 981/336/5 983/338/5
f 982/337/5 983/338/5 984/339/5
f 986/22/3 985/22/3 987/22/3
f 986/22/3 987/22/3 988/22/3
f 990/341/1 989/340/1 991/342/1
f 990/341/1 991/342/1 992/343/1
f 994/345/5 993/344/5 995/346/5
f 994/345/5 995/346/5 996/347/5
f 998/130/3 997/130/3 999/130/3
f 998/130/3 999/130/3 1000/130/3
f 1002/22/5 1001/22/5 1003/22/5
f 1002/22/5 1003/22/5 1004/22/5
f 1006/22/5 1005/22/5 1007/22/5
f 1006/22/5 1007/22/5 1008/22/5
f 1010/22/3 1009/22/3 1011/22/3
f 1010/22/3 1011/22/3 1012/22/3
f 1013/95/4 1014/95/4 1015/95/4
f 1015/95/4 1014/95/4 1016/95/4
f 1018/349/5 1017/348/5 1019/350/5
f 1018/349/5 1019/350/5 1020/351/5
f 1022/130/1 1021/130/1 1023/130/1
f 1022/130/1 1023/130/1 1024/130/1
f 1026/353/5 1025/352/5 1027/354/5
f 1026/353/5 1027/354/5 1028/355/5
f 1030/357/3 1029/356/3 1031/358/3
f 1030/357/3 1031/358/3 1032/359/3
f 1033/22/4 1034/22/4 1035/22/4
f 1035/22/4 1034/22/4 1036/22/4
f 1038/36/1 1037/36/1 1039/36/1
f 1038/36/1 1039/36/1 1040/36/1
f 1042/361/5 1041/360/5 1043/362/5
f 1042/361/5 1043/362/5 1044/363/5
f 1046/365/3 1045/364/3 1047/366/3
f 1046/365/3 1047/366/3 1048/367/3
f 1050/95/1 1049/95/1 1051/95/1
f 1050/95/1 1051/95/1 1052/95/1
f 1054/95/5 1053/95/5 1055/95/5
f 1054/95/5 1055/95/5 1056/95/5
f 1058/95/3 1057/95/3 1059/95/3
f 1058/95/3 1059/95/3 1060/95/3
f 1061/95/6 1062/95/6 1063/95/6
f 1063/95/6 1062/95/6 1064/95/6
f 1065/22/6 1066/22/6 1067/22/6
f 1067/22/6 1066/22/6 1068/22/6
f 1070/22/5 1069/22/5 1071/22/5
f 1070/22/5 1071/22/5 1072/22/5
f 1074/22/5 1073/22/5 1075/22/5
f 1074/22/5 1075/22/5 1076/22/5
f 1078/369/5 1077/368/5 1079/370/5
f 1078/369/5 1079/370/5 1080/371/5
f 1082/74/3 1081/74/3 1083/74/3
f 1082/74/3 1083/74/3 1084/74/3
f 1086/373/5 1085/372/5 1087/374/5
f 1086/373/5 1087/374/5 1088/375/5
f 1090/377/3 1089/376/3 1091/378/3
f 1090/377/3 1091/378/3 1092/379/3
f 1093/95/4 1094/95/4 1095/95/4
f 1095/95/4 1094/95/4 1096/95/4
f 1098/381/5 1097/380/5 1099/382/5
f 1098/381/5 1099/382/5 1100/383/5
f 1102/95/3 1101/95/3 1103/95/3
f 1102/95/3 1103/95/3 1104/95/3
f 1106/95/1 1105/95/1 1107/95/1
f 1106/95/1 1107/95/1 1108/95/1
f 1109/95/6 1110/95/6 1111/95/6
f 1111/95/6 1110/95/6 1112/95/6
f 1113/95/4 1114/95/4 1115/95/4
f 1115/95/4 1114/95/4 1116/95/4
f 1118/385/5 1117/384/5 1119/386/5
f 1118/385/5 1119/386/5 1120/387/5
f 1122/95/3 1121/95/3 1123/95/3
f 1122/95/3 1123/95/3 1124/95/3
f 1126/22/1 1125/22/1 1127/22/1
f 1126/22/1 1127/22/1 1128/22/1
f 1130/389/5 1129/388/5 1131/390/5
f 1130/389/5 1131/390/5 1132/391/5
f 1134/22/5 1133/22/5 1135/22/5
f 1134/22/5 1135/22/5 1136/22/5
f 1137/392/4 1138/393/4 1139/394/4
f 1139/394/4 1138/393/4 1140/395/4
f 1142/397/5 1141/396/5 1143/398/5
f 1142/397/5 1143/398/5 1144/399/5
f 1146/45/3 1145/45/3 1147/45/3
f 1146/45/3 1147/45/3 1148/45/3
f 1150/27/1 1149/27/1 1151/27/1
f 1150/27/1 1151/27/1 1152/27/1
f 1153/27/6 1154/27/6 1155/27/6
f 1155/27/6 1154/27/6 1156/27/6
f 1158/401/5 1157/400/5 1159/402/5
f 1158/401/5 1159/402/5 1160/403/5
f 1162/95/3 1161/95/3 1163/95/3
f 1162/95/3 1163/95/3 1164/95/3
f 1165/130/6 1166/130/6 1167/130/6
f 1167/130/6 1166/130/6 1168/130/6
f 1170/22/5 1169/22/5 1171/22/5
f 1170/22/5 1171/22/5 1172/22/5
f 1174/22/5 1173/22/5 1175/22/5
f 1174/22/5 1175/22/5 1176/22/5
f 1178/27/1 1177/27/1 1179/27/1
f 1178/27/1 1179/27/1 1180/27/1
f 1181/95/4 1182/95/4 1183/95/4
f 1183/95/4 1182/95/4 1184/95/4
f 1186/45/1 1185/45/1 1187/45/1
f 1186/45/1 1187/45/1 1188/45/1
f 1190/405/5 1189/404/5 1191/406/5
f 1190/405/5 1191/406/5 1192/407/5
f 1194/409/5 1193/408/5 1195/410/5
f 1194/409/5 1195/410/5 1196/411/5
f 1198/413/3 1197/412/3 1199/414/3
f 1198/413/3 1199/414/3 1200/415/3
f 1202/417/5 1201/416/5 1203/418/5
f 1202/417/5 1203/418/5 1204/419/5
f 1206/125/3 1205/125/3 1207/125/3
f 1206/125/3 1207/125/3 1208/125/3
f 1209/420/6 1210/421/6 1211/422/6
f 1211/422/6 1210/421/6 1212/423/6
