# Export of Cubik Model: Cubik Model
# Designed by MeLee with Cubik Studio - https://cubik.studio
# from Cubik OBJ Exporter v1.0
mtllib grass_1c.mtl
v 0 0 1.907349E-06
v -16 0 1.907349E-06
v 0 2 1.907349E-06
v -16 2 1.907349E-06
v 0 0 1.907349E-06
v -16 0 1.907349E-06
v 0 0 -16
v -16 0 -16
v 0 0 1.907349E-06
v 0 2 1.907349E-06
v 0 0 -16
v 0 2 -16
v 0 0 -16
v -16 0 -16
v 0 2 -16
v -16 2 -16
v 0 2 1.907349E-06
v -4 2 1.907349E-06
v 0 2 -16
v -4 2 -16
v -4 1.5 -6.999998
v -4 2 -6.999998
v -4 1.5 -8.499998
v -4 2 -8.499998
v -4 1.5 -6.999998
v -8.5 1.5 -6.999998
v -4 1.5 -8.499998
v -8.5 1.5 -8.499998
v -4 2 1.907349E-06
v -4.5 2 1.907349E-06
v -4 2 -6.999998
v -4.5 2 -6.999998
v -4.5 1.5 -5.999998
v -4.5 2 -5.999998
v -4.5 1.5 -6.999998
v -4.5 2 -6.999998
v -4 1.5 -6.999998
v -4.5 1.5 -6.999998
v -4 2 -6.999998
v -4.5 2 -6.999998
v -4 1.5 -8.499998
v -4.5 1.5 -8.499998
v -4 2 -8.499998
v -4.5 2 -8.499998
v -4 2 -8.499998
v -4.5 2 -8.499998
v -4 2 -16
v -4.5 2 -16
v -4.5 1.5 -8.499998
v -4.5 2 -8.499998
v -4.5 1.5 -9.499998
v -4.5 2 -9.499998
v -4.5 1.5 -5.999998
v -5.5 1.5 -5.999998
v -4.5 1.5 -6.999998
v -5.5 1.5 -6.999998
v -4.5 1.5 -8.499998
v -5 1.5 -8.499998
v -4.5 1.5 -9.499998
v -5 1.5 -9.499998
v -4.5 2 1.907349E-06
v -7.5 2 1.907349E-06
v -4.5 2 -5.999998
v -7.5 2 -5.999998
v -4.5 1.5 -5.999998
v -7.5 1.5 -5.999998
v -4.5 2 -5.999998
v -7.5 2 -5.999998
v -4.5 1.5 -9.499998
v -5 1.5 -9.499998
v -4.5 2 -9.499998
v -5 2 -9.499998
v -4.5 2 -9.499998
v -5 2 -9.499998
v -4.5 2 -16
v -5 2 -16
v -5 1.5 -9.499998
v -5 2 -9.499998
v -5 1.5 -9.999998
v -5 2 -9.999998
v -5 1.5 -8.499998
v -8.5 1.5 -8.499998
v -5 1.5 -8.999998
v -8.5 1.5 -8.999998
v -5 1.5 -9.499998
v -6 1.5 -9.499998
v -5 1.5 -9.999998
v -6 1.5 -9.999998
v -5 1.5 -9.499998
v -5.5 1.5 -9.499998
v -5 2 -9.499998
v -5.5 2 -9.499998
v -5 1.5 -8.999998
v -5.5 1.5 -8.999998
v -5 2 -8.999998
v -5.5 2 -8.999998
v -5 2 -8.999998
v -5.5 2 -8.999998
v -5 2 -9.499998
v -5.5 2 -9.499998
v -5 1.5 -8.999998
v -5 2 -8.999998
v -5 1.5 -9.499998
v -5 2 -9.499998
v -5.5 1.5 -8.999998
v -5.5 2 -8.999998
v -5.5 1.5 -9.499998
v -5.5 2 -9.499998
v -5 1.5 -9.999998
v -6 1.5 -9.999998
v -5 2 -9.999998
v -6 2 -9.999998
v -5 2 -9.999998
v -6 2 -9.999998
v -5 2 -16
v -6 2 -16
v -5.5 1.5 -5.999998
v -7.5 1.5 -5.999998
v -5.5 1.5 -6.499998
v -7.5 1.5 -6.499998
v -5.5 1.5 -8.999998
v -8 1.5 -8.999998
v -5.5 1.5 -9.499998
v -8 1.5 -9.499998
v -5.5 1.5 -6.999998
v -6 1.5 -6.999998
v -5.5 2 -6.999998
v -6 2 -6.999998
v -5.5 1.5 -6.499998
v -6 1.5 -6.499998
v -5.5 2 -6.499998
v -6 2 -6.499998
v -5.5 2 -6.499998
v -6 2 -6.499998
v -5.5 2 -6.999998
v -6 2 -6.999998
v -5.5 1.5 -6.499998
v -5.5 2 -6.499998
v -5.5 1.5 -6.999998
v -5.5 2 -6.999998
v -6 1.5 -6.499998
v -6 2 -6.499998
v -6 1.5 -6.999998
v -6 2 -6.999998
v -6 1.5 -9.999998
v -6 2 -9.999998
v -6 1.5 -10.5
v -6 2 -10.5
v -6 1.5 -6.499998
v -6.5 1.5 -6.499998
v -6 1.5 -6.999998
v -6.5 1.5 -6.999998
v -6 1.5 -9.999998
v -6.5 1.5 -9.999998
v -6 1.5 -10.5
v -6.5 1.5 -10.5
v -6 1.5 -9.999998
v -6.5 1.5 -9.999998
v -6 2 -9.999998
v -6.5 2 -9.999998
v -6 1.5 -9.499998
v -6.5 1.5 -9.499998
v -6 2 -9.499998
v -6.5 2 -9.499998
v -6 2 -9.499998
v -6.5 2 -9.499998
v -6 2 -9.999998
v -6.5 2 -9.999998
v -6 1.5 -9.499998
v -6 2 -9.499998
v -6 1.5 -9.999998
v -6 2 -9.999998
v -6.5 1.5 -9.499998
v -6.5 2 -9.499998
v -6.5 1.5 -9.999998
v -6.5 2 -9.999998
v -6 1.5 -10.5
v -6.5 1.5 -10.5
v -6 2 -10.5
v -6.5 2 -10.5
v -6 2 -10.5
v -6.5 2 -10.5
v -6 2 -16
v -6.5 2 -16
v -6.5 1.5 -10.5
v -6.5 2 -10.5
v -6.5 1.5 -11
v -6.5 2 -11
v -6.5 1.5 -9.499998
v -9.5 1.5 -9.499998
v -6.5 1.5 -9.999998
v -9.5 1.5 -9.999998
v -6.5 1.5 -10.5
v -9 1.5 -10.5
v -6.5 1.5 -11
v -9 1.5 -11
v -6.5 1.5 -6.999998
v -7 1.5 -6.999998
v -6.5 2 -6.999998
v -7 2 -6.999998
v -6.5 1.5 -6.499998
v -7 1.5 -6.499998
v -6.5 2 -6.499998
v -7 2 -6.499998
v -6.5 2 -6.499998
v -7 2 -6.499998
v -6.5 2 -6.999998
v -7 2 -6.999998
v -6.5 1.5 -6.499998
v -6.5 2 -6.499998
v -6.5 1.5 -6.999998
v -6.5 2 -6.999998
v -7 1.5 -6.499998
v -7 2 -6.499998
v -7 1.5 -6.999998
v -7 2 -6.999998
v -6.5 1.5 -10.5
v -7 1.5 -10.5
v -6.5 2 -10.5
v -7 2 -10.5
v -6.5 1.5 -9.999998
v -7 1.5 -9.999998
v -6.5 2 -9.999998
v -7 2 -9.999998
v -6.5 2 -9.999998
v -7 2 -9.999998
v -6.5 2 -10.5
v -7 2 -10.5
v -6.5 1.5 -9.999998
v -6.5 2 -9.999998
v -6.5 1.5 -10.5
v -6.5 2 -10.5
v -7 1.5 -9.999998
v -7 2 -9.999998
v -7 1.5 -10.5
v -7 2 -10.5
v -6.5 1.5 -11
v -7.5 1.5 -11
v -6.5 2 -11
v -7.5 2 -11
v -6.5 2 -11
v -7.5 2 -11
v -6.5 2 -16
v -7.5 2 -16
v -7 1.5 -6.499998
v -9 1.5 -6.499998
v -7 1.5 -6.999998
v -9 1.5 -6.999998
v -7 1.5 -9.999998
v -12.5 1.5 -9.999998
v -7 1.5 -10.5
v -12.5 1.5 -10.5
v -7.5 1.5 -5.499998
v -7.5 2 -5.499998
v -7.5 1.5 -5.999998
v -7.5 2 -5.999998
v -7.5 1.5 -11
v -7.5 2 -11
v -7.5 1.5 -11.5
v -7.5 2 -11.5
v -7.5 1.5 -5.499998
v -8 1.5 -5.499998
v -7.5 1.5 -5.999998
v -8 1.5 -5.999998
v -8 1 -8.999998
v -8 1.5 -8.999998
v -8 1 -9.499998
v -8 1.5 -9.499998
v -7.5 1.5 -11
v -9.5 1.5 -11
v -7.5 1.5 -11.5
v -9.5 1.5 -11.5
v -7.5 2 1.907349E-06
v -16 2 1.907349E-06
v -7.5 2 -5.499998
v -16 2 -5.499998
v -7.5 1.5 -5.499998
v -8 1.5 -5.499998
v -7.5 2 -5.499998
v -8 2 -5.499998
v -7.5 1.5 -6.499998
v -8 1.5 -6.499998
v -7.5 2 -6.499998
v -8 2 -6.499998
v -7.5 1.5 -5.999998
v -8 1.5 -5.999998
v -7.5 2 -5.999998
v -8 2 -5.999998
v -7.5 2 -5.999998
v -8 2 -5.999998
v -7.5 2 -6.499998
v -8 2 -6.499998
v -7.5 1.5 -5.999998
v -7.5 2 -5.999998
v -7.5 1.5 -6.499998
v -7.5 2 -6.499998
v -8 1.5 -5.999998
v -8 2 -5.999998
v -8 1.5 -6.499998
v -8 2 -6.499998
v -7.5 1.5 -11.5
v -8.5 1.5 -11.5
v -7.5 2 -11.5
v -8.5 2 -11.5
v -7.5 2 -11.5
v -8.5 2 -11.5
v -7.5 2 -16
v -8.5 2 -16
v -8 1 -8.999998
v -11 1 -8.999998
v -8 1 -9.499998
v -11 1 -9.499998
v -8 1.5 -5.999998
v -8.5 1.5 -5.999998
v -8 1.5 -6.499998
v -8.5 1.5 -6.499998
v -8 1 -8.999998
v -8.5 1 -8.999998
v -8 1.5 -8.999998
v -8.5 1.5 -8.999998
v -8.5 1 -8.499998
v -8.5 1.5 -8.499998
v -8.5 1 -8.999998
v -8.5 1.5 -8.999998
v -8 1 -9.499998
v -9.5 1 -9.499998
v -8 1.5 -9.499998
v -9.5 1.5 -9.499998
v -8 1.5 -5.999998
v -8.5 1.5 -5.999998
v -8 2 -5.999998
v -8.5 2 -5.999998
v -8 2 -5.499998
v -16 2 -5.499998
v -8 2 -5.999998
v -16 2 -5.999998
v -8 1.5 -5.499998
v -8 2 -5.499998
v -8 1.5 -5.999998
v -8 2 -5.999998
v -8.5 1.5 -11.5
v -8.5 2 -11.5
v -8.5 1.5 -12
v -8.5 2 -12
v -8.5 1 -8.499998
v -11 1 -8.499998
v -8.5 1 -8.999998
v -11 1 -8.999998
v -8.5 1.5 -7.499998
v -12 1.5 -7.499998
v -8.5 1.5 -8.499998
v -12 1.5 -8.499998
v -8.5 1 -8.499998
v -11 1 -8.499998
v -8.5 1.5 -8.499998
v -11 1.5 -8.499998
v -8.5 1.5 -11.5
v -9.5 1.5 -11.5
v -8.5 1.5 -12
v -9.5 1.5 -12
v -8.5 1.5 -6.499998
v -9 1.5 -6.499998
v -8.5 2 -6.499998
v -9 2 -6.499998
v -8.5 2 -5.999998
v -10.5 2 -5.999998
v -8.5 2 -6.499998
v -10.5 2 -6.499998
v -8.5 1.5 -5.999998
v -8.5 2 -5.999998
v -8.5 1.5 -6.499998
v -8.5 2 -6.499998
v -8.5 1.5 -7.499998
v -9 1.5 -7.499998
v -8.5 2 -7.499998
v -9 2 -7.499998
v -8.5 1.5 -6.999998
v -9 1.5 -6.999998
v -8.5 2 -6.999998
v -9 2 -6.999998
v -8.5 2 -6.999998
v -9 2 -6.999998
v -8.5 2 -7.499998
v -9 2 -7.499998
v -8.5 1.5 -6.999998
v -8.5 2 -6.999998
v -8.5 1.5 -7.499998
v -8.5 2 -7.499998
v -9 1.5 -6.999998
v -9 2 -6.999998
v -9 1.5 -7.499998
v -9 2 -7.499998
v -8.5 1.5 -12
v -9.5 1.5 -12
v -8.5 2 -12
v -9.5 2 -12
v -8.5 2 -12
v -16 2 -12
v -8.5 2 -16
v -16 2 -16
v -9 1.5 -6.999998
v -10.5 1.5 -6.999998
v -9 1.5 -7.499998
v -10.5 1.5 -7.499998
v -9.5 1 -9.499998
v -9.5 1.5 -9.499998
v -9.5 1 -9.999998
v -9.5 1.5 -9.999998
v -9 1.5 -6.999998
v -10 1.5 -6.999998
v -9 2 -6.999998
v -10 2 -6.999998
v -9 2 -6.499998
v -10 2 -6.499998
v -9 2 -6.999998
v -10 2 -6.999998
v -9 1.5 -6.499998
v -9 2 -6.499998
v -9 1.5 -6.999998
v -9 2 -6.999998
v -9 1.5 -11
v -9.5 1.5 -11
v -9 2 -11
v -9.5 2 -11
v -9 1.5 -10.5
v -9.5 1.5 -10.5
v -9 2 -10.5
v -9.5 2 -10.5
v -9 2 -10.5
v -9.5 2 -10.5
v -9 2 -11
v -9.5 2 -11
v -9 1.5 -10.5
v -9 2 -10.5
v -9 1.5 -11
v -9 2 -11
v -9.5 1.5 -10.5
v -9.5 2 -10.5
v -9.5 1.5 -11
v -9.5 2 -11
v -9.5 1 -9.499998
v -11 1 -9.499998
v -9.5 1 -9.999998
v -11 1 -9.999998
v -9.5 1 -9.999998
v -12 1 -9.999998
v -9.5 1.5 -9.999998
v -12 1.5 -9.999998
v -9.5 1.5 -10.5
v -11 1.5 -10.5
v -9.5 1.5 -11
v -11 1.5 -11
v -10 1.5 -6.499998
v -10 2 -6.499998
v -10 1.5 -6.999998
v -10 2 -6.999998
v -9.5 1.5 -11
v -11 1.5 -11
v -9.5 2 -11
v -11 2 -11
v -9.5 2 -11
v -16 2 -11
v -9.5 2 -12
v -16 2 -12
v -9.5 1.5 -11
v -9.5 2 -11
v -9.5 1.5 -12
v -9.5 2 -12
v -10 1.5 -6.499998
v -10.5 1.5 -6.499998
v -10 1.5 -6.999998
v -10.5 1.5 -6.999998
v -10 1.5 -6.499998
v -10.5 1.5 -6.499998
v -10 2 -6.499998
v -10.5 2 -6.499998
v -10.5 1.5 -5.999998
v -10.5 2 -5.999998
v -10.5 1.5 -6.499998
v -10.5 2 -6.499998
v -11 0.5 -9.499998
v -11 1 -9.499998
v -11 0.5 -9.999998
v -11 1 -9.999998
v -10.5 1.5 -5.999998
v -11 1.5 -5.999998
v -10.5 1.5 -6.499998
v -11 1.5 -6.499998
v -10.5 1.5 -5.999998
v -11 1.5 -5.999998
v -10.5 2 -5.999998
v -11 2 -5.999998
v -10.5 1.5 -6.499998
v -11 1.5 -6.499998
v -10.5 2 -6.499998
v -11 2 -6.499998
v -10.5 2 -6.499998
v -16 2 -6.499998
v -10.5 2 -7.499998
v -16 2 -7.499998
v -10.5 1.5 -6.499998
v -10.5 2 -6.499998
v -10.5 1.5 -7.499998
v -10.5 2 -7.499998
v -10.5 1.5 -7.499998
v -12 1.5 -7.499998
v -10.5 2 -7.499998
v -12 2 -7.499998
v -11 0.5 -9.499998
v -11.5 0.5 -9.499998
v -11 0.5 -9.999998
v -11.5 0.5 -9.999998
v -11 0.5 -9.499998
v -11.5 0.5 -9.499998
v -11 1.5 -9.499998
v -11.5 1.5 -9.499998
v -11 0.5 -9.999998
v -11.5 0.5 -9.999998
v -11 1 -9.999998
v -11.5 1 -9.999998
v -11 1.5 -8.499998
v -11.5 1.5 -8.499998
v -11 1.5 -9.499998
v -11.5 1.5 -9.499998
v -11 1 -8.499998
v -11 1.5 -8.499998
v -11 1 -9.499998
v -11 1.5 -9.499998
v -11.5 1 -8.499998
v -11.5 1.5 -8.499998
v -11.5 1 -8.999998
v -11.5 1.5 -8.999998
v -11 2 -5.999998
v -16 2 -5.999998
v -11 2 -6.499998
v -16 2 -6.499998
v -11 1.5 -5.999998
v -11 2 -5.999998
v -11 1.5 -6.499998
v -11 2 -6.499998
v -11 1.5 -10.5
v -12.5 1.5 -10.5
v -11 2 -10.5
v -12.5 2 -10.5
v -11 2 -10.5
v -12.5 2 -10.5
v -11 2 -11
v -12.5 2 -11
v -11 1.5 -10.5
v -11 2 -10.5
v -11 1.5 -11
v -11 2 -11
v -11.5 1 -8.499998
v -12 1 -8.499998
v -11.5 1 -8.999998
v -12 1 -8.999998
v -11.5 1 -9.499998
v -12 1 -9.499998
v -11.5 1 -9.999998
v -12 1 -9.999998
v -11.5 0.5 -9.499998
v -11.5 1 -9.499998
v -11.5 0.5 -9.999998
v -11.5 1 -9.999998
v -11.5 1 -8.499998
v -12 1 -8.499998
v -11.5 1.5 -8.499998
v -12 1.5 -8.499998
v -11.5 1 -9.499998
v -12 1 -9.499998
v -11.5 1.5 -9.499998
v -12 1.5 -9.499998
v -11.5 1 -8.999998
v -12 1 -8.999998
v -11.5 1.5 -8.999998
v -12 1.5 -8.999998
v -11.5 1.5 -8.999998
v -14.5 1.5 -8.999998
v -11.5 1.5 -9.499998
v -14.5 1.5 -9.499998
v -12 1.5 -7.999998
v -13.5 1.5 -7.999998
v -12 1.5 -8.999998
v -13.5 1.5 -8.999998
v -12 1 -8.499998
v -12 1.5 -8.499998
v -12 1 -8.999998
v -12 1.5 -8.999998
v -12 1.5 -9.499998
v -13.5 1.5 -9.499998
v -12 1.5 -9.999998
v -13.5 1.5 -9.999998
v -12 1 -9.499998
v -12 1.5 -9.499998
v -12 1 -9.999998
v -12 1.5 -9.999998
v -12 1.5 -7.999998
v -13.5 1.5 -7.999998
v -12 2 -7.999998
v -13.5 2 -7.999998
v -12 2 -7.499998
v -16 2 -7.499998
v -12 2 -7.999998
v -16 2 -7.999998
v -12 1.5 -7.499998
v -12 2 -7.499998
v -12 1.5 -7.999998
v -12 2 -7.999998
v -12.5 1.5 -10.5
v -12.5 2 -10.5
v -12.5 1.5 -11
v -12.5 2 -11
v -12.5 1.5 -10.5
v -13 1.5 -10.5
v -12.5 1.5 -11
v -13 1.5 -11
v -12.5 1.5 -10.5
v -13 1.5 -10.5
v -12.5 2 -10.5
v -13 2 -10.5
v -12.5 1.5 -9.999998
v -13.5 1.5 -9.999998
v -12.5 2 -9.999998
v -13.5 2 -9.999998
v -12.5 2 -9.999998
v -16 2 -9.999998
v -12.5 2 -10.5
v -16 2 -10.5
v -12.5 1.5 -9.999998
v -12.5 2 -9.999998
v -12.5 1.5 -10.5
v -12.5 2 -10.5
v -12.5 1.5 -11
v -13 1.5 -11
v -12.5 2 -11
v -13 2 -11
v -13 2 -10.5
v -16 2 -10.5
v -13 2 -11
v -16 2 -11
v -13 1.5 -10.5
v -13 2 -10.5
v -13 1.5 -11
v -13 2 -11
v -13.5 2 -7.999998
v -16 2 -7.999998
v -13.5 2 -8.999998
v -16 2 -8.999998
v -13.5 1.5 -7.999998
v -13.5 2 -7.999998
v -13.5 1.5 -8.999998
v -13.5 2 -8.999998
v -13.5 1.5 -8.999998
v -14.5 1.5 -8.999998
v -13.5 2 -8.999998
v -14.5 2 -8.999998
v -13.5 1.5 -9.499998
v -14.5 1.5 -9.499998
v -13.5 2 -9.499998
v -14.5 2 -9.499998
v -13.5 2 -9.499998
v -16 2 -9.499998
v -13.5 2 -9.999998
v -16 2 -9.999998
v -13.5 1.5 -9.499998
v -13.5 2 -9.499998
v -13.5 1.5 -9.999998
v -13.5 2 -9.999998
v -14.5 2 -8.999998
v -16 2 -8.999998
v -14.5 2 -9.499998
v -16 2 -9.499998
v -14.5 1.5 -8.999998
v -14.5 2 -8.999998
v -14.5 1.5 -9.499998
v -14.5 2 -9.499998
v -16 0 1.907349E-06
v -16 2 1.907349E-06
v -16 0 -16
v -16 2 -16
vn 0 -5.960464E-08 0.9999999
vn 0 -0.9999999 -5.960464E-08
vn 1 0 0
vn 0 5.960464E-08 -0.9999999
vn 0 0.9999999 5.960464E-08
vn -1 0 0
vt 0.7265625 0.015625
vt 0.9765625 0.015625
vt 0.7265625 0.078125
vt 0.9765625 0.078125
vt 0.0078125 0.015625
vt 0.2578125 0.015625
vt 0.0078125 0.515625
vt 0.2578125 0.515625
vt 0.3828125 0.015625
vt 0.4140625 0.015625
vt 0.3828125 0.515625
vt 0.4140625 0.515625
vt 0.4453125 0.015625
vt 0.6953125 0.015625
vt 0.4453125 0.078125
vt 0.6953125 0.078125
vt 0.2890625 0.015625
vt 0.3515625 0.015625
vt 0.2890625 0.515625
vt 0.3515625 0.515625
vt 0.5078125 0.5
vt 0.515625 0.5
vt 0.5078125 0.546875
vt 0.515625 0.546875
vt 0.171875 0.828125
vt 0.2421875 0.828125
vt 0.171875 0.875
vt 0.2421875 0.875
vt 0.4453125 0.703125
vt 0.453125 0.703125
vt 0.4453125 0.921875
vt 0.453125 0.921875
vt 0.5078125 0.609375
vt 0.515625 0.609375
vt 0.5078125 0.640625
vt 0.515625 0.640625
vt 0.765625 0.671875
vt 0.3828125 0.578125
vt 0.390625 0.578125
vt 0.3828125 0.8125
vt 0.390625 0.8125
vt 0.7265625 0.75
vt 0.734375 0.75
vt 0.7265625 0.78125
vt 0.734375 0.78125
vt 0.546875 0.4375
vt 0.5625 0.4375
vt 0.546875 0.46875
vt 0.5625 0.46875
vt 0.5078125 0.796875
vt 0.515625 0.796875
vt 0.5078125 0.828125
vt 0.515625 0.828125
vt 0.171875 0.578125
vt 0.21875 0.578125
vt 0.171875 0.765625
vt 0.21875 0.765625
vt 0.59375 0.3125
vt 0.640625 0.3125
vt 0.59375 0.328125
vt 0.640625 0.328125
vt 0.5078125 0.234375
vt 0.515625 0.234375
vt 0.5078125 0.4375
vt 0.515625 0.4375
vt 0.703125 0.234375
vt 0.7578125 0.234375
vt 0.703125 0.25
vt 0.7578125 0.25
vt 0.546875 0.53125
vt 0.5625 0.53125
vt 0.546875 0.546875
vt 0.5625 0.546875
vt 0.890625 0.546875
vt 0.8359375 0.390625
vt 0.8515625 0.390625
vt 0.8359375 0.40625
vt 0.8515625 0.40625
vt 0.2890625 0.578125
vt 0.3046875 0.578125
vt 0.2890625 0.765625
vt 0.3046875 0.765625
vt 0.7421875 0.3125
vt 0.7734375 0.3125
vt 0.7421875 0.328125
vt 0.7734375 0.328125
vt 0.59375 0.78125
vt 0.6328125 0.78125
vt 0.59375 0.796875
vt 0.6328125 0.796875
vt 0.765625 0.734375
vt 0.765625 0.921875
vt 0.25 0.578125
vt 0.2578125 0.578125
vt 0.25 0.75
vt 0.2578125 0.75
vt 0.59375 0.46875
vt 0.640625 0.46875
vt 0.59375 0.484375
vt 0.640625 0.484375
vt 0.59375 0.859375
vt 0.6328125 0.859375
vt 0.59375 0.875
vt 0.6328125 0.875
vt 0.859375 0.46875
vt 0.546875 0.921875
vt 0.5625 0.921875
vt 0.546875 0.9375
vt 0.5625 0.9375
vt 0.3359375 0.578125
vt 0.3515625 0.578125
vt 0.3359375 0.734375
vt 0.3515625 0.734375
vt 0.8671875 0.3125
vt 0.8984375 0.3125
vt 0.8671875 0.328125
vt 0.8984375 0.328125
vt 0.171875 0.9375
vt 0.2578125 0.9375
vt 0.171875 0.953125
vt 0.2578125 0.953125
vt 0.828125 0.546875
vt 0.796875 0.546875
vt 0.7265625 0.9375
vt 0.9296875 0.3125
vt 0.9609375 0.3125
vt 0.9296875 0.328125
vt 0.9609375 0.328125
vt 0.0078125 0.578125
vt 0.140625 0.578125
vt 0.0078125 0.75
vt 0.140625 0.75
vt 0.765625 0.546875
vt 0.8125 0.46875
vt 0.828125 0.46875
vt 0.8125 0.484375
vt 0.828125 0.484375
vt 0.546875 0.234375
vt 0.5625 0.234375
vt 0.546875 0.375
vt 0.5625 0.375
vt 0.875 0.234375
vt 0.921875 0.234375
vt 0.875 0.25
vt 0.921875 0.25
vt 0.765625 0.859375
vt 0.671875 0.703125
vt 0.6953125 0.703125
vt 0.671875 0.71875
vt 0.6953125 0.71875
vt 0.640625 0.140625
vt 0.765625 0.140625
vt 0.640625 0.15625
vt 0.765625 0.15625
vt 0.59375 0.9375
vt 0.6328125 0.9375
vt 0.59375 0.953125
vt 0.6328125 0.953125
vt 0.2890625 0.828125
vt 0.34375 0.828125
vt 0.2890625 0.859375
vt 0.34375 0.859375
vt 0.59375 0.703125
vt 0.6328125 0.703125
vt 0.59375 0.71875
vt 0.6328125 0.71875
vt 0.546875 0.609375
vt 0.5625 0.609375
vt 0.546875 0.625
vt 0.5625 0.625
vt 0.8046875 0.3125
vt 0.8359375 0.3125
vt 0.8046875 0.328125
vt 0.8359375 0.328125
vt 0.546875 0.6875
vt 0.5625 0.6875
vt 0.546875 0.703125
vt 0.5625 0.703125
vt 0.0078125 0.8125
vt 0.125 0.8125
vt 0.0078125 0.9375
vt 0.125 0.9375
vt 0.671875 0.9375
vt 0.6953125 0.9375
vt 0.671875 0.953125
vt 0.6953125 0.953125
vt 0.546875 0.765625
vt 0.5625 0.765625
vt 0.546875 0.78125
vt 0.5625 0.78125
vt 0.546875 0.84375
vt 0.5625 0.84375
vt 0.546875 0.859375
vt 0.5625 0.859375
vt 0.859375 0.546875
vt 0.671875 0.390625
vt 0.6953125 0.390625
vt 0.671875 0.40625
vt 0.6953125 0.40625
vt 0.59375 0.625
vt 0.6328125 0.625
vt 0.59375 0.640625
vt 0.6328125 0.640625
vt 0.671875 0.546875
vt 0.6953125 0.546875
vt 0.671875 0.5625
vt 0.6953125 0.5625
vt 0.671875 0.625
vt 0.6953125 0.625
vt 0.671875 0.640625
vt 0.6953125 0.640625
vt 0.5078125 0.140625
vt 0.609375 0.140625
vt 0.5078125 0.171875
vt 0.609375 0.171875
vt 0.5078125 0.703125
vt 0.515625 0.703125
vt 0.5078125 0.734375
vt 0.515625 0.734375
vt 0.765625 0.609375
vt 0.921875 0.46875
vt 0.953125 0.46875
vt 0.796875 0.140625
vt 0.8828125 0.140625
vt 0.796875 0.171875
vt 0.8828125 0.171875
vt 0.5078125 0.890625
vt 0.515625 0.890625
vt 0.5078125 0.921875
vt 0.515625 0.921875
vt 0.953125 0.234375
vt 0.9765625 0.234375
vt 0.953125 0.25
vt 0.9765625 0.25
vt 0.921875 0.546875
vt 0.7265625 0.46875
vt 0.734375 0.46875
vt 0.7265625 0.5
vt 0.734375 0.5
vt 0.7265625 0.5625
vt 0.734375 0.5625
vt 0.7265625 0.59375
vt 0.734375 0.59375
vt 0.7265625 0.65625
vt 0.734375 0.65625
vt 0.7265625 0.6875
vt 0.734375 0.6875
vt 0.59375 0.234375
vt 0.671875 0.234375
vt 0.59375 0.25
vt 0.671875 0.25
vt 0.671875 0.78125
vt 0.6953125 0.78125
vt 0.671875 0.796875
vt 0.6953125 0.796875
vt 0.671875 0.859375
vt 0.6953125 0.859375
vt 0.671875 0.875
vt 0.6953125 0.875
vt 0.9765625 0.390625
vt 0.59375 0.546875
vt 0.640625 0.546875
vt 0.59375 0.5625
vt 0.640625 0.5625
vt 0.3828125 0.875
vt 0.40625 0.875
vt 0.3828125 0.90625
vt 0.40625 0.90625
vt 0.890625 0.46875
vt 0.7265625 0.390625
vt 0.75 0.390625
vt 0.7265625 0.40625
vt 0.75 0.40625
vt 0.78125 0.390625
vt 0.8046875 0.390625
vt 0.78125 0.40625
vt 0.8046875 0.40625
vt 0.2890625 0.921875
vt 0.3515625 0.921875
vt 0.2890625 0.9375
vt 0.3515625 0.9375
vt 0.953125 0.546875
vt 0.8828125 0.390625
vt 0.8984375 0.390625
vt 0.8828125 0.40625
vt 0.8984375 0.40625
vt 0.7890625 0.234375
vt 0.84375 0.234375
vt 0.7890625 0.25
vt 0.84375 0.25
vt 0.765625 0.796875
vt 0.59375 0.390625
vt 0.640625 0.390625
vt 0.59375 0.40625
vt 0.640625 0.40625
vt 0.9140625 0.140625
vt 0.953125 0.140625
vt 0.9140625 0.171875
vt 0.953125 0.171875
vt 0.7265625 0.84375
vt 0.734375 0.84375
vt 0.7265625 0.875
vt 0.734375 0.875
vt 0.9296875 0.390625
vt 0.9453125 0.390625
vt 0.9296875 0.40625
vt 0.9453125 0.40625
vt 0.765625 0.46875
vt 0.78125 0.46875
vt 0.765625 0.484375
vt 0.78125 0.484375
vt 0.671875 0.3125
vt 0.7109375 0.3125
vt 0.671875 0.328125
vt 0.7109375 0.328125
vt 0.671875 0.46875
vt 0.6953125 0.46875
vt 0.671875 0.484375
vt 0.6953125 0.484375
vt 0.4453125 0.140625
vt 0.4765625 0.140625
vt 0.4453125 0.640625
vt 0.4765625 0.640625
usemtl voxel
f 2/2/1 1/1/1 3/3/1
f 2/2/1 3/3/1 4/4/1
f 5/5/2 6/6/2 7/7/2
f 7/7/2 6/6/2 8/8/2
f 10/10/3 9/9/3 11/11/3
f 10/10/3 11/11/3 12/12/3
f 13/13/4 14/14/4 15/15/4
f 15/15/4 14/14/4 16/16/4
f 18/18/5 17/17/5 19/19/5
f 18/18/5 19/19/5 20/20/5
f 21/21/6 22/22/6 23/23/6
f 23/23/6 22/22/6 24/24/6
f 26/26/5 25/25/5 27/27/5
f 26/26/5 27/27/5 28/28/5
f 30/30/5 29/29/5 31/31/5
f 30/30/5 31/31/5 32/32/5
f 33/33/6 34/34/6 35/35/6
f 35/35/6 34/34/6 36/36/6
f 37/37/4 38/37/4 39/37/4
f 39/37/4 38/37/4 40/37/4
f 42/37/1 41/37/1 43/37/1
f 42/37/1 43/37/1 44/37/1
f 46/39/5 45/38/5 47/40/5
f 46/39/5 47/40/5 48/41/5
f 49/42/6 50/43/6 51/44/6
f 51/44/6 50/43/6 52/45/6
f 54/47/5 53/46/5 55/48/5
f 54/47/5 55/48/5 56/49/5
f 58/51/5 57/50/5 59/52/5
f 58/51/5 59/52/5 60/53/5
f 62/55/5 61/54/5 63/56/5
f 62/55/5 63/56/5 64/57/5
f 65/58/4 66/59/4 67/60/4
f 67/60/4 66/59/4 68/61/4
f 70/37/1 69/37/1 71/37/1
f 70/37/1 71/37/1 72/37/1
f 74/63/5 73/62/5 75/64/5
f 74/63/5 75/64/5 76/65/5
f 77/37/6 78/37/6 79/37/6
f 79/37/6 78/37/6 80/37/6
f 82/67/5 81/66/5 83/68/5
f 82/67/5 83/68/5 84/69/5
f 86/71/5 85/70/5 87/72/5
f 86/71/5 87/72/5 88/73/5
f 89/74/4 90/74/4 91/74/4
f 91/74/4 90/74/4 92/74/4
f 94/74/1 93/74/1 95/74/1
f 94/74/1 95/74/1 96/74/1
f 98/74/5 97/74/5 99/74/5
f 98/74/5 99/74/5 100/74/5
f 102/74/3 101/74/3 103/74/3
f 102/74/3 103/74/3 104/74/3
f 105/74/6 106/74/6 107/74/6
f 107/74/6 106/74/6 108/74/6
f 110/76/1 109/75/1 111/77/1
f 110/76/1 111/77/1 112/78/1
f 114/80/5 113/79/5 115/81/5
f 114/80/5 115/81/5 116/82/5
f 118/84/5 117/83/5 119/85/5
f 118/84/5 119/85/5 120/86/5
f 122/88/5 121/87/5 123/89/5
f 122/88/5 123/89/5 124/90/5
f 125/91/4 126/91/4 127/91/4
f 127/91/4 126/91/4 128/91/4
f 130/91/1 129/91/1 131/91/1
f 130/91/1 131/91/1 132/91/1
f 134/91/5 133/91/5 135/91/5
f 134/91/5 135/91/5 136/91/5
f 138/91/3 137/91/3 139/91/3
f 138/91/3 139/91/3 140/91/3
f 141/91/6 142/91/6 143/91/6
f 143/91/6 142/91/6 144/91/6
f 145/37/6 146/37/6 147/37/6
f 147/37/6 146/37/6 148/37/6
f 150/92/5 149/92/5 151/92/5
f 150/92/5 151/92/5 152/92/5
f 154/37/5 153/37/5 155/37/5
f 154/37/5 155/37/5 156/37/5
f 157/37/4 158/37/4 159/37/4
f 159/37/4 158/37/4 160/37/4
f 162/37/1 161/37/1 163/37/1
f 162/37/1 163/37/1 164/37/1
f 166/37/5 165/37/5 167/37/5
f 166/37/5 167/37/5 168/37/5
f 170/37/3 169/37/3 171/37/3
f 170/37/3 171/37/3 172/37/3
f 173/37/6 174/37/6 175/37/6
f 175/37/6 174/37/6 176/37/6
f 178/37/1 177/37/1 179/37/1
f 178/37/1 179/37/1 180/37/1
f 182/94/5 181/93/5 183/95/5
f 182/94/5 183/95/5 184/96/5
f 185/37/6 186/37/6 187/37/6
f 187/37/6 186/37/6 188/37/6
f 190/98/5 189/97/5 191/99/5
f 190/98/5 191/99/5 192/100/5
f 194/102/5 193/101/5 195/103/5
f 194/102/5 195/103/5 196/104/5
f 197/105/4 198/105/4 199/105/4
f 199/105/4 198/105/4 200/105/4
f 202/105/1 201/105/1 203/105/1
f 202/105/1 203/105/1 204/105/1
f 206/105/5 205/105/5 207/105/5
f 206/105/5 207/105/5 208/105/5
f 210/105/3 209/105/3 211/105/3
f 210/105/3 211/105/3 212/105/3
f 213/105/6 214/105/6 215/105/6
f 215/105/6 214/105/6 216/105/6
f 217/37/4 218/37/4 219/37/4
f 219/37/4 218/37/4 220/37/4
f 222/37/1 221/37/1 223/37/1
f 222/37/1 223/37/1 224/37/1
f 226/37/5 225/37/5 227/37/5
f 226/37/5 227/37/5 228/37/5
f 230/37/3 229/37/3 231/37/3
f 230/37/3 231/37/3 232/37/3
f 233/37/6 234/37/6 235/37/6
f 235/37/6 234/37/6 236/37/6
f 238/107/1 237/106/1 239/108/1
f 238/107/1 239/108/1 240/109/1
f 242/111/5 241/110/5 243/112/5
f 242/111/5 243/112/5 244/113/5
f 246/115/5 245/114/5 247/116/5
f 246/115/5 247/116/5 248/117/5
f 250/119/5 249/118/5 251/120/5
f 250/119/5 251/120/5 252/121/5
f 253/122/6 254/122/6 255/122/6
f 255/122/6 254/122/6 256/122/6
f 257/123/6 258/123/6 259/123/6
f 259/123/6 258/123/6 260/123/6
f 262/37/5 261/37/5 263/37/5
f 262/37/5 263/37/5 264/37/5
f 265/124/6 266/124/6 267/124/6
f 267/124/6 266/124/6 268/124/6
f 270/126/5 269/125/5 271/127/5
f 270/126/5 271/127/5 272/128/5
f 274/130/5 273/129/5 275/131/5
f 274/130/5 275/131/5 276/132/5
f 277/133/4 278/133/4 279/133/4
f 279/133/4 278/133/4 280/133/4
f 281/122/4 282/122/4 283/122/4
f 283/122/4 282/122/4 284/122/4
f 286/122/1 285/122/1 287/122/1
f 286/122/1 287/122/1 288/122/1
f 290/122/5 289/122/5 291/122/5
f 290/122/5 291/122/5 292/122/5
f 294/122/3 293/122/3 295/122/3
f 294/122/3 295/122/3 296/122/3
f 297/122/6 298/122/6 299/122/6
f 299/122/6 298/122/6 300/122/6
f 302/135/1 301/134/1 303/136/1
f 302/135/1 303/136/1 304/137/1
f 306/139/5 305/138/5 307/140/5
f 306/139/5 307/140/5 308/141/5
f 310/143/5 309/142/5 311/144/5
f 310/143/5 311/144/5 312/145/5
f 314/92/5 313/92/5 315/92/5
f 314/92/5 315/92/5 316/92/5
f 317/146/4 318/146/4 319/146/4
f 319/146/4 318/146/4 320/146/4
f 321/146/6 322/146/6 323/146/6
f 323/146/6 322/146/6 324/146/6
f 326/148/1 325/147/1 327/149/1
f 326/148/1 327/149/1 328/150/1
f 329/37/4 330/37/4 331/37/4
f 331/37/4 330/37/4 332/37/4
f 334/152/5 333/151/5 335/153/5
f 334/152/5 335/153/5 336/154/5
f 338/37/3 337/37/3 339/37/3
f 338/37/3 339/37/3 340/37/3
f 341/37/6 342/37/6 343/37/6
f 343/37/6 342/37/6 344/37/6
f 346/156/5 345/155/5 347/157/5
f 346/156/5 347/157/5 348/158/5
f 350/160/5 349/159/5 351/161/5
f 350/160/5 351/161/5 352/162/5
f 353/163/4 354/164/4 355/165/4
f 355/165/4 354/164/4 356/166/4
f 358/168/5 357/167/5 359/169/5
f 358/168/5 359/169/5 360/170/5
f 361/37/4 362/37/4 363/37/4
f 363/37/4 362/37/4 364/37/4
f 366/172/5 365/171/5 367/173/5
f 366/172/5 367/173/5 368/174/5
f 370/37/3 369/37/3 371/37/3
f 370/37/3 371/37/3 372/37/3
f 373/133/4 374/133/4 375/133/4
f 375/133/4 374/133/4 376/133/4
f 378/133/1 377/133/1 379/133/1
f 378/133/1 379/133/1 380/133/1
f 382/133/5 381/133/5 383/133/5
f 382/133/5 383/133/5 384/133/5
f 386/133/3 385/133/3 387/133/3
f 386/133/3 387/133/3 388/133/3
f 389/133/6 390/133/6 391/133/6
f 391/133/6 390/133/6 392/133/6
f 394/176/1 393/175/1 395/177/1
f 394/176/1 395/177/1 396/178/1
f 398/180/5 397/179/5 399/181/5
f 398/180/5 399/181/5 400/182/5
f 402/184/5 401/183/5 403/185/5
f 402/184/5 403/185/5 404/186/5
f 405/124/6 406/124/6 407/124/6
f 407/124/6 406/124/6 408/124/6
f 409/187/4 410/188/4 411/189/4
f 411/189/4 410/188/4 412/190/4
f 414/192/5 413/191/5 415/193/5
f 414/192/5 415/193/5 416/194/5
f 418/74/3 417/74/3 419/74/3
f 418/74/3 419/74/3 420/74/3
f 421/195/4 422/195/4 423/195/4
f 423/195/4 422/195/4 424/195/4
f 426/195/1 425/195/1 427/195/1
f 426/195/1 427/195/1 428/195/1
f 430/195/5 429/195/5 431/195/5
f 430/195/5 431/195/5 432/195/5
f 434/195/3 433/195/3 435/195/3
f 434/195/3 435/195/3 436/195/3
f 437/195/6 438/195/6 439/195/6
f 439/195/6 438/195/6 440/195/6
f 442/197/5 441/196/5 443/198/5
f 442/197/5 443/198/5 444/199/5
f 446/201/1 445/200/1 447/202/1
f 446/201/1 447/202/1 448/203/1
f 450/205/5 449/204/5 451/206/5
f 450/205/5 451/206/5 452/207/5
f 453/37/6 454/37/6 455/37/6
f 455/37/6 454/37/6 456/37/6
f 458/209/1 457/208/1 459/210/1
f 458/209/1 459/210/1 460/211/1
f 462/213/5 461/212/5 463/214/5
f 462/213/5 463/214/5 464/215/5
f 466/217/3 465/216/3 467/218/3
f 466/217/3 467/218/3 468/219/3
f 470/220/5 469/220/5 471/220/5
f 470/220/5 471/220/5 472/220/5
f 473/37/4 474/37/4 475/37/4
f 475/37/4 474/37/4 476/37/4
f 477/37/6 478/37/6 479/37/6
f 479/37/6 478/37/6 480/37/6
f 481/221/6 482/221/6 483/221/6
f 483/221/6 482/221/6 484/221/6
f 486/37/5 485/37/5 487/37/5
f 486/37/5 487/37/5 488/37/5
f 489/133/4 490/133/4 491/133/4
f 491/133/4 490/133/4 492/133/4
f 494/222/1 493/222/1 495/222/1
f 494/222/1 495/222/1 496/222/1
f 498/224/5 497/223/5 499/225/5
f 498/224/5 499/225/5 500/226/5
f 502/228/3 501/227/3 503/229/3
f 502/228/3 503/229/3 504/230/3
f 505/231/4 506/232/4 507/233/4
f 507/233/4 506/232/4 508/234/4
f 510/235/5 509/235/5 511/235/5
f 510/235/5 511/235/5 512/235/5
f 513/236/4 514/237/4 515/238/4
f 515/238/4 514/237/4 516/239/4
f 518/235/1 517/235/1 519/235/1
f 518/235/1 519/235/1 520/235/1
f 522/241/5 521/240/5 523/242/5
f 522/241/5 523/242/5 524/243/5
f 526/245/3 525/244/3 527/246/3
f 526/245/3 527/246/3 528/247/3
f 529/146/6 530/146/6 531/146/6
f 531/146/6 530/146/6 532/146/6
f 534/249/5 533/248/5 535/250/5
f 534/249/5 535/250/5 536/251/5
f 538/37/3 537/37/3 539/37/3
f 538/37/3 539/37/3 540/37/3
f 542/253/1 541/252/1 543/254/1
f 542/253/1 543/254/1 544/255/1
f 546/257/5 545/256/5 547/258/5
f 546/257/5 547/258/5 548/259/5
f 550/37/3 549/37/3 551/37/3
f 550/37/3 551/37/3 552/37/3
f 554/235/5 553/235/5 555/235/5
f 554/235/5 555/235/5 556/235/5
f 558/235/5 557/235/5 559/235/5
f 558/235/5 559/235/5 560/235/5
f 562/235/3 561/235/3 563/235/3
f 562/235/3 563/235/3 564/235/3
f 565/260/4 566/260/4 567/260/4
f 567/260/4 566/260/4 568/260/4
f 569/146/4 570/146/4 571/146/4
f 571/146/4 570/146/4 572/146/4
f 574/146/1 573/146/1 575/146/1
f 574/146/1 575/146/1 576/146/1
f 578/262/5 577/261/5 579/263/5
f 578/262/5 579/263/5 580/264/5
f 582/266/5 581/265/5 583/267/5
f 582/266/5 583/267/5 584/268/5
f 586/269/3 585/269/3 587/269/3
f 586/269/3 587/269/3 588/269/3
f 590/271/5 589/270/5 591/272/5
f 590/271/5 591/272/5 592/273/5
f 594/269/3 593/269/3 595/269/3
f 594/269/3 595/269/3 596/269/3
f 597/274/4 598/275/4 599/276/4
f 599/276/4 598/275/4 600/277/4
f 602/279/5 601/278/5 603/280/5
f 602/279/5 603/280/5 604/281/5
f 606/220/3 605/220/3 607/220/3
f 606/220/3 607/220/3 608/220/3
f 609/37/6 610/37/6 611/37/6
f 611/37/6 610/37/6 612/37/6
f 614/37/5 613/37/5 615/37/5
f 614/37/5 615/37/5 616/37/5
f 617/282/4 618/282/4 619/282/4
f 619/282/4 618/282/4 620/282/4
f 622/284/1 621/283/1 623/285/1
f 622/284/1 623/285/1 624/286/1
f 626/288/5 625/287/5 627/289/5
f 626/288/5 627/289/5 628/290/5
f 630/282/3 629/282/3 631/282/3
f 630/282/3 631/282/3 632/282/3
f 634/291/1 633/291/1 635/291/1
f 634/291/1 635/291/1 636/291/1
f 638/293/5 637/292/5 639/294/5
f 638/293/5 639/294/5 640/295/5
f 642/37/3 641/37/3 643/37/3
f 642/37/3 643/37/3 644/37/3
f 646/297/5 645/296/5 647/298/5
f 646/297/5 647/298/5 648/299/5
f 650/301/3 649/300/3 651/302/3
f 650/301/3 651/302/3 652/303/3
f 653/304/4 654/305/4 655/306/4
f 655/306/4 654/305/4 656/307/4
f 658/309/1 657/308/1 659/310/1
f 658/309/1 659/310/1 660/311/1
f 662/313/5 661/312/5 663/314/5
f 662/313/5 663/314/5 664/315/5
f 666/37/3 665/37/3 667/37/3
f 666/37/3 667/37/3 668/37/3
f 670/317/5 669/316/5 671/318/5
f 670/317/5 671/318/5 672/319/5
f 674/37/3 673/37/3 675/37/3
f 674/37/3 675/37/3 676/37/3
f 677/320/6 678/321/6 679/322/6
f 679/322/6 678/321/6 680/323/6
