# Export of Cubik Model: Cubik Model
# Designed by MeLee with Cubik Studio - https://cubik.studio
# from Cubik OBJ Exporter v1.0
mtllib street_32_1b_c_mi.mtl
v 0 0 1.907349E-06
v -16 0 1.907349E-06
v 0 2 1.907349E-06
v -16 2 1.907349E-06
v 0 0 1.907349E-06
v -16 0 1.907349E-06
v 0 0 -16
v -16 0 -16
v 0 0 1.907349E-06
v 0 2 1.907349E-06
v 0 0 -16
v 0 2 -16
v 0 0 -16
v -16 0 -16
v 0 2 -16
v -16 2 -16
v 0 2 1.907349E-06
v -5 2 1.907349E-06
v 0 2 -16
v -5 2 -16
v -5 1.5 -1.499998
v -5 2 -1.499998
v -5 1.5 -1.999998
v -5 2 -1.999998
v -5 1.5 -3.499998
v -5 2 -3.499998
v -5 1.5 -3.999998
v -5 2 -3.999998
v -5 1.5 -4.499998
v -5 2 -4.499998
v -5 1.5 -5.499998
v -5 2 -5.499998
v -5 1.5 -6.499998
v -5 2 -6.499998
v -5 1.5 -6.999998
v -5 2 -6.999998
v -5 1.5 -1.499998
v -5.5 1.5 -1.499998
v -5 1.5 -1.999998
v -5.5 1.5 -1.999998
v -5 1.5 -3.499998
v -5.5 1.5 -3.499998
v -5 1.5 -3.999998
v -5.5 1.5 -3.999998
v -5 1.5 -4.499998
v -5.5 1.5 -4.499998
v -5 1.5 -5.499998
v -5.5 1.5 -5.499998
v -5 1.5 -6.499998
v -5.5 1.5 -6.499998
v -5 1.5 -6.999998
v -5.5 1.5 -6.999998
v -5 2 1.907349E-06
v -16 2 1.907349E-06
v -5 2 -1.499998
v -16 2 -1.499998
v -5 1.5 -1.499998
v -5.5 1.5 -1.499998
v -5 2 -1.499998
v -5.5 2 -1.499998
v -5 1.5 -1.999998
v -5.5 1.5 -1.999998
v -5 2 -1.999998
v -5.5 2 -1.999998
v -5 2 -1.999998
v -5.5 2 -1.999998
v -5 2 -3.499998
v -5.5 2 -3.499998
v -5.5 1.5 -1.999998
v -5.5 2 -1.999998
v -5.5 1.5 -2.499998
v -5.5 2 -2.499998
v -5 1.5 -3.499998
v -5.5 1.5 -3.499998
v -5 2 -3.499998
v -5.5 2 -3.499998
v -5 1.5 -4.499998
v -5.5 1.5 -4.499998
v -5 2 -4.499998
v -5.5 2 -4.499998
v -5 1.5 -3.999998
v -5.5 1.5 -3.999998
v -5 2 -3.999998
v -5.5 2 -3.999998
v -5 2 -3.999998
v -7.5 2 -3.999998
v -5 2 -4.499998
v -7.5 2 -4.499998
v -5 1.5 -5.499998
v -5.5 1.5 -5.499998
v -5 2 -5.499998
v -5.5 2 -5.499998
v -5 2 -5.499998
v -6 2 -5.499998
v -5 2 -6.499998
v -6 2 -6.499998
v -5 1.5 -6.499998
v -5.5 1.5 -6.499998
v -5 2 -6.499998
v -5.5 2 -6.499998
v -5 1.5 -6.999998
v -5.5 1.5 -6.999998
v -5 2 -6.999998
v -5.5 2 -6.999998
v -5 2 -6.999998
v -12 2 -6.999998
v -5 2 -16
v -12 2 -16
v -5.5 1.5 -1.999998
v -6.5 1.5 -1.999998
v -5.5 1.5 -2.499998
v -6.5 1.5 -2.499998
v -5.5 1.5 -1.999998
v -6.5 1.5 -1.999998
v -5.5 2 -1.999998
v -6.5 2 -1.999998
v -5.5 2 -1.499998
v -9.5 2 -1.499998
v -5.5 2 -1.999998
v -9.5 2 -1.999998
v -5.5 1.5 -1.499998
v -5.5 2 -1.499998
v -5.5 1.5 -1.999998
v -5.5 2 -1.999998
v -5.5 1.5 -2.499998
v -6.5 1.5 -2.499998
v -5.5 2 -2.499998
v -6.5 2 -2.499998
v -5.5 2 -2.499998
v -6.5 2 -2.499998
v -5.5 2 -3.999998
v -6.5 2 -3.999998
v -5.5 1.5 -3.499998
v -5.5 2 -3.499998
v -5.5 1.5 -3.999998
v -5.5 2 -3.999998
v -5.5 2 -4.499998
v -7 2 -4.499998
v -5.5 2 -5.499998
v -7 2 -5.499998
v -5.5 1.5 -4.499998
v -5.5 2 -4.499998
v -5.5 1.5 -5.499998
v -5.5 2 -5.499998
v -6 1.5 -5.499998
v -6 2 -5.499998
v -6 1.5 -6.499998
v -6 2 -6.499998
v -5.5 2 -6.499998
v -9.5 2 -6.499998
v -5.5 2 -6.999998
v -9.5 2 -6.999998
v -5.5 1.5 -6.499998
v -5.5 2 -6.499998
v -5.5 1.5 -6.999998
v -5.5 2 -6.999998
v -6 1.5 -5.499998
v -7 1.5 -5.499998
v -6 1.5 -6.499998
v -7 1.5 -6.499998
v -6.5 1.5 -2.499998
v -6.5 2 -2.499998
v -6.5 1.5 -3.499998
v -6.5 2 -3.499998
v -6 1.5 -5.499998
v -7 1.5 -5.499998
v -6 2 -5.499998
v -7 2 -5.499998
v -6 1.5 -6.499998
v -7 1.5 -6.499998
v -6 2 -6.499998
v -7 2 -6.499998
v -6.5 1.5 -2.499998
v -7 1.5 -2.499998
v -6.5 1.5 -3.499998
v -7 1.5 -3.499998
v -7 1 -2.999998
v -7 1.5 -2.999998
v -7 1 -3.499998
v -7 1.5 -3.499998
v -7 1 -5.499998
v -7 1.5 -5.499998
v -7 1 -5.999998
v -7 1.5 -5.999998
v -6.5 1.5 -2.499998
v -8.5 1.5 -2.499998
v -6.5 2 -2.499998
v -8.5 2 -2.499998
v -6.5 2 -1.999998
v -11.5 2 -1.999998
v -6.5 2 -2.499998
v -11.5 2 -2.499998
v -6.5 1.5 -1.999998
v -6.5 2 -1.999998
v -6.5 1.5 -2.499998
v -6.5 2 -2.499998
v -6.5 1.5 -3.499998
v -7 1.5 -3.499998
v -6.5 2 -3.499998
v -7 2 -3.499998
v -6.5 2 -3.499998
v -7 2 -3.499998
v -6.5 2 -3.999998
v -7 2 -3.999998
v -7 1.5 -3.499998
v -7 2 -3.499998
v -7 1.5 -3.999998
v -7 2 -3.999998
v -7 1.5 -4.499998
v -7 2 -4.499998
v -7 1.5 -5.499998
v -7 2 -5.499998
v -7 1 -2.999998
v -7.5 1 -2.999998
v -7 1 -3.499998
v -7.5 1 -3.499998
v -7 1 -5.499998
v -7.5 1 -5.499998
v -7 1 -5.999998
v -7.5 1 -5.999998
v -7 1 -2.999998
v -7.5 1 -2.999998
v -7 1.5 -2.999998
v -7.5 1.5 -2.999998
v -7 1.5 -2.499998
v -8.5 1.5 -2.499998
v -7 1.5 -2.999998
v -8.5 1.5 -2.999998
v -7 1 -3.499998
v -7.5 1 -3.499998
v -7 1.5 -3.499998
v -7.5 1.5 -3.499998
v -7 1.5 -3.499998
v -8 1.5 -3.499998
v -7 1.5 -3.999998
v -8 1.5 -3.999998
v -7 1.5 -4.499998
v -7.5 1.5 -4.499998
v -7 1.5 -5.499998
v -7.5 1.5 -5.499998
v -7 1 -5.499998
v -7.5 1 -5.499998
v -7 1.5 -5.499998
v -7.5 1.5 -5.499998
v -7.5 1 -4.999998
v -7.5 1.5 -4.999998
v -7.5 1 -5.499998
v -7.5 1.5 -5.499998
v -7 1 -5.999998
v -7.5 1 -5.999998
v -7 2 -5.999998
v -7.5 2 -5.999998
v -7 1.5 -4.499998
v -7.5 1.5 -4.499998
v -7 2 -4.499998
v -7.5 2 -4.499998
v -7 1.5 -3.999998
v -7.5 1.5 -3.999998
v -7 2 -3.999998
v -7.5 2 -3.999998
v -7.5 1.5 -3.999998
v -7.5 2 -3.999998
v -7.5 1.5 -4.499998
v -7.5 2 -4.499998
v -7 2 -5.999998
v -16 2 -5.999998
v -7 2 -6.499998
v -16 2 -6.499998
v -7 1.5 -5.999998
v -7 2 -5.999998
v -7 1.5 -6.499998
v -7 2 -6.499998
v -7.5 1 -4.999998
v -8 1 -4.999998
v -7.5 1 -5.499998
v -8 1 -5.499998
v -7.5 1.5 -2.999998
v -11 1.5 -2.999998
v -7.5 1.5 -3.499998
v -11 1.5 -3.499998
v -7.5 1 -2.999998
v -7.5 1.5 -2.999998
v -7.5 1 -3.499998
v -7.5 1.5 -3.499998
v -8 1 -3.499998
v -8 1.5 -3.499998
v -8 1 -4.499998
v -8 1.5 -4.499998
v -7.5 1.5 -3.999998
v -8 1.5 -3.999998
v -7.5 1.5 -4.999998
v -8 1.5 -4.999998
v -7.5 1 -4.999998
v -8 1 -4.999998
v -7.5 1.5 -4.999998
v -8 1.5 -4.999998
v -7.5 1 -5.499998
v -8 1 -5.499998
v -7.5 1.5 -5.499998
v -8 1.5 -5.499998
v -7.5 1.5 -5.499998
v -8 1.5 -5.499998
v -7.5 1.5 -5.999998
v -8 1.5 -5.999998
v -7.5 1 -5.499998
v -7.5 1.5 -5.499998
v -7.5 1 -5.999998
v -7.5 1.5 -5.999998
v -7.5 1.5 -5.999998
v -8 1.5 -5.999998
v -7.5 2 -5.999998
v -8 2 -5.999998
v -8 1 -3.499998
v -8.5 1 -3.499998
v -8 1 -4.499998
v -8.5 1 -4.499998
v -8 1 -3.499998
v -8.5 1 -3.499998
v -8 1.5 -3.499998
v -8.5 1.5 -3.499998
v -8 1 -4.499998
v -10 1 -4.499998
v -8 1.5 -4.499998
v -10 1.5 -4.499998
v -8 1.5 -4.499998
v -8.5 1.5 -4.499998
v -8 1.5 -5.499998
v -8.5 1.5 -5.499998
v -8 1 -4.999998
v -8 1.5 -4.999998
v -8 1 -5.499998
v -8 1.5 -5.499998
v -8 1.5 -5.499998
v -8.5 1.5 -5.499998
v -8 2 -5.499998
v -8.5 2 -5.499998
v -8 2 -5.499998
v -10 2 -5.499998
v -8 2 -5.999998
v -10 2 -5.999998
v -8 1.5 -5.499998
v -8 2 -5.499998
v -8 1.5 -5.999998
v -8 2 -5.999998
v -8.5 1 -3.999998
v -10 1 -3.999998
v -8.5 1 -4.499998
v -10 1 -4.499998
v -8.5 1 -3.999998
v -9 1 -3.999998
v -8.5 1.5 -3.999998
v -9 1.5 -3.999998
v -8.5 1.5 -3.499998
v -9 1.5 -3.499998
v -8.5 1.5 -3.999998
v -9 1.5 -3.999998
v -8.5 1 -3.499998
v -8.5 1.5 -3.499998
v -8.5 1 -3.999998
v -8.5 1.5 -3.999998
v -9 1 -3.499998
v -9 1.5 -3.499998
v -9 1 -3.999998
v -9 1.5 -3.999998
v -8.5 1.5 -4.499998
v -10 1.5 -4.499998
v -8.5 1.5 -4.999998
v -10 1.5 -4.999998
v -8.5 1.5 -2.999998
v -10.5 1.5 -2.999998
v -8.5 2 -2.999998
v -10.5 2 -2.999998
v -8.5 2 -2.499998
v -10.5 2 -2.499998
v -8.5 2 -2.999998
v -10.5 2 -2.999998
v -8.5 1.5 -2.499998
v -8.5 2 -2.499998
v -8.5 1.5 -2.999998
v -8.5 2 -2.999998
v -8.5 1.5 -4.999998
v -9.5 1.5 -4.999998
v -8.5 2 -4.999998
v -9.5 2 -4.999998
v -8.5 2 -4.999998
v -9.5 2 -4.999998
v -8.5 2 -5.499998
v -9.5 2 -5.499998
v -8.5 1.5 -4.999998
v -8.5 2 -4.999998
v -8.5 1.5 -5.499998
v -8.5 2 -5.499998
v -9 1 -3.499998
v -10.5 1 -3.499998
v -9 1 -3.999998
v -10.5 1 -3.999998
v -9 1 -3.499998
v -10.5 1 -3.499998
v -9 1.5 -3.499998
v -10.5 1.5 -3.499998
v -9.5 1.5 -1.499998
v -9.5 2 -1.499998
v -9.5 1.5 -1.999998
v -9.5 2 -1.999998
v -9.5 1.5 -4.999998
v -9.5 2 -4.999998
v -9.5 1.5 -5.499998
v -9.5 2 -5.499998
v -9.5 1.5 -6.499998
v -9.5 2 -6.499998
v -9.5 1.5 -6.999998
v -9.5 2 -6.999998
v -9.5 1.5 -1.499998
v -10 1.5 -1.499998
v -9.5 1.5 -1.999998
v -10 1.5 -1.999998
v -10 1 -4.499998
v -10 1.5 -4.499998
v -10 1 -4.999998
v -10 1.5 -4.999998
v -9.5 1.5 -4.999998
v -11 1.5 -4.999998
v -9.5 1.5 -5.499998
v -11 1.5 -5.499998
v -9.5 1.5 -6.499998
v -10 1.5 -6.499998
v -9.5 1.5 -6.999998
v -10 1.5 -6.999998
v -9.5 1.5 -1.499998
v -10 1.5 -1.499998
v -9.5 2 -1.499998
v -10 2 -1.499998
v -9.5 1.5 -1.999998
v -10 1.5 -1.999998
v -9.5 2 -1.999998
v -10 2 -1.999998
v -9.5 1.5 -5.499998
v -10 1.5 -5.499998
v -9.5 2 -5.499998
v -10 2 -5.499998
v -10 1.5 -5.499998
v -10 2 -5.499998
v -10 1.5 -5.999998
v -10 2 -5.999998
v -9.5 1.5 -6.499998
v -10 1.5 -6.499998
v -9.5 2 -6.499998
v -10 2 -6.499998
v -9.5 1.5 -6.999998
v -10 1.5 -6.999998
v -9.5 2 -6.999998
v -10 2 -6.999998
v -10 1 -4.499998
v -10.5 1 -4.499998
v -10 1 -4.999998
v -10.5 1 -4.999998
v -10 1 -4.499998
v -10.5 1 -4.499998
v -10 1.5 -4.499998
v -10.5 1.5 -4.499998
v -10 1 -3.999998
v -10.5 1 -3.999998
v -10 1.5 -3.999998
v -10.5 1.5 -3.999998
v -10 1.5 -3.999998
v -11.5 1.5 -3.999998
v -10 1.5 -4.499998
v -11.5 1.5 -4.499998
v -10 1 -3.999998
v -10 1.5 -3.999998
v -10 1 -4.499998
v -10 1.5 -4.499998
v -10 1 -4.999998
v -10.5 1 -4.999998
v -10 1.5 -4.999998
v -10.5 1.5 -4.999998
v -10 1.5 -5.499998
v -11 1.5 -5.499998
v -10 1.5 -5.999998
v -11 1.5 -5.999998
v -10 2 -1.499998
v -12 2 -1.499998
v -10 2 -1.999998
v -12 2 -1.999998
v -10 1.5 -1.499998
v -10 2 -1.499998
v -10 1.5 -1.999998
v -10 2 -1.999998
v -10.5 1.5 -2.499998
v -10.5 2 -2.499998
v -10.5 1.5 -2.999998
v -10.5 2 -2.999998
v -10 1.5 -5.999998
v -11 1.5 -5.999998
v -10 2 -5.999998
v -11 2 -5.999998
v -10 2 -6.499998
v -11.5 2 -6.499998
v -10 2 -6.999998
v -11.5 2 -6.999998
v -10 1.5 -6.499998
v -10 2 -6.499998
v -10 1.5 -6.999998
v -10 2 -6.999998
v -10.5 1.5 -2.499998
v -12 1.5 -2.499998
v -10.5 1.5 -2.999998
v -12 1.5 -2.999998
v -10.5 1.5 -3.499998
v -11 1.5 -3.499998
v -10.5 1.5 -3.999998
v -11 1.5 -3.999998
v -10.5 1 -3.499998
v -10.5 1.5 -3.499998
v -10.5 1 -3.999998
v -10.5 1.5 -3.999998
v -10.5 1.5 -4.499998
v -11.5 1.5 -4.499998
v -10.5 1.5 -4.999998
v -11.5 1.5 -4.999998
v -10.5 1 -4.499998
v -10.5 1.5 -4.499998
v -10.5 1 -4.999998
v -10.5 1.5 -4.999998
v -10.5 1.5 -2.499998
v -11.5 1.5 -2.499998
v -10.5 2 -2.499998
v -11.5 2 -2.499998
v -11.5 1.5 -1.999998
v -11.5 2 -1.999998
v -11.5 1.5 -2.499998
v -11.5 2 -2.499998
v -11 1.5 -2.999998
v -12 1.5 -2.999998
v -11 2 -2.999998
v -12 2 -2.999998
v -11 2 -2.999998
v -16 2 -2.999998
v -11 2 -3.999998
v -16 2 -3.999998
v -11 1.5 -2.999998
v -11 2 -2.999998
v -11 1.5 -3.999998
v -11 2 -3.999998
v -11 1.5 -3.999998
v -11.5 1.5 -3.999998
v -11 2 -3.999998
v -11.5 2 -3.999998
v -11 1.5 -4.999998
v -11.5 1.5 -4.999998
v -11 2 -4.999998
v -11.5 2 -4.999998
v -11 2 -4.999998
v -16 2 -4.999998
v -11 2 -5.999998
v -16 2 -5.999998
v -11 1.5 -4.999998
v -11 2 -4.999998
v -11 1.5 -5.999998
v -11 2 -5.999998
v -11.5 1.5 -6.499998
v -11.5 2 -6.499998
v -11.5 1.5 -6.999998
v -11.5 2 -6.999998
v -11.5 1.5 -1.999998
v -12 1.5 -1.999998
v -11.5 1.5 -2.499998
v -12 1.5 -2.499998
v -11.5 1.5 -6.499998
v -12.5 1.5 -6.499998
v -11.5 1.5 -6.999998
v -12.5 1.5 -6.999998
v -11.5 1.5 -1.999998
v -12 1.5 -1.999998
v -11.5 2 -1.999998
v -12 2 -1.999998
v -12 1.5 -1.499998
v -12 2 -1.499998
v -12 1.5 -1.999998
v -12 2 -1.999998
v -11.5 2 -3.999998
v -16 2 -3.999998
v -11.5 2 -4.999998
v -16 2 -4.999998
v -11.5 1.5 -3.999998
v -11.5 2 -3.999998
v -11.5 1.5 -4.999998
v -11.5 2 -4.999998
v -11.5 1.5 -6.499998
v -12.5 1.5 -6.499998
v -11.5 2 -6.499998
v -12.5 2 -6.499998
v -11.5 1.5 -6.999998
v -12 1.5 -6.999998
v -11.5 2 -6.999998
v -12 2 -6.999998
v -12 1.5 -6.999998
v -12 2 -6.999998
v -12 1.5 -7.499998
v -12 2 -7.499998
v -12 1.5 -1.499998
v -12.5 1.5 -1.499998
v -12 1.5 -1.999998
v -12.5 1.5 -1.999998
v -12 1.5 -6.999998
v -12.5 1.5 -6.999998
v -12 1.5 -7.499998
v -12.5 1.5 -7.499998
v -12 1.5 -1.499998
v -12.5 1.5 -1.499998
v -12 2 -1.499998
v -12.5 2 -1.499998
v -12 1.5 -1.999998
v -12.5 1.5 -1.999998
v -12 2 -1.999998
v -12.5 2 -1.999998
v -12 2 -1.999998
v -16 2 -1.999998
v -12 2 -2.999998
v -16 2 -2.999998
v -12 1.5 -1.999998
v -12 2 -1.999998
v -12 1.5 -2.999998
v -12 2 -2.999998
v -12 1.5 -7.499998
v -12.5 1.5 -7.499998
v -12 2 -7.499998
v -12.5 2 -7.499998
v -12 2 -7.499998
v -12.5 2 -7.499998
v -12 2 -16
v -12.5 2 -16
v -12.5 1.5 -7.499998
v -12.5 2 -7.499998
v -12.5 1.5 -7.999998
v -12.5 2 -7.999998
v -12.5 1.5 -7.499998
v -13 1.5 -7.499998
v -12.5 1.5 -7.999998
v -13 1.5 -7.999998
v -12.5 2 -1.499998
v -16 2 -1.499998
v -12.5 2 -1.999998
v -16 2 -1.999998
v -12.5 1.5 -1.499998
v -12.5 2 -1.499998
v -12.5 1.5 -1.999998
v -12.5 2 -1.999998
v -12.5 2 -6.499998
v -16 2 -6.499998
v -12.5 2 -7.499998
v -16 2 -7.499998
v -12.5 1.5 -6.499998
v -12.5 2 -6.499998
v -12.5 1.5 -7.499998
v -12.5 2 -7.499998
v -12.5 1.5 -7.499998
v -13 1.5 -7.499998
v -12.5 2 -7.499998
v -13 2 -7.499998
v -12.5 1.5 -7.999998
v -13 1.5 -7.999998
v -12.5 2 -7.999998
v -13 2 -7.999998
v -12.5 2 -7.999998
v -16 2 -7.999998
v -12.5 2 -16
v -16 2 -16
v -13 2 -7.499998
v -16 2 -7.499998
v -13 2 -7.999998
v -16 2 -7.999998
v -13 1.5 -7.499998
v -13 2 -7.499998
v -13 1.5 -7.999998
v -13 2 -7.999998
v -16 0 1.907349E-06
v -16 2 1.907349E-06
v -16 0 -16
v -16 2 -16
vn 0 -5.960464E-08 0.9999999
vn 0 -0.9999999 -5.960464E-08
vn 1 0 0
vn 0 5.960464E-08 -0.9999999
vn 0 0.9999999 5.960464E-08
vn -1 0 0
vt 0.296875 0.2890625
vt 0.796875 0.2890625
vt 0.296875 0.3203125
vt 0.796875 0.3203125
vt 0.015625 0.0078125
vt 0.515625 0.0078125
vt 0.015625 0.2578125
vt 0.515625 0.2578125
vt 0.796875 0.0078125
vt 0.859375 0.0078125
vt 0.796875 0.2578125
vt 0.859375 0.2578125
vt 0.296875 0.3515625
vt 0.796875 0.3515625
vt 0.296875 0.3828125
vt 0.796875 0.3828125
vt 0.578125 0.0078125
vt 0.734375 0.0078125
vt 0.578125 0.2578125
vt 0.734375 0.2578125
vt 0.21875 0.828125
vt 0.9375 0.4609375
vt 0.140625 0.6171875
vt 0.15625 0.6171875
vt 0.140625 0.6328125
vt 0.15625 0.6328125
vt 0.90625 0.5859375
vt 0.3125 0.4609375
vt 0.65625 0.4609375
vt 0.3125 0.484375
vt 0.65625 0.484375
vt 0.875 0.6171875
vt 0.015625 0.9375
vt 0.03125 0.9375
vt 0.015625 0.9609375
vt 0.03125 0.9609375
vt 0.9375 0.6171875
vt 0.859375 0.3515625
vt 0.9375 0.3515625
vt 0.859375 0.359375
vt 0.9375 0.359375
vt 0.21875 0.796875
vt 0.921875 0.2265625
vt 0.953125 0.2265625
vt 0.921875 0.2421875
vt 0.953125 0.2421875
vt 0.015625 0.2890625
vt 0.234375 0.2890625
vt 0.015625 0.4296875
vt 0.234375 0.4296875
vt 0.5 0.6171875
vt 0.53125 0.6171875
vt 0.5 0.625
vt 0.53125 0.625
vt 0.71875 0.5390625
vt 0.84375 0.5390625
vt 0.71875 0.546875
vt 0.84375 0.546875
vt 0.90625 0.5
vt 0.9375 0.5
vt 0.90625 0.5078125
vt 0.9375 0.5078125
vt 0.921875 0.171875
vt 0.953125 0.171875
vt 0.921875 0.1953125
vt 0.953125 0.1953125
vt 0.21875 0.734375
vt 0.859375 0.390625
vt 0.90625 0.390625
vt 0.859375 0.40625
vt 0.90625 0.40625
vt 0.21875 0.65625
vt 0.234375 0.65625
vt 0.21875 0.671875
vt 0.234375 0.671875
vt 0.140625 0.8984375
vt 0.15625 0.8984375
vt 0.140625 0.9140625
vt 0.15625 0.9140625
vt 0.71875 0.5
vt 0.84375 0.5
vt 0.71875 0.5078125
vt 0.84375 0.5078125
vt 0.140625 0.8046875
vt 0.15625 0.8046875
vt 0.140625 0.8203125
vt 0.15625 0.8203125
vt 0.78125 0.6171875
vt 0.8125 0.6171875
vt 0.78125 0.625
vt 0.8125 0.625
vt 0.21875 0.6171875
vt 0.25 0.6171875
vt 0.21875 0.625
vt 0.25 0.625
vt 0.71875 0.4609375
vt 0.875 0.4609375
vt 0.71875 0.46875
vt 0.875 0.46875
vt 0.140625 0.7109375
vt 0.15625 0.7109375
vt 0.140625 0.7265625
vt 0.15625 0.7265625
vt 0.140625 0.7578125
vt 0.15625 0.7578125
vt 0.140625 0.7734375
vt 0.15625 0.7734375
vt 0.296875 0.4140625
vt 0.578125 0.4140625
vt 0.296875 0.421875
vt 0.578125 0.421875
vt 0.015625 0.78125
vt 0.078125 0.78125
vt 0.015625 0.7890625
vt 0.078125 0.7890625
vt 0.015625 0.8203125
vt 0.078125 0.8203125
vt 0.015625 0.828125
vt 0.078125 0.828125
vt 0.015625 0.859375
vt 0.078125 0.859375
vt 0.015625 0.8671875
vt 0.078125 0.8671875
vt 0.3125 0.6171875
vt 0.34375 0.6171875
vt 0.3125 0.625
vt 0.34375 0.625
vt 0.40625 0.6171875
vt 0.4375 0.6171875
vt 0.40625 0.625
vt 0.4375 0.625
vt 0.21875 0.703125
vt 0.015625 0.7421875
vt 0.078125 0.7421875
vt 0.015625 0.75
vt 0.078125 0.75
vt 0.21875 0.765625
vt 0.015625 0.8984375
vt 0.0625 0.8984375
vt 0.015625 0.90625
vt 0.0625 0.90625
vt 0.6875 0.6171875
vt 0.71875 0.6171875
vt 0.6875 0.625
vt 0.71875 0.625
vt 0.59375 0.6171875
vt 0.625 0.6171875
vt 0.59375 0.625
vt 0.625 0.625
vt 0.3125 0.515625
vt 0.46875 0.515625
vt 0.3125 0.53125
vt 0.46875 0.53125
vt 0.140625 0.8515625
vt 0.15625 0.8515625
vt 0.140625 0.8671875
vt 0.15625 0.8671875
vt 0.640625 0.4140625
vt 0.796875 0.4140625
vt 0.640625 0.4296875
vt 0.796875 0.4296875
vt 0.140625 0.9453125
vt 0.15625 0.9453125
vt 0.140625 0.9609375
vt 0.15625 0.9609375
vt 0.3125 0.5625
vt 0.453125 0.5625
vt 0.3125 0.578125
vt 0.453125 0.578125
vt 0.90625 0.5390625
vt 0.921875 0.5390625
vt 0.90625 0.5546875
vt 0.921875 0.5546875
vt 0.53125 0.515625
vt 0.65625 0.515625
vt 0.53125 0.53125
vt 0.65625 0.53125
vt 0.140625 0.6640625
vt 0.15625 0.6640625
vt 0.140625 0.6796875
vt 0.15625 0.6796875
vt 0.921875 0.0078125
vt 0.9375 0.0078125
vt 0.921875 0.140625
vt 0.9375 0.140625
vt 0.71875 0.578125
vt 0.828125 0.578125
vt 0.71875 0.5859375
vt 0.828125 0.5859375
vt 0.53125 0.5625
vt 0.640625 0.5625
vt 0.53125 0.578125
vt 0.640625 0.578125
vt 0.140625 0.4609375
vt 0.25 0.4609375
vt 0.140625 0.5859375
vt 0.25 0.5859375
vt 0.859375 0.2890625
vt 0.953125 0.2890625
vt 0.859375 0.296875
vt 0.953125 0.296875
vt 0.015625 0.4609375
vt 0.078125 0.4609375
vt 0.015625 0.7109375
vt 0.078125 0.7109375
usemtl voxel
f 2/2/1 1/1/1 3/3/1
f 2/2/1 3/3/1 4/4/1
f 5/5/2 6/6/2 7/7/2
f 7/7/2 6/6/2 8/8/2
f 10/10/3 9/9/3 11/11/3
f 10/10/3 11/11/3 12/12/3
f 13/13/4 14/14/4 15/15/4
f 15/15/4 14/14/4 16/16/4
f 18/18/5 17/17/5 19/19/5
f 18/18/5 19/19/5 20/20/5
f 21/21/6 22/21/6 23/21/6
f 23/21/6 22/21/6 24/21/6
f 25/22/6 26/22/6 27/22/6
f 27/22/6 26/22/6 28/22/6
f 29/23/6 30/24/6 31/25/6
f 31/25/6 30/24/6 32/26/6
f 33/27/6 34/27/6 35/27/6
f 35/27/6 34/27/6 36/27/6
f 38/27/5 37/27/5 39/27/5
f 38/27/5 39/27/5 40/27/5
f 42/27/5 41/27/5 43/27/5
f 42/27/5 43/27/5 44/27/5
f 46/27/5 45/27/5 47/27/5
f 46/27/5 47/27/5 48/27/5
f 50/27/5 49/27/5 51/27/5
f 50/27/5 51/27/5 52/27/5
f 54/29/5 53/28/5 55/30/5
f 54/29/5 55/30/5 56/31/5
f 57/27/4 58/27/4 59/27/4
f 59/27/4 58/27/4 60/27/4
f 62/32/1 61/32/1 63/32/1
f 62/32/1 63/32/1 64/32/1
f 66/34/5 65/33/5 67/35/5
f 66/34/5 67/35/5 68/36/5
f 69/32/6 70/32/6 71/32/6
f 71/32/6 70/32/6 72/32/6
f 73/37/4 74/37/4 75/37/4
f 75/37/4 74/37/4 76/37/4
f 77/22/4 78/22/4 79/22/4
f 79/22/4 78/22/4 80/22/4
f 82/22/1 81/22/1 83/22/1
f 82/22/1 83/22/1 84/22/1
f 86/39/5 85/38/5 87/40/5
f 86/39/5 87/40/5 88/41/5
f 90/42/1 89/42/1 91/42/1
f 90/42/1 91/42/1 92/42/1
f 94/44/5 93/43/5 95/45/5
f 94/44/5 95/45/5 96/46/5
f 97/27/4 98/27/4 99/27/4
f 99/27/4 98/27/4 100/27/4
f 102/42/1 101/42/1 103/42/1
f 102/42/1 103/42/1 104/42/1
f 106/48/5 105/47/5 107/49/5
f 106/48/5 107/49/5 108/50/5
f 110/27/5 109/27/5 111/27/5
f 110/27/5 111/27/5 112/27/5
f 113/51/4 114/52/4 115/53/4
f 115/53/4 114/52/4 116/54/4
f 118/56/5 117/55/5 119/57/5
f 118/56/5 119/57/5 120/58/5
f 122/27/3 121/27/3 123/27/3
f 122/27/3 123/27/3 124/27/3
f 126/60/1 125/59/1 127/61/1
f 126/60/1 127/61/1 128/62/1
f 130/64/5 129/63/5 131/65/5
f 130/64/5 131/65/5 132/66/5
f 134/67/3 133/67/3 135/67/3
f 134/67/3 135/67/3 136/67/3
f 138/69/5 137/68/5 139/70/5
f 138/69/5 139/70/5 140/71/5
f 142/73/3 141/72/3 143/74/3
f 142/73/3 143/74/3 144/75/3
f 145/76/6 146/77/6 147/78/6
f 147/78/6 146/77/6 148/79/6
f 150/81/5 149/80/5 151/82/5
f 150/81/5 151/82/5 152/83/5
f 154/22/3 153/22/3 155/22/3
f 154/22/3 155/22/3 156/22/3
f 158/27/5 157/27/5 159/27/5
f 158/27/5 159/27/5 160/27/5
f 161/84/6 162/85/6 163/86/6
f 163/86/6 162/85/6 164/87/6
f 165/88/4 166/89/4 167/90/4
f 167/90/4 166/89/4 168/91/4
f 170/93/1 169/92/1 171/94/1
f 170/93/1 171/94/1 172/95/1
f 174/27/5 173/27/5 175/27/5
f 174/27/5 175/27/5 176/27/5
f 177/27/6 178/27/6 179/27/6
f 179/27/6 178/27/6 180/27/6
f 181/27/6 182/27/6 183/27/6
f 183/27/6 182/27/6 184/27/6
f 185/27/4 186/27/4 187/27/4
f 187/27/4 186/27/4 188/27/4
f 190/97/5 189/96/5 191/98/5
f 190/97/5 191/98/5 192/99/5
f 194/27/3 193/27/3 195/27/3
f 194/27/3 195/27/3 196/27/3
f 198/37/1 197/37/1 199/37/1
f 198/37/1 199/37/1 200/37/1
f 202/37/5 201/37/5 203/37/5
f 202/37/5 203/37/5 204/37/5
f 205/37/6 206/37/6 207/37/6
f 207/37/6 206/37/6 208/37/6
f 209/100/6 210/101/6 211/102/6
f 211/102/6 210/101/6 212/103/6
f 214/27/5 213/27/5 215/27/5
f 214/27/5 215/27/5 216/27/5
f 218/27/5 217/27/5 219/27/5
f 218/27/5 219/27/5 220/27/5
f 221/27/4 222/27/4 223/27/4
f 223/27/4 222/27/4 224/27/4
f 226/27/5 225/27/5 227/27/5
f 226/27/5 227/27/5 228/27/5
f 230/27/1 229/27/1 231/27/1
f 230/27/1 231/27/1 232/27/1
f 234/27/5 233/27/5 235/27/5
f 234/27/5 235/27/5 236/27/5
f 238/27/5 237/27/5 239/27/5
f 238/27/5 239/27/5 240/27/5
f 241/27/4 242/27/4 243/27/4
f 243/27/4 242/27/4 244/27/4
f 245/27/6 246/27/6 247/27/6
f 247/27/6 246/27/6 248/27/6
f 250/105/1 249/104/1 251/106/1
f 250/105/1 251/106/1 252/107/1
f 253/67/4 254/67/4 255/67/4
f 255/67/4 254/67/4 256/67/4
f 258/67/1 257/67/1 259/67/1
f 258/67/1 259/67/1 260/67/1
f 261/67/6 262/67/6 263/67/6
f 263/67/6 262/67/6 264/67/6
f 266/109/5 265/108/5 267/110/5
f 266/109/5 267/110/5 268/111/5
f 270/22/3 269/22/3 271/22/3
f 270/22/3 271/22/3 272/22/3
f 274/27/5 273/27/5 275/27/5
f 274/27/5 275/27/5 276/27/5
f 278/27/5 277/27/5 279/27/5
f 278/27/5 279/27/5 280/27/5
f 282/27/3 281/27/3 283/27/3
f 282/27/3 283/27/3 284/27/3
f 285/27/6 286/27/6 287/27/6
f 287/27/6 286/27/6 288/27/6
f 290/27/5 289/27/5 291/27/5
f 290/27/5 291/27/5 292/27/5
f 293/27/4 294/27/4 295/27/4
f 295/27/4 294/27/4 296/27/4
f 298/27/1 297/27/1 299/27/1
f 298/27/1 299/27/1 300/27/1
f 302/27/5 301/27/5 303/27/5
f 302/27/5 303/27/5 304/27/5
f 306/27/3 305/27/3 307/27/3
f 306/27/3 307/27/3 308/27/3
f 310/27/1 309/27/1 311/27/1
f 310/27/1 311/27/1 312/27/1
f 314/27/5 313/27/5 315/27/5
f 314/27/5 315/27/5 316/27/5
f 317/27/4 318/27/4 319/27/4
f 319/27/4 318/27/4 320/27/4
f 322/27/1 321/27/1 323/27/1
f 322/27/1 323/27/1 324/27/1
f 326/27/5 325/27/5 327/27/5
f 326/27/5 327/27/5 328/27/5
f 330/27/3 329/27/3 331/27/3
f 330/27/3 331/27/3 332/27/3
f 334/27/1 333/27/1 335/27/1
f 334/27/1 335/27/1 336/27/1
f 338/113/5 337/112/5 339/114/5
f 338/113/5 339/114/5 340/115/5
f 342/27/3 341/27/3 343/27/3
f 342/27/3 343/27/3 344/27/3
f 346/27/5 345/27/5 347/27/5
f 346/27/5 347/27/5 348/27/5
f 349/27/4 350/27/4 351/27/4
f 351/27/4 350/27/4 352/27/4
f 354/27/5 353/27/5 355/27/5
f 354/27/5 355/27/5 356/27/5
f 358/27/3 357/27/3 359/27/3
f 358/27/3 359/27/3 360/27/3
f 361/27/6 362/27/6 363/27/6
f 363/27/6 362/27/6 364/27/6
f 366/27/5 365/27/5 367/27/5
f 366/27/5 367/27/5 368/27/5
f 369/116/4 370/117/4 371/118/4
f 371/118/4 370/117/4 372/119/4
f 374/121/5 373/120/5 375/122/5
f 374/121/5 375/122/5 376/123/5
f 378/67/3 377/67/3 379/67/3
f 378/67/3 379/67/3 380/67/3
f 382/125/1 381/124/1 383/126/1
f 382/125/1 383/126/1 384/127/1
f 386/129/5 385/128/5 387/130/5
f 386/129/5 387/130/5 388/131/5
f 390/22/3 389/22/3 391/22/3
f 390/22/3 391/22/3 392/22/3
f 394/27/5 393/27/5 395/27/5
f 394/27/5 395/27/5 396/27/5
f 397/27/4 398/27/4 399/27/4
f 399/27/4 398/27/4 400/27/4
f 401/21/6 402/21/6 403/21/6
f 403/21/6 402/21/6 404/21/6
f 405/27/6 406/27/6 407/27/6
f 407/27/6 406/27/6 408/27/6
f 409/67/6 410/67/6 411/67/6
f 411/67/6 410/67/6 412/67/6
f 414/22/5 413/22/5 415/22/5
f 414/22/5 415/22/5 416/22/5
f 417/27/6 418/27/6 419/27/6
f 419/27/6 418/27/6 420/27/6
f 422/27/5 421/27/5 423/27/5
f 422/27/5 423/27/5 424/27/5
f 426/27/5 425/27/5 427/27/5
f 426/27/5 427/27/5 428/27/5
f 429/67/4 430/67/4 431/67/4
f 431/67/4 430/67/4 432/67/4
f 434/132/1 433/132/1 435/132/1
f 434/132/1 435/132/1 436/132/1
f 438/27/1 437/27/1 439/27/1
f 438/27/1 439/27/1 440/27/1
f 441/27/6 442/27/6 443/27/6
f 443/27/6 442/27/6 444/27/6
f 445/27/4 446/27/4 447/27/4
f 447/27/4 446/27/4 448/27/4
f 450/22/1 449/22/1 451/22/1
f 450/22/1 451/22/1 452/22/1
f 454/27/5 453/27/5 455/27/5
f 454/27/5 455/27/5 456/27/5
f 457/27/4 458/27/4 459/27/4
f 459/27/4 458/27/4 460/27/4
f 462/27/1 461/27/1 463/27/1
f 462/27/1 463/27/1 464/27/1
f 466/27/5 465/27/5 467/27/5
f 466/27/5 467/27/5 468/27/5
f 470/27/3 469/27/3 471/27/3
f 470/27/3 471/27/3 472/27/3
f 474/27/1 473/27/1 475/27/1
f 474/27/1 475/27/1 476/27/1
f 478/27/5 477/27/5 479/27/5
f 478/27/5 479/27/5 480/27/5
f 482/134/5 481/133/5 483/135/5
f 482/134/5 483/135/5 484/136/5
f 486/42/3 485/42/3 487/42/3
f 486/42/3 487/42/3 488/42/3
f 489/137/6 490/137/6 491/137/6
f 491/137/6 490/137/6 492/137/6
f 494/137/1 493/137/1 495/137/1
f 494/137/1 495/137/1 496/137/1
f 498/139/5 497/138/5 499/140/5
f 498/139/5 499/140/5 500/141/5
f 502/22/3 501/22/3 503/22/3
f 502/22/3 503/22/3 504/22/3
f 506/27/5 505/27/5 507/27/5
f 506/27/5 507/27/5 508/27/5
f 510/27/5 509/27/5 511/27/5
f 510/27/5 511/27/5 512/27/5
f 514/27/3 513/27/3 515/27/3
f 514/27/3 515/27/3 516/27/3
f 518/27/5 517/27/5 519/27/5
f 518/27/5 519/27/5 520/27/5
f 522/27/3 521/27/3 523/27/3
f 522/27/3 523/27/3 524/27/3
f 525/142/4 526/143/4 527/144/4
f 527/144/4 526/143/4 528/145/4
f 529/27/6 530/27/6 531/27/6
f 531/27/6 530/27/6 532/27/6
f 534/147/1 533/146/1 535/148/1
f 534/147/1 535/148/1 536/149/1
f 538/151/5 537/150/5 539/152/5
f 538/151/5 539/152/5 540/153/5
f 542/155/3 541/154/3 543/156/3
f 542/155/3 543/156/3 544/157/3
f 545/27/4 546/27/4 547/27/4
f 547/27/4 546/27/4 548/27/4
f 550/21/1 549/21/1 551/21/1
f 550/21/1 551/21/1 552/21/1
f 554/159/5 553/158/5 555/160/5
f 554/159/5 555/160/5 556/161/5
f 558/163/3 557/162/3 559/164/3
f 558/163/3 559/164/3 560/165/3
f 561/22/6 562/22/6 563/22/6
f 563/22/6 562/22/6 564/22/6
f 566/27/5 565/27/5 567/27/5
f 566/27/5 567/27/5 568/27/5
f 570/27/5 569/27/5 571/27/5
f 570/27/5 571/27/5 572/27/5
f 573/27/4 574/27/4 575/27/4
f 575/27/4 574/27/4 576/27/4
f 577/27/6 578/27/6 579/27/6
f 579/27/6 578/27/6 580/27/6
f 582/167/5 581/166/5 583/168/5
f 582/167/5 583/168/5 584/169/5
f 586/171/3 585/170/3 587/172/3
f 586/171/3 587/172/3 588/173/3
f 589/137/4 590/137/4 591/137/4
f 591/137/4 590/137/4 592/137/4
f 594/27/1 593/27/1 595/27/1
f 594/27/1 595/27/1 596/27/1
f 597/27/6 598/27/6 599/27/6
f 599/27/6 598/27/6 600/27/6
f 602/27/5 601/27/5 603/27/5
f 602/27/5 603/27/5 604/27/5
f 606/27/5 605/27/5 607/27/5
f 606/27/5 607/27/5 608/27/5
f 609/132/4 610/132/4 611/132/4
f 611/132/4 610/132/4 612/132/4
f 614/37/1 613/37/1 615/37/1
f 614/37/1 615/37/1 616/37/1
f 618/175/5 617/174/5 619/176/5
f 618/175/5 619/176/5 620/177/5
f 622/179/3 621/178/3 623/180/3
f 622/179/3 623/180/3 624/181/3
f 626/137/1 625/137/1 627/137/1
f 626/137/1 627/137/1 628/137/1
f 630/183/5 629/182/5 631/184/5
f 630/183/5 631/184/5 632/185/5
f 633/137/6 634/137/6 635/137/6
f 635/137/6 634/137/6 636/137/6
f 638/27/5 637/27/5 639/27/5
f 638/27/5 639/27/5 640/27/5
f 642/187/5 641/186/5 643/188/5
f 642/187/5 643/188/5 644/189/5
f 646/32/3 645/32/3 647/32/3
f 646/32/3 647/32/3 648/32/3
f 650/191/5 649/190/5 651/192/5
f 650/191/5 651/192/5 652/193/5
f 654/27/3 653/27/3 655/27/3
f 654/27/3 655/27/3 656/27/3
f 657/27/4 658/27/4 659/27/4
f 659/27/4 658/27/4 660/27/4
f 662/67/1 661/67/1 663/67/1
f 662/67/1 663/67/1 664/67/1
f 666/195/5 665/194/5 667/196/5
f 666/195/5 667/196/5 668/197/5
f 670/199/5 669/198/5 671/200/5
f 670/199/5 671/200/5 672/201/5
f 674/137/3 673/137/3 675/137/3
f 674/137/3 675/137/3 676/137/3
f 677/202/6 678/203/6 679/204/6
f 679/204/6 678/203/6 680/205/6
