# Export of Cubik Model: Cubik Model
# Designed by MeLee with Cubik Studio - https://cubik.studio
# from Cubik OBJ Exporter v1.0
mtllib street_32_crosswalk_1a_mi.mtl
v 0 0 1.907349E-06
v -16 0 1.907349E-06
v 0 2 1.907349E-06
v -16 2 1.907349E-06
v 0 0 1.907349E-06
v -16 0 1.907349E-06
v 0 0 -16
v -16 0 -16
v 0 0 1.907349E-06
v 0 2 1.907349E-06
v 0 0 -16
v 0 2 -16
v 0 0 -16
v -16 0 -16
v 0 2 -16
v -16 2 -16
v 0 2 1.907349E-06
v -10 2 1.907349E-06
v 0 2 -16
v -10 2 -16
v -10 1.5 -6.499998
v -10 2 -6.499998
v -10 1.5 -6.999998
v -10 2 -6.999998
v -10 1.5 -7.999998
v -10 2 -7.999998
v -10 1.5 -8.999998
v -10 2 -8.999998
v -10 1.5 -6.499998
v -11.5 1.5 -6.499998
v -10 1.5 -6.999998
v -11.5 1.5 -6.999998
v -10.5 1 -7.499998
v -10.5 1.5 -7.499998
v -10.5 1 -8.999998
v -10.5 1.5 -8.999998
v -10 1.5 -7.999998
v -10.5 1.5 -7.999998
v -10 1.5 -8.999998
v -10.5 1.5 -8.999998
v -10 2 1.907349E-06
v -11 2 1.907349E-06
v -10 2 -6.499998
v -11 2 -6.499998
v -10 1.5 -6.499998
v -11.5 1.5 -6.499998
v -10 2 -6.499998
v -11.5 2 -6.499998
v -10 1.5 -6.999998
v -10.5 1.5 -6.999998
v -10 2 -6.999998
v -10.5 2 -6.999998
v -10 2 -6.999998
v -10.5 2 -6.999998
v -10 2 -7.999998
v -10.5 2 -7.999998
v -10.5 1.5 -6.999998
v -10.5 2 -6.999998
v -10.5 1.5 -7.999998
v -10.5 2 -7.999998
v -10 1.5 -7.999998
v -10.5 1.5 -7.999998
v -10 2 -7.999998
v -10.5 2 -7.999998
v -10 1.5 -8.999998
v -10.5 1.5 -8.999998
v -10 2 -8.999998
v -10.5 2 -8.999998
v -10 2 -8.999998
v -10.5 2 -8.999998
v -10 2 -16
v -10.5 2 -16
v -10.5 1.5 -8.999998
v -10.5 2 -8.999998
v -10.5 1.5 -9.999998
v -10.5 2 -9.999998
v -10.5 1 -7.499998
v -11 1 -7.499998
v -10.5 1 -8.999998
v -11 1 -8.999998
v -10.5 1 -7.499998
v -11 1 -7.499998
v -10.5 1.5 -7.499998
v -11 1.5 -7.499998
v -10.5 1.5 -6.999998
v -11 1.5 -6.999998
v -10.5 1.5 -7.499998
v -11 1.5 -7.499998
v -11 1 -6.999998
v -11 1.5 -6.999998
v -11 1 -7.499998
v -11 1.5 -7.499998
v -10.5 1 -8.999998
v -11 1 -8.999998
v -10.5 1.5 -8.999998
v -11 1.5 -8.999998
v -10.5 1.5 -8.999998
v -11 1.5 -8.999998
v -10.5 1.5 -9.999998
v -11 1.5 -9.999998
v -11 1 -8.999998
v -11 1.5 -8.999998
v -11 1 -9.499998
v -11 1.5 -9.499998
v -11 1.5 -4.999998
v -11 2 -4.999998
v -11 1.5 -5.999998
v -11 2 -5.999998
v -10.5 1.5 -9.999998
v -11 1.5 -9.999998
v -10.5 2 -9.999998
v -11 2 -9.999998
v -10.5 2 -9.999998
v -11 2 -9.999998
v -10.5 2 -16
v -11 2 -16
v -11 1.5 -9.999998
v -11 2 -9.999998
v -11 1.5 -10.5
v -11 2 -10.5
v -11 1 -6.999998
v -11.5 1 -6.999998
v -11 1 -7.999998
v -11.5 1 -7.999998
v -11.5 0.5 -7.499998
v -11.5 1 -7.499998
v -11.5 0.5 -7.999998
v -11.5 1 -7.999998
v -11 1 -8.499998
v -12 1 -8.499998
v -11 1 -9.499998
v -12 1 -9.499998
v -11 1.5 -4.999998
v -11.5 1.5 -4.999998
v -11 1.5 -5.999998
v -11.5 1.5 -5.999998
v -11 1 -6.999998
v -11.5 1 -6.999998
v -11 1.5 -6.999998
v -11.5 1.5 -6.999998
v -11.5 1 -6.499998
v -11.5 1.5 -6.499998
v -11.5 1 -6.999998
v -11.5 1.5 -6.999998
v -11 1 -8.499998
v -11.5 1 -8.499998
v -11 1.5 -8.499998
v -11.5 1.5 -8.499998
v -11 1 -7.999998
v -11.5 1 -7.999998
v -11 1.5 -7.999998
v -11.5 1.5 -7.999998
v -11 1.5 -7.999998
v -11.5 1.5 -7.999998
v -11 1.5 -8.499998
v -11.5 1.5 -8.499998
v -11 1 -7.999998
v -11 1.5 -7.999998
v -11 1 -8.499998
v -11 1.5 -8.499998
v -11.5 1 -7.999998
v -11.5 1.5 -7.999998
v -11.5 1 -8.499998
v -11.5 1.5 -8.499998
v -11 1 -9.499998
v -12 1 -9.499998
v -11 1.5 -9.499998
v -12 1.5 -9.499998
v -11 1.5 -9.499998
v -12 1.5 -9.499998
v -11 1.5 -10.5
v -12 1.5 -10.5
v -11 2 1.907349E-06
v -16 2 1.907349E-06
v -11 2 -4.999998
v -16 2 -4.999998
v -11 1.5 -4.999998
v -11.5 1.5 -4.999998
v -11 2 -4.999998
v -11.5 2 -4.999998
v -11 1.5 -5.999998
v -11.5 1.5 -5.999998
v -11 2 -5.999998
v -11.5 2 -5.999998
v -11 2 -5.999998
v -11.5 2 -5.999998
v -11 2 -6.499998
v -11.5 2 -6.499998
v -11.5 1.5 -5.999998
v -11.5 2 -5.999998
v -11.5 1.5 -6.499998
v -11.5 2 -6.499998
v -11 1.5 -10.5
v -11.5 1.5 -10.5
v -11 2 -10.5
v -11.5 2 -10.5
v -11 2 -10.5
v -11.5 2 -10.5
v -11 2 -16
v -11.5 2 -16
v -11.5 1.5 -10.5
v -11.5 2 -10.5
v -11.5 1.5 -11
v -11.5 2 -11
v -11.5 0.5 -7.499998
v -13 0.5 -7.499998
v -11.5 0.5 -7.999998
v -13 0.5 -7.999998
v -11.5 1 -6.499998
v -12.5 1 -6.499998
v -11.5 1 -6.999998
v -12.5 1 -6.999998
v -11.5 0.5 -7.499998
v -13 0.5 -7.499998
v -11.5 1.5 -7.499998
v -13 1.5 -7.499998
v -11.5 0.5 -7.999998
v -13 0.5 -7.999998
v -11.5 1 -7.999998
v -13 1 -7.999998
v -11.5 1 -7.999998
v -12.5 1 -7.999998
v -11.5 1 -8.499998
v -12.5 1 -8.499998
v -11.5 1 -6.499998
v -12.5 1 -6.499998
v -11.5 1.5 -6.499998
v -12.5 1.5 -6.499998
v -11.5 1.5 -5.999998
v -12 1.5 -5.999998
v -11.5 1.5 -6.499998
v -12 1.5 -6.499998
v -11.5 1 -6.999998
v -12.5 1 -6.999998
v -11.5 1.5 -6.999998
v -12.5 1.5 -6.999998
v -11.5 1.5 -6.999998
v -13 1.5 -6.999998
v -11.5 1.5 -7.499998
v -13 1.5 -7.499998
v -11.5 1 -6.999998
v -11.5 1.5 -6.999998
v -11.5 1 -7.499998
v -11.5 1.5 -7.499998
v -11.5 1.5 -10.5
v -12 1.5 -10.5
v -11.5 1.5 -11
v -12 1.5 -11
v -11.5 2 -4.999998
v -16 2 -4.999998
v -11.5 2 -5.999998
v -16 2 -5.999998
v -11.5 1.5 -4.999998
v -11.5 2 -4.999998
v -11.5 1.5 -5.999998
v -11.5 2 -5.999998
v -11.5 1.5 -5.999998
v -12 1.5 -5.999998
v -11.5 2 -5.999998
v -12 2 -5.999998
v -11.5 1.5 -11
v -12 1.5 -11
v -11.5 2 -11
v -12 2 -11
v -11.5 2 -11
v -16 2 -11
v -11.5 2 -16
v -16 2 -16
v -12 1 -8.499998
v -12.5 1 -8.499998
v -12 1.5 -8.499998
v -12.5 1.5 -8.499998
v -12 1.5 -8.499998
v -13 1.5 -8.499998
v -12 1.5 -8.999998
v -13 1.5 -8.999998
v -12 1 -8.499998
v -12 1.5 -8.499998
v -12 1 -9.499998
v -12 1.5 -9.499998
v -12 1.5 -6.499998
v -13 1.5 -6.499998
v -12 2 -6.499998
v -13 2 -6.499998
v -12 2 -5.999998
v -16 2 -5.999998
v -12 2 -6.499998
v -16 2 -6.499998
v -12 1.5 -5.999998
v -12 2 -5.999998
v -12 1.5 -6.499998
v -12 2 -6.499998
v -12 1.5 -8.999998
v -13 1.5 -8.999998
v -12 2 -8.999998
v -13 2 -8.999998
v -12 2 -8.999998
v -16 2 -8.999998
v -12 2 -11
v -16 2 -11
v -12 1.5 -8.999998
v -12 2 -8.999998
v -12 1.5 -11
v -12 2 -11
v -12.5 1.5 -6.499998
v -13 1.5 -6.499998
v -12.5 1.5 -6.999998
v -13 1.5 -6.999998
v -12.5 1 -6.499998
v -12.5 1.5 -6.499998
v -12.5 1 -6.999998
v -12.5 1.5 -6.999998
v -13 1 -6.999998
v -13 1.5 -6.999998
v -13 1 -7.499998
v -13 1.5 -7.499998
v -12.5 1 -7.999998
v -13 1 -7.999998
v -12.5 1.5 -7.999998
v -13 1.5 -7.999998
v -12.5 1.5 -7.999998
v -14 1.5 -7.999998
v -12.5 1.5 -8.499998
v -14 1.5 -8.499998
v -12.5 1 -7.999998
v -12.5 1.5 -7.999998
v -12.5 1 -8.499998
v -12.5 1.5 -8.499998
v -13 1 -6.999998
v -13.5 1 -6.999998
v -13 1 -7.499998
v -13.5 1 -7.499998
v -13 0.5 -7.499998
v -13 1.5 -7.499998
v -13 0.5 -7.999998
v -13 1.5 -7.999998
v -13 1 -6.999998
v -13.5 1 -6.999998
v -13 2 -6.999998
v -13.5 2 -6.999998
v -13 1 -7.499998
v -13.5 1 -7.499998
v -13 1.5 -7.499998
v -13.5 1.5 -7.499998
v -13 1.5 -7.499998
v -14 1.5 -7.499998
v -13 1.5 -7.999998
v -14 1.5 -7.999998
v -13 2 -6.499998
v -16 2 -6.499998
v -13 2 -6.999998
v -16 2 -6.999998
v -13 1.5 -6.499998
v -13 2 -6.499998
v -13 1.5 -6.999998
v -13 2 -6.999998
v -13 1.5 -8.499998
v -14 1.5 -8.499998
v -13 2 -8.499998
v -14 2 -8.499998
v -13 2 -8.499998
v -16 2 -8.499998
v -13 2 -8.999998
v -16 2 -8.999998
v -13 1.5 -8.499998
v -13 2 -8.499998
v -13 1.5 -8.999998
v -13 2 -8.999998
v -13.5 1 -6.999998
v -13.5 2 -6.999998
v -13.5 1 -7.499998
v -13.5 2 -7.499998
v -13.5 1.5 -7.499998
v -14 1.5 -7.499998
v -13.5 2 -7.499998
v -14 2 -7.499998
v -13.5 2 -6.999998
v -16 2 -6.999998
v -13.5 2 -7.499998
v -16 2 -7.499998
v -14 2 -7.499998
v -16 2 -7.499998
v -14 2 -8.499998
v -16 2 -8.499998
v -14 1.5 -7.499998
v -14 2 -7.499998
v -14 1.5 -8.499998
v -14 2 -8.499998
v -16 0 1.907349E-06
v -16 2 1.907349E-06
v -16 0 -16
v -16 2 -16
vn 0 -5.960464E-08 0.9999999
vn 0 -0.9999999 -5.960464E-08
vn 1 0 0
vn 0 5.960464E-08 -0.9999999
vn 0 0.9999999 5.960464E-08
vn -1 0 0
vt 0.015625 0.2890625
vt 0.515625 0.2890625
vt 0.015625 0.3203125
vt 0.515625 0.3203125
vt 0.015625 0.0078125
vt 0.515625 0.0078125
vt 0.015625 0.2578125
vt 0.515625 0.2578125
vt 0.015625 0.3515625
vt 0.078125 0.3515625
vt 0.015625 0.6015625
vt 0.078125 0.6015625
vt 0.140625 0.3515625
vt 0.640625 0.3515625
vt 0.140625 0.3828125
vt 0.640625 0.3828125
vt 0.578125 0.0078125
vt 0.890625 0.0078125
vt 0.578125 0.2578125
vt 0.890625 0.2578125
vt 0.953125 0.0078125
vt 0.953125 0.0390625
vt 0.890625 0.3515625
vt 0.90625 0.3515625
vt 0.890625 0.375
vt 0.90625 0.375
vt 0.140625 0.5234375
vt 0.171875 0.5234375
vt 0.140625 0.625
vt 0.171875 0.625
vt 0.140625 0.65625
vt 0.15625 0.65625
vt 0.140625 0.765625
vt 0.15625 0.765625
vt 0.140625 0.796875
vt 0.15625 0.796875
vt 0.140625 0.890625
vt 0.15625 0.890625
vt 0.140625 0.4140625
vt 0.296875 0.4140625
vt 0.140625 0.4921875
vt 0.296875 0.4921875
vt 0.234375 0.5234375
vt 0.25 0.5234375
vt 0.234375 0.609375
vt 0.25 0.609375
vt 0.953125 0.0703125
vt 0.015625 0.9609375
vt 0.0625 0.9609375
vt 0.015625 0.9765625
vt 0.0625 0.9765625
vt 0.765625 0.2890625
vt 0.90625 0.2890625
vt 0.765625 0.3046875
vt 0.90625 0.3046875
vt 0.359375 0.4140625
vt 0.5 0.4140625
vt 0.359375 0.4921875
vt 0.5 0.4921875
vt 0.703125 0.3515625
vt 0.828125 0.3515625
vt 0.703125 0.359375
vt 0.828125 0.359375
vt 0.578125 0.2890625
vt 0.703125 0.2890625
vt 0.578125 0.3203125
vt 0.703125 0.3203125
vt 0.71875 0.453125
vt 0.75 0.453125
vt 0.71875 0.4609375
vt 0.75 0.4609375
vt 0.5625 0.4140625
vt 0.65625 0.4140625
vt 0.5625 0.421875
vt 0.65625 0.421875
vt 0.859375 0.4140625
vt 0.890625 0.4140625
vt 0.859375 0.421875
vt 0.890625 0.421875
vt 0.5625 0.453125
vt 0.65625 0.453125
vt 0.5625 0.4609375
vt 0.65625 0.4609375
vt 0.71875 0.4140625
vt 0.796875 0.4140625
vt 0.71875 0.421875
vt 0.796875 0.421875
vt 0.015625 0.9140625
vt 0.078125 0.9140625
vt 0.015625 0.9296875
vt 0.078125 0.9296875
vt 0.015625 0.6328125
vt 0.078125 0.6328125
vt 0.015625 0.8828125
vt 0.078125 0.8828125
usemtl voxel
f 2/2/1 1/1/1 3/3/1
f 2/2/1 3/3/1 4/4/1
f 5/5/2 6/6/2 7/7/2
f 7/7/2 6/6/2 8/8/2
f 10/10/3 9/9/3 11/11/3
f 10/10/3 11/11/3 12/12/3
f 13/13/4 14/14/4 15/15/4
f 15/15/4 14/14/4 16/16/4
f 18/18/5 17/17/5 19/19/5
f 18/18/5 19/19/5 20/20/5
f 21/21/6 22/21/6 23/21/6
f 23/21/6 22/21/6 24/21/6
f 25/21/6 26/21/6 27/21/6
f 27/21/6 26/21/6 28/21/6
f 30/22/5 29/22/5 31/22/5
f 30/22/5 31/22/5 32/22/5
f 33/23/6 34/24/6 35/25/6
f 35/25/6 34/24/6 36/26/6
f 38/22/5 37/22/5 39/22/5
f 38/22/5 39/22/5 40/22/5
f 42/28/5 41/27/5 43/29/5
f 42/28/5 43/29/5 44/30/5
f 45/21/4 46/21/4 47/21/4
f 47/21/4 46/21/4 48/21/4
f 50/21/1 49/21/1 51/21/1
f 50/21/1 51/21/1 52/21/1
f 54/21/5 53/21/5 55/21/5
f 54/21/5 55/21/5 56/21/5
f 57/21/6 58/21/6 59/21/6
f 59/21/6 58/21/6 60/21/6
f 61/21/4 62/21/4 63/21/4
f 63/21/4 62/21/4 64/21/4
f 66/21/1 65/21/1 67/21/1
f 66/21/1 67/21/1 68/21/1
f 70/32/5 69/31/5 71/33/5
f 70/32/5 71/33/5 72/34/5
f 73/21/6 74/21/6 75/21/6
f 75/21/6 74/21/6 76/21/6
f 78/22/5 77/22/5 79/22/5
f 78/22/5 79/22/5 80/22/5
f 81/22/4 82/22/4 83/22/4
f 83/22/4 82/22/4 84/22/4
f 86/22/5 85/22/5 87/22/5
f 86/22/5 87/22/5 88/22/5
f 89/22/6 90/22/6 91/22/6
f 91/22/6 90/22/6 92/22/6
f 94/22/1 93/22/1 95/22/1
f 94/22/1 95/22/1 96/22/1
f 98/22/5 97/22/5 99/22/5
f 98/22/5 99/22/5 100/22/5
f 101/22/6 102/22/6 103/22/6
f 103/22/6 102/22/6 104/22/6
f 105/21/6 106/21/6 107/21/6
f 107/21/6 106/21/6 108/21/6
f 110/21/1 109/21/1 111/21/1
f 110/21/1 111/21/1 112/21/1
f 114/36/5 113/35/5 115/37/5
f 114/36/5 115/37/5 116/38/5
f 117/21/6 118/21/6 119/21/6
f 119/21/6 118/21/6 120/21/6
f 122/22/5 121/22/5 123/22/5
f 122/22/5 123/22/5 124/22/5
f 125/22/6 126/22/6 127/22/6
f 127/22/6 126/22/6 128/22/6
f 130/22/5 129/22/5 131/22/5
f 130/22/5 131/22/5 132/22/5
f 134/22/5 133/22/5 135/22/5
f 134/22/5 135/22/5 136/22/5
f 137/22/4 138/22/4 139/22/4
f 139/22/4 138/22/4 140/22/4
f 141/22/6 142/22/6 143/22/6
f 143/22/6 142/22/6 144/22/6
f 145/22/4 146/22/4 147/22/4
f 147/22/4 146/22/4 148/22/4
f 150/22/1 149/22/1 151/22/1
f 150/22/1 151/22/1 152/22/1
f 154/22/5 153/22/5 155/22/5
f 154/22/5 155/22/5 156/22/5
f 158/22/3 157/22/3 159/22/3
f 158/22/3 159/22/3 160/22/3
f 161/22/6 162/22/6 163/22/6
f 163/22/6 162/22/6 164/22/6
f 166/22/1 165/22/1 167/22/1
f 166/22/1 167/22/1 168/22/1
f 170/22/5 169/22/5 171/22/5
f 170/22/5 171/22/5 172/22/5
f 174/40/5 173/39/5 175/41/5
f 174/40/5 175/41/5 176/42/5
f 177/21/4 178/21/4 179/21/4
f 179/21/4 178/21/4 180/21/4
f 182/21/1 181/21/1 183/21/1
f 182/21/1 183/21/1 184/21/1
f 186/21/5 185/21/5 187/21/5
f 186/21/5 187/21/5 188/21/5
f 189/21/6 190/21/6 191/21/6
f 191/21/6 190/21/6 192/21/6
f 194/21/1 193/21/1 195/21/1
f 194/21/1 195/21/1 196/21/1
f 198/44/5 197/43/5 199/45/5
f 198/44/5 199/45/5 200/46/5
f 201/21/6 202/21/6 203/21/6
f 203/21/6 202/21/6 204/21/6
f 206/47/5 205/47/5 207/47/5
f 206/47/5 207/47/5 208/47/5
f 210/22/5 209/22/5 211/22/5
f 210/22/5 211/22/5 212/22/5
f 213/48/4 214/49/4 215/50/4
f 215/50/4 214/49/4 216/51/4
f 218/22/1 217/22/1 219/22/1
f 218/22/1 219/22/1 220/22/1
f 222/22/5 221/22/5 223/22/5
f 222/22/5 223/22/5 224/22/5
f 225/22/4 226/22/4 227/22/4
f 227/22/4 226/22/4 228/22/4
f 230/22/5 229/22/5 231/22/5
f 230/22/5 231/22/5 232/22/5
f 234/22/1 233/22/1 235/22/1
f 234/22/1 235/22/1 236/22/1
f 238/22/5 237/22/5 239/22/5
f 238/22/5 239/22/5 240/22/5
f 242/22/3 241/22/3 243/22/3
f 242/22/3 243/22/3 244/22/3
f 246/22/5 245/22/5 247/22/5
f 246/22/5 247/22/5 248/22/5
f 250/53/5 249/52/5 251/54/5
f 250/53/5 251/54/5 252/55/5
f 254/21/3 253/21/3 255/21/3
f 254/21/3 255/21/3 256/21/3
f 257/21/4 258/21/4 259/21/4
f 259/21/4 258/21/4 260/21/4
f 262/21/1 261/21/1 263/21/1
f 262/21/1 263/21/1 264/21/1
f 266/57/5 265/56/5 267/58/5
f 266/57/5 267/58/5 268/59/5
f 270/22/1 269/22/1 271/22/1
f 270/22/1 271/22/1 272/22/1
f 274/22/5 273/22/5 275/22/5
f 274/22/5 275/22/5 276/22/5
f 278/22/3 277/22/3 279/22/3
f 278/22/3 279/22/3 280/22/3
f 281/22/4 282/22/4 283/22/4
f 283/22/4 282/22/4 284/22/4
f 286/61/5 285/60/5 287/62/5
f 286/61/5 287/62/5 288/63/5
f 290/22/3 289/22/3 291/22/3
f 290/22/3 291/22/3 292/22/3
f 294/22/1 293/22/1 295/22/1
f 294/22/1 295/22/1 296/22/1
f 298/65/5 297/64/5 299/66/5
f 298/65/5 299/66/5 300/67/5
f 302/22/3 301/22/3 303/22/3
f 302/22/3 303/22/3 304/22/3
f 306/22/5 305/22/5 307/22/5
f 306/22/5 307/22/5 308/22/5
f 310/22/3 309/22/3 311/22/3
f 310/22/3 311/22/3 312/22/3
f 313/22/6 314/22/6 315/22/6
f 315/22/6 314/22/6 316/22/6
f 318/22/1 317/22/1 319/22/1
f 318/22/1 319/22/1 320/22/1
f 322/22/5 321/22/5 323/22/5
f 322/22/5 323/22/5 324/22/5
f 326/22/3 325/22/3 327/22/3
f 326/22/3 327/22/3 328/22/3
f 330/22/5 329/22/5 331/22/5
f 330/22/5 331/22/5 332/22/5
f 334/69/3 333/68/3 335/70/3
f 334/69/3 335/70/3 336/71/3
f 337/22/4 338/22/4 339/22/4
f 339/22/4 338/22/4 340/22/4
f 342/22/1 341/22/1 343/22/1
f 342/22/1 343/22/1 344/22/1
f 346/22/5 345/22/5 347/22/5
f 346/22/5 347/22/5 348/22/5
f 350/73/5 349/72/5 351/74/5
f 350/73/5 351/74/5 352/75/5
f 354/22/3 353/22/3 355/22/3
f 354/22/3 355/22/3 356/22/3
f 358/77/1 357/76/1 359/78/1
f 358/77/1 359/78/1 360/79/1
f 362/81/5 361/80/5 363/82/5
f 362/81/5 363/82/5 364/83/5
f 366/22/3 365/22/3 367/22/3
f 366/22/3 367/22/3 368/22/3
f 370/22/3 369/22/3 371/22/3
f 370/22/3 371/22/3 372/22/3
f 373/22/4 374/22/4 375/22/4
f 375/22/4 374/22/4 376/22/4
f 378/85/5 377/84/5 379/86/5
f 378/85/5 379/86/5 380/87/5
f 382/89/5 381/88/5 383/90/5
f 382/89/5 383/90/5 384/91/5
f 386/22/3 385/22/3 387/22/3
f 386/22/3 387/22/3 388/22/3
f 389/92/6 390/93/6 391/94/6
f 391/94/6 390/93/6 392/95/6
