# Export of Cubik Model: Cubik Model
# Designed by MeLee with Cubik Studio - https://cubik.studio
# from Cubik OBJ Exporter v1.0
mtllib street_32_2c_M.mtl
v 0 0 1.907349E-06
v -16 0 1.907349E-06
v 0 2 1.907349E-06
v -16 2 1.907349E-06
v 0 0 1.907349E-06
v -16 0 1.907349E-06
v 0 1.907349E-06 -32
v -16 1.907349E-06 -32
v 0 0 1.907349E-06
v 0 2 1.907349E-06
v 0 1.907349E-06 -32
v 0 2.000002 -32
v 0 1.907349E-06 -32
v -16 1.907349E-06 -32
v 0 2.000002 -32
v -16 2.000002 -32
v 0 2 1.907349E-06
v -2.5 2 1.907349E-06
v 0 2.000002 -32
v -2.5 2.000002 -32
v -2.5 1.5 -12
v -2.5 2 -12
v -2.5 1.5 -13
v -2.5 2 -13
v -2.5 1.5 -12
v -3 1.5 -12
v -2.5 1.5 -13
v -3 1.5 -13
v -2.5 2 1.907349E-06
v -3 2 1.907349E-06
v -2.5 2 -12
v -3 2 -12
v -3 1.5 -11
v -3 2 -11
v -3 1.5 -11.5
v -3 2 -11.5
v -2.5 1.5 -12
v -3 1.5 -12
v -2.5 2 -12
v -3 2 -12
v -2.5 1.5 -13
v -4.5 1.5 -13
v -2.5 2 -13
v -4.5 2 -13
v -2.5 2 -13
v -3.5 2 -13
v -2.5 2.000002 -32
v -3.5 2.000002 -32
v -3 1.5 -11
v -4 1.5 -11
v -3 1.5 -11.5
v -4 1.5 -11.5
v -3 1.5 -12.5
v -5 1.5 -12.5
v -3 1.5 -13
v -5 1.5 -13
v -3 2 1.907349E-06
v -3.5 2 1.907349E-06
v -3 2 -11
v -3.5 2 -11
v -3.5 1.5 -9.999998
v -3.5 2 -9.999998
v -3.5 1.5 -10.5
v -3.5 2 -10.5
v -3 1.5 -11
v -4 1.5 -11
v -3 2 -11
v -4 2 -11
v -3 1.5 -11.5
v -3.5 1.5 -11.5
v -3 2 -11.5
v -3.5 2 -11.5
v -3 2 -11.5
v -3.5 2 -11.5
v -3 2 -12.5
v -3.5 2 -12.5
v -3.5 1.5 -11.5
v -3.5 2 -11.5
v -3.5 1.5 -12
v -3.5 2 -12
v -3 1.5 -12.5
v -4 1.5 -12.5
v -3 2 -12.5
v -4 2 -12.5
v -3 1.5 -12
v -3 2 -12
v -3 1.5 -12.5
v -3 2 -12.5
v -3.5 1.500002 -23
v -3.5 2.000002 -23
v -3.5 1.500002 -23.5
v -3.5 2.000002 -23.5
v -3.5 1.5 -9.999998
v -5.5 1.5 -9.999998
v -3.5 1.5 -10.5
v -5.5 1.5 -10.5
v -4 1 -11
v -4 1.5 -11
v -4 1 -12
v -4 1.5 -12
v -3.5 1.5 -11.5
v -4 1.5 -11.5
v -3.5 1.5 -12
v -4 1.5 -12
v -3.5 1.500002 -23
v -4 1.500002 -23
v -3.5 1.500002 -23.5
v -4 1.500002 -23.5
v -3.5 2 1.907349E-06
v -4 2 1.907349E-06
v -3.5 2 -9.999998
v -4 2 -9.999998
v -3.5 1.5 -9.999998
v -4 1.5 -9.999998
v -3.5 2 -9.999998
v -4 2 -9.999998
v -4 1.5 -9.499998
v -4 2 -9.499998
v -4 1.5 -9.999998
v -4 2 -9.999998
v -3.5 1.5 -10.5
v -4 1.5 -10.5
v -3.5 2 -10.5
v -4 2 -10.5
v -3.5 2 -10.5
v -4 2 -10.5
v -3.5 2 -11
v -4 2 -11
v -4 1.5 -10.5
v -4 2 -10.5
v -4 1.5 -11
v -4 2 -11
v -3.5 1.5 -12
v -4 1.5 -12
v -3.5 2 -12
v -4 2 -12
v -3.5 2 -12
v -4 2 -12
v -3.5 2 -12.5
v -4 2 -12.5
v -4 1.5 -12
v -4 2 -12
v -4 1.5 -12.5
v -4 2 -12.5
v -3.5 2 -13
v -4 2 -13
v -3.5 2.000002 -23
v -4 2.000002 -23
v -4 1.500002 -21.5
v -4 2.000002 -21.5
v -4 1.500002 -22
v -4 2.000002 -22
v -3.5 1.500002 -23
v -4 1.500002 -23
v -3.5 2.000002 -23
v -4 2.000002 -23
v -3.5 1.500002 -23.5
v -4 1.500002 -23.5
v -3.5 2.000002 -23.5
v -4 2.000002 -23.5
v -3.5 2.000002 -23.5
v -4 2.000002 -23.5
v -3.5 2.000002 -32
v -4 2.000002 -32
v -4 1.500002 -24
v -4 2.000002 -24
v -4 1.500002 -24.5
v -4 2.000002 -24.5
v -4 1 -11
v -5 1 -11
v -4 1 -12
v -5 1 -12
v -4 1.5 -9.499998
v -5 1.5 -9.499998
v -4 1.5 -9.999998
v -5 1.5 -9.999998
v -4 1 -11
v -4.5 1 -11
v -4 1.5 -11
v -4.5 1.5 -11
v -4 1.5 -10.5
v -4.5 1.5 -10.5
v -4 1.5 -11
v -4.5 1.5 -11
v -4.5 1 -10.5
v -4.5 1.5 -10.5
v -4.5 1 -11
v -4.5 1.5 -11
v -4 1 -12
v -5.5 1 -12
v -4 1.5 -12
v -5.5 1.5 -12
v -4 1.5 -12
v -6 1.5 -12
v -4 1.5 -12.5
v -6 1.5 -12.5
v -4 1.500002 -21.5
v -5 1.500002 -21.5
v -4 1.500002 -22
v -5 1.500002 -22
v -4 1.500002 -24
v -4.5 1.500002 -24
v -4 1.500002 -24.5
v -4.5 1.500002 -24.5
v -4 2 1.907349E-06
v -10 2 1.907349E-06
v -4 2 -9.499998
v -10 2 -9.499998
v -4 1.5 -9.499998
v -5 1.5 -9.499998
v -4 2 -9.499998
v -5 2 -9.499998
v -4 2 -13
v -4.5 2 -13
v -4 2.000002 -21.5
v -4.5 2.000002 -21.5
v -4.5 1.5 -13
v -4.5 2 -13
v -4.5 1.5 -13.5
v -4.5 2 -13.5
v -4.5 1.500002 -20.5
v -4.5 2.000002 -20.5
v -4.5 1.500002 -21
v -4.5 2.000002 -21
v -4 1.500002 -21.5
v -5 1.500002 -21.5
v -4 2.000002 -21.5
v -5 2.000002 -21.5
v -4 1.500002 -22
v -4.5 1.500002 -22
v -4 2.000002 -22
v -4.5 2.000002 -22
v -4 2.000002 -22
v -4.5 2.000002 -22
v -4 2.000002 -24
v -4.5 2.000002 -24
v -4.5 1.500002 -22
v -4.5 2.000002 -22
v -4.5 1.500002 -22.5
v -4.5 2.000002 -22.5
v -4 1.500002 -23
v -4 2.000002 -23
v -4 1.500002 -23.5
v -4 2.000002 -23.5
v -4 1.500002 -24
v -4.5 1.500002 -24
v -4 2.000002 -24
v -4.5 2.000002 -24
v -4 1.500002 -24.5
v -4.5 1.500002 -24.5
v -4 2.000002 -24.5
v -4.5 2.000002 -24.5
v -4 2.000002 -24.5
v -16 2.000002 -24.5
v -4 2.000002 -32
v -16 2.000002 -32
v -4.5 1 -10.5
v -5 1 -10.5
v -4.5 1 -11
v -5 1 -11
v -4.5 1 -10.5
v -5 1 -10.5
v -4.5 1.5 -10.5
v -5 1.5 -10.5
v -4.5 1.5 -13
v -5.5 1.5 -13
v -4.5 1.5 -13.5
v -5.5 1.5 -13.5
v -4.5 1.500002 -20.5
v -6 1.500002 -20.5
v -4.5 1.500002 -21
v -6 1.500002 -21
v -4.5 1.500002 -22
v -5 1.500002 -22
v -4.5 1.500002 -22.5
v -5 1.500002 -22.5
v -4.5 1.5 -13.5
v -5 1.5 -13.5
v -4.5 2 -13.5
v -5 2 -13.5
v -4.5 2 -13.5
v -5 2 -13.5
v -4.5 2.000002 -20.5
v -5 2.000002 -20.5
v -5 1.5 -13.5
v -5 2 -13.5
v -5 1.5 -14
v -5 2 -14
v -5 1.500002 -19.5
v -5 2.000002 -19.5
v -5 1.500002 -20.5
v -5 2.000002 -20.5
v -4.5 1.500002 -20.5
v -5 1.500002 -20.5
v -4.5 2.000002 -20.5
v -5 2.000002 -20.5
v -4.5 1.500002 -21
v -5.5 1.500002 -21
v -4.5 2.000002 -21
v -5.5 2.000002 -21
v -4.5 2.000002 -21
v -5.5 2.000002 -21
v -4.5 2.000002 -21.5
v -5.5 2.000002 -21.5
v -4.5 1.500002 -22.5
v -5 1.500002 -22.5
v -4.5 2.000002 -22.5
v -5 2.000002 -22.5
v -4.5 2.000002 -22.5
v -16 2.000002 -22.5
v -4.5 2.000002 -24.5
v -16 2.000002 -24.5
v -4.5 1.500002 -24
v -4.5 2.000002 -24
v -4.5 1.500002 -24.5
v -4.5 2.000002 -24.5
v -5 1 -11.5
v -5.5 1 -11.5
v -5 1 -12
v -5.5 1 -12
v -5 1.5 -10.5
v -5.5 1.5 -10.5
v -5 1.5 -11.5
v -5.5 1.5 -11.5
v -5 1 -10.5
v -5 1.5 -10.5
v -5 1 -11.5
v -5 1.5 -11.5
v -5 1 -11.5
v -5.5 1 -11.5
v -5 1.5 -11.5
v -5.5 1.5 -11.5
v -5 1.5 -13.5
v -5.5 1.5 -13.5
v -5 1.5 -14
v -5.5 1.5 -14
v -5 1.500002 -19.5
v -5.5 1.500002 -19.5
v -5 1.500002 -20.5
v -5.5 1.500002 -20.5
v -5 1.5 -9.999998
v -5.5 1.5 -9.999998
v -5 2 -9.999998
v -5.5 2 -9.999998
v -5 2 -9.499998
v -16 2 -9.499998
v -5 2 -9.999998
v -16 2 -9.999998
v -5 1.5 -9.499998
v -5 2 -9.499998
v -5 1.5 -9.999998
v -5 2 -9.999998
v -5 1.5 -13
v -5.5 1.5 -13
v -5 2 -13
v -5.5 2 -13
v -5 1.5 -12.5
v -5.5 1.5 -12.5
v -5 2 -12.5
v -5.5 2 -12.5
v -5 2 -12.5
v -5.5 2 -12.5
v -5 2 -13
v -5.5 2 -13
v -5 1.5 -12.5
v -5 2 -12.5
v -5 1.5 -13
v -5 2 -13
v -5.5 1.5 -12.5
v -5.5 2 -12.5
v -5.5 1.5 -13
v -5.5 2 -13
v -5 1.5 -14
v -5.5 1.5 -14
v -5 2 -14
v -5.5 2 -14
v -5 2 -14
v -5.5 2 -14
v -5 2.000002 -19.5
v -5.5 2.000002 -19.5
v -5.5 1.5 -14
v -5.5 2 -14
v -5.5 1.5 -15
v -5.5 2 -15
v -5.5 1.5 -16
v -5.5 2 -16
v -5.5 1.5 -16.5
v -5.5 2 -16.5
v -5.5 1.5 -17
v -5.5 2 -17
v -5.5 1.5 -17.5
v -5.5 2 -17.5
v -5.5 1.500002 -18
v -5.5 2 -18
v -5.5 1.500002 -19.5
v -5.5 2.000002 -19.5
v -5 1.500002 -19.5
v -5.5 1.500002 -19.5
v -5 2.000002 -19.5
v -5.5 2.000002 -19.5
v -5.5 1.500002 -21
v -5.5 2.000002 -21
v -5.5 1.500002 -21.5
v -5.5 2.000002 -21.5
v -5 2.000002 -21.5
v -10 2.000002 -21.5
v -5 2.000002 -22.5
v -10 2.000002 -22.5
v -5 1.500002 -21.5
v -5 2.000002 -21.5
v -5 1.500002 -22.5
v -5 2.000002 -22.5
v -5.5 1 -11.5
v -5.5 2 -11.5
v -5.5 1 -12
v -5.5 2 -12
v -5.5 1.5 -12.5
v -6 1.5 -12.5
v -5.5 1.5 -13
v -6 1.5 -13
v -5.5 1.5 -14
v -6 1.5 -14
v -5.5 1.5 -15
v -6 1.5 -15
v -5.5 1.5 -16
v -6 1.5 -16
v -5.5 1.5 -16.5
v -6 1.5 -16.5
v -5.5 1.5 -17
v -9 1.5 -17
v -5.5 1.5 -17.5
v -9 1.5 -17.5
v -5.5 1.500002 -18
v -6 1.500002 -18
v -5.5 1.500002 -19.5
v -6 1.500002 -19.5
v -6 1.000002 -18.5
v -6 1.500002 -18.5
v -6 1.000002 -19.5
v -6 1.500002 -19.5
v -6 1.000002 -20
v -6 1.500002 -20
v -6 1.000002 -21
v -6 1.500002 -21
v -5.5 1.500002 -21
v -6 1.500002 -21
v -5.5 1.500002 -21.5
v -6 1.500002 -21.5
v -5.5 2 -9.999998
v -9 2 -9.999998
v -5.5 2 -12
v -9 2 -12
v -5.5 1.5 -9.999998
v -5.5 2 -9.999998
v -5.5 1.5 -11.5
v -5.5 2 -11.5
v -5.5 1.5 -12
v -6 1.5 -12
v -5.5 2 -12
v -6 2 -12
v -5.5 1.5 -13
v -6 1.5 -13
v -5.5 2 -13
v -6 2 -13
v -5.5 2 -13
v -6 2 -13
v -5.5 2 -14
v -6 2 -14
v -5.5 1.5 -13
v -5.5 2 -13
v -5.5 1.5 -14
v -5.5 2 -14
v -6 1.5 -13
v -6 2 -13
v -6 1.5 -13.5
v -6 2 -13.5
v -5.5 1.5 -14
v -6.5 1.5 -14
v -5.5 2 -14
v -6.5 2 -14
v -5.5 1.5 -15
v -6 1.5 -15
v -5.5 2 -15
v -6 2 -15
v -5.5 2 -15
v -6 2 -15
v -5.5 2 -16
v -6 2 -16
v -6 1.5 -15
v -6 2 -15
v -6 1.5 -15.5
v -6 2 -15.5
v -5.5 1.5 -16
v -6 1.5 -16
v -5.5 2 -16
v -6 2 -16
v -5.5 1.5 -17
v -6.5 1.5 -17
v -5.5 2 -17
v -6.5 2 -17
v -5.5 1.5 -16.5
v -6 1.5 -16.5
v -5.5 2 -16.5
v -6 2 -16.5
v -5.5 2 -16.5
v -6.5 2 -16.5
v -5.5 2 -17
v -6.5 2 -17
v -5.5 1.500002 -18
v -6 1.500002 -18
v -5.5 2 -18
v -6 2 -18
v -5.5 1.5 -17.5
v -6 1.5 -17.5
v -5.5 2 -17.5
v -6 2 -17.5
v -5.5 2 -17.5
v -6 2 -17.5
v -5.5 2 -18
v -6 2 -18
v -6 1.5 -17.5
v -6 2 -17.5
v -6 1.500002 -18
v -6 2 -18
v -5.5 1.500002 -19.5
v -6 1.500002 -19.5
v -5.5 2.000002 -19.5
v -6 2.000002 -19.5
v -5.5 2.000002 -19.5
v -6 2.000002 -19.5
v -5.5 2.000002 -20.5
v -6 2.000002 -20.5
v -5.5 1.500002 -19.5
v -5.5 2.000002 -19.5
v -5.5 1.500002 -20.5
v -5.5 2.000002 -20.5
v -6 1.500002 -19.5
v -6 2.000002 -19.5
v -6 1.500002 -20.5
v -6 2.000002 -20.5
v -5.5 1.500002 -20.5
v -6 1.500002 -20.5
v -5.5 2.000002 -20.5
v -6 2.000002 -20.5
v -5.5 1.500002 -21.5
v -6 1.500002 -21.5
v -5.5 2.000002 -21.5
v -6 2.000002 -21.5
v -6 1.000002 -18.5
v -6.5 1.000002 -18.5
v -6 1.000002 -19.5
v -6.5 1.000002 -19.5
v -6 1.000002 -20
v -6.5 1.000002 -20
v -6 1.000002 -21
v -6.5 1.000002 -21
v -6 1.5 -13
v -6.5 1.5 -13
v -6 1.5 -13.5
v -6.5 1.5 -13.5
v -6 1.5 -14
v -6.5 1.5 -14
v -6 1.5 -14.5
v -6.5 1.5 -14.5
v -6 1.5 -15
v -7 1.5 -15
v -6 1.5 -15.5
v -7 1.5 -15.5
v -6 1.5 -17.5
v -6.5 1.5 -17.5
v -6 1.500002 -18.5
v -6.5 1.500002 -18.5
v -6 1.000002 -18.5
v -6.5 1.000002 -18.5
v -6 1.500002 -18.5
v -6.5 1.500002 -18.5
v -6 1.000002 -20
v -6.5 1.000002 -20
v -6 1.500002 -20
v -6.5 1.500002 -20
v -6 1.000002 -19.5
v -6.5 1.000002 -19.5
v -6 1.500002 -19.5
v -6.5 1.500002 -19.5
v -6 1.500002 -19.5
v -6.5 1.500002 -19.5
v -6 1.500002 -20
v -6.5 1.500002 -20
v -6 1.000002 -21
v -6.5 1.000002 -21
v -6 2.000002 -21
v -6.5 2.000002 -21
v -6 2 -12
v -8 2 -12
v -6 2 -13
v -8 2 -13
v -6 1.5 -12
v -6 2 -12
v -6 1.5 -13
v -6 2 -13
v -6 1.5 -13
v -6.5 1.5 -13
v -6 2 -13
v -6.5 2 -13
v -6 1.5 -13.5
v -6.5 1.5 -13.5
v -6 2 -13.5
v -6.5 2 -13.5
v -6 2 -13.5
v -7 2 -13.5
v -6 2 -14
v -7 2 -14
v -6 1.5 -15
v -6.5 1.5 -15
v -6 2 -15
v -6.5 2 -15
v -6 1.5 -14.5
v -6.5 1.5 -14.5
v -6 2 -14.5
v -6.5 2 -14.5
v -6 2 -14.5
v -6.5 2 -14.5
v -6 2 -15
v -6.5 2 -15
v -6 1.5 -14.5
v -6 2 -14.5
v -6 1.5 -15
v -6 2 -15
v -6.5 1.5 -14.5
v -6.5 2 -14.5
v -6.5 1.5 -15
v -6.5 2 -15
v -6 1.5 -15.5
v -6.5 1.5 -15.5
v -6 2 -15.5
v -6.5 2 -15.5
v -6 2 -15.5
v -6.5 2 -15.5
v -6 2 -16.5
v -6.5 2 -16.5
v -6.5 1.5 -15.5
v -6.5 2 -15.5
v -6.5 1.5 -17
v -6.5 2 -17
v -6 1.5 -16
v -6 2 -16
v -6 1.5 -16.5
v -6 2 -16.5
v -6 2.000002 -21
v -9.5 2.000002 -21
v -6 2.000002 -21.5
v -9.5 2.000002 -21.5
v -6 1.500002 -21
v -6 2.000002 -21
v -6 1.500002 -21.5
v -6 2.000002 -21.5
v -6.5 1.5 -14.5
v -7.5 1.5 -14.5
v -6.5 1.5 -15
v -7.5 1.5 -15
v -7 1 -15
v -7 1.5 -15
v -7 1 -16.5
v -7 1.5 -16.5
v -6.5 1.5 -15.5
v -7 1.5 -15.5
v -6.5 1.5 -17
v -7 1.5 -17
v -6.5 1.5 -17.5
v -7 1.5 -17.5
v -6.5 1.500002 -18
v -7 1.500002 -18
v -6.5 1.000002 -18.5
v -6.5 2.000002 -18.5
v -6.5 1.000002 -19.5
v -6.5 2.000002 -19.5
v -6.5 1.000002 -20
v -6.5 2.000002 -20
v -6.5 1.000002 -21
v -6.5 2.000002 -21
v -6.5 2 -13
v -9 2 -13
v -6.5 2 -13.5
v -9 2 -13.5
v -6.5 1.5 -13
v -6.5 2 -13
v -6.5 1.5 -13.5
v -6.5 2 -13.5
v -7 1.5 -13.5
v -7 2 -13.5
v -7 1.5 -14.5
v -7 2 -14.5
v -6.5 1.5 -14.5
v -7 1.5 -14.5
v -6.5 2 -14.5
v -7 2 -14.5
v -6.5 2 -14
v -7 2 -14
v -6.5 2 -14.5
v -7 2 -14.5
v -6.5 1.5 -14
v -6.5 2 -14
v -6.5 1.5 -14.5
v -6.5 2 -14.5
v -6.5 1.500002 -18
v -7 1.500002 -18
v -6.5 2 -18
v -7 2 -18
v -6.5 2 -18
v -7 2 -18
v -6.5 2.000002 -21
v -7 2.000002 -21
v -6.5 1.500002 -18
v -6.5 2 -18
v -6.5 1.500002 -18.5
v -6.5 2.000002 -18.5
v -7 1.500002 -18
v -7 2 -18
v -7 1.500002 -18.5
v -7 2.000002 -18.5
v -6.5 1.500002 -19.5
v -6.5 2.000002 -19.5
v -6.5 1.500002 -20
v -6.5 2.000002 -20
v -7 1 -15
v -8 1 -15
v -7 1 -16.5
v -8 1 -16.5
v -7 1.5 -13.5
v -8.5 1.5 -13.5
v -7 1.5 -14.5
v -8.5 1.5 -14.5
v -7 1 -15
v -7.5 1 -15
v -7 1.5 -15
v -7.5 1.5 -15
v -7.5 1 -14.5
v -7.5 1.5 -14.5
v -7.5 1 -15
v -7.5 1.5 -15
v -7 1 -16.5
v -8 1 -16.5
v -7 1.5 -16.5
v -8 1.5 -16.5
v -7 1.5 -16.5
v -8 1.5 -16.5
v -7 1.5 -17
v -8 1.5 -17
v -7 1.500002 -18
v -8 1.500002 -18
v -7 1.500002 -18.5
v -8 1.500002 -18.5
v -7 1.5 -13.5
v -9 1.5 -13.5
v -7 2 -13.5
v -9 2 -13.5
v -7 1.500002 -18
v -8.5 1.500002 -18
v -7 2 -18
v -8.5 2 -18
v -7 1.5 -17.5
v -9 1.5 -17.5
v -7 2 -17.5
v -9 2 -17.5
v -7 2 -17.5
v -9 2 -17.5
v -7 2 -18
v -9 2 -18
v -7 1.5 -17.5
v -7 2 -17.5
v -7 1.500002 -18
v -7 2 -18
v -7 1.500002 -18.5
v -8.5 1.500002 -18.5
v -7 2.000002 -18.5
v -8.5 2.000002 -18.5
v -7 2.000002 -18.5
v -9.5 2.000002 -18.5
v -7 2.000002 -21
v -9.5 2.000002 -21
v -7.5 1 -14.5
v -8 1 -14.5
v -7.5 1 -15
v -8 1 -15
v -7.5 1 -14.5
v -8 1 -14.5
v -7.5 1.5 -14.5
v -8 1.5 -14.5
v -8 1 -16.5
v -8 1.5 -16.5
v -8 1 -17
v -8 1.5 -17
v -8 1.000002 -18
v -8 1.500002 -18
v -8 1.000002 -18.5
v -8 1.500002 -18.5
v -8 1.5 -12.5
v -8 2 -12.5
v -8 1.5 -13
v -8 2 -13
v -8 1 -15
v -8.5 1 -15
v -8 1 -15.5
v -8.5 1 -15.5
v -8 1 -16.5
v -8.5 1 -16.5
v -8 1 -17
v -8.5 1 -17
v -8 1.000002 -18
v -8.5 1.000002 -18
v -8 1.000002 -18.5
v -8.5 1.000002 -18.5
v -8 1.5 -12.5
v -9.5 1.5 -12.5
v -8 1.5 -13
v -9.5 1.5 -13
v -8 1 -15
v -8.5 1 -15
v -8 1.5 -15
v -8.5 1.5 -15
v -8 1.5 -14.5
v -9 1.5 -14.5
v -8 1.5 -15
v -9 1.5 -15
v -8 1 -14.5
v -8 1.5 -14.5
v -8 1 -15
v -8 1.5 -15
v -8 1 -15.5
v -8.5 1 -15.5
v -8 1.5 -15.5
v -8.5 1.5 -15.5
v -8 1.5 -15.5
v -9 1.5 -15.5
v -8 1.5 -16.5
v -9 1.5 -16.5
v -8 1 -15.5
v -8 1.5 -15.5
v -8 1 -16.5
v -8 1.5 -16.5
v -8 1 -16.5
v -8.5 1 -16.5
v -8 1.5 -16.5
v -8.5 1.5 -16.5
v -8 1 -17
v -8.5 1 -17
v -8 1.5 -17
v -8.5 1.5 -17
v -8 1.000002 -18
v -8.5 1.000002 -18
v -8 1.500002 -18
v -8.5 1.500002 -18
v -8 1.000002 -18.5
v -8.5 1.000002 -18.5
v -8 1.500002 -18.5
v -8.5 1.500002 -18.5
v -8 1.5 -12.5
v -8.5 1.5 -12.5
v -8 2 -12.5
v -8.5 2 -12.5
v -8 2 -12
v -8.5 2 -12
v -8 2 -12.5
v -8.5 2 -12.5
v -8.5 1.5 -12
v -8.5 2 -12
v -8.5 1.5 -12.5
v -8.5 2 -12.5
v -8 1.5 -13
v -9 1.5 -13
v -8 2 -13
v -9 2 -13
v -9 1 -11.5
v -9 2 -11.5
v -9 1 -12
v -9 2 -12
v -8.5 1.5 -12
v -9.5 1.5 -12
v -8.5 1.5 -12.5
v -9.5 1.5 -12.5
v -8.5 1.5 -13.5
v -9.5 1.5 -13.5
v -8.5 1.5 -14
v -9.5 1.5 -14
v -8.5 1.5 -15
v -9.5 1.5 -15
v -8.5 1.5 -15.5
v -9.5 1.5 -15.5
v -8.5 1 -15
v -8.5 1.5 -15
v -8.5 1 -15.5
v -8.5 1.5 -15.5
v -9 1 -15.5
v -9 1.5 -15.5
v -9 1 -16.5
v -9 1.5 -16.5
v -8.5 1.5 -16.5
v -10 1.5 -16.5
v -8.5 1.5 -17
v -10 1.5 -17
v -8.5 1 -16.5
v -8.5 1.5 -16.5
v -8.5 1 -17
v -8.5 1.5 -17
v -8.5 1.000002 -18
v -8.5 2 -18
v -8.5 1.000002 -18.5
v -8.5 2.000002 -18.5
v -9 1.5 -11
v -9 2 -11
v -9 1.5 -11.5
v -9 2 -11.5
v -8.5 1.5 -12
v -9 1.5 -12
v -8.5 2 -12
v -9 2 -12
v -9 1.5 -13
v -9 2 -13
v -9 1.5 -13.5
v -9 2 -13.5
v -8.5 1.5 -14.5
v -9 1.5 -14.5
v -8.5 2 -14.5
v -9 2 -14.5
v -8.5 1.5 -14
v -9 1.5 -14
v -8.5 2 -14
v -9 2 -14
v -8.5 2 -14
v -9 2 -14
v -8.5 2 -14.5
v -9 2 -14.5
v -8.5 1.5 -14
v -8.5 2 -14
v -8.5 1.5 -14.5
v -8.5 2 -14.5
v -9 1.5 -14
v -9 2 -14
v -9 1.5 -14.5
v -9 2 -14.5
v -9 1.5 -17.5
v -9 2 -17.5
v -9 1.500002 -18.5
v -9 2.000002 -18.5
v -8.5 2 -18
v -9 2 -18
v -8.5 2.000002 -18.5
v -9 2.000002 -18.5
v -9 1 -11.5
v -9.5 1 -11.5
v -9 1 -12
v -9.5 1 -12
v -9 1 -15.5
v -9.5 1 -15.5
v -9 1 -16.5
v -9.5 1 -16.5
v -9 1 -11.5
v -9.5 1 -11.5
v -9 1.5 -11.5
v -9.5 1.5 -11.5
v -9 1.5 -11
v -10 1.5 -11
v -9 1.5 -11.5
v -10 1.5 -11.5
v -9 1 -12
v -9.5 1 -12
v -9 1.5 -12
v -9.5 1.5 -12
v -9 1.5 -13
v -9.5 1.5 -13
v -9 1.5 -13.5
v -9.5 1.5 -13.5
v -9 1.5 -14
v -9.5 1.5 -14
v -9 1.5 -14.5
v -9.5 1.5 -14.5
v -9 1 -15.5
v -9.5 1 -15.5
v -9 1.5 -15.5
v -9.5 1.5 -15.5
v -9 1 -16.5
v -9.5 1 -16.5
v -9 1.5 -16.5
v -9.5 1.5 -16.5
v -9.5 1 -17
v -9.5 1.5 -17
v -9.5 1.000002 -18.5
v -9.5 1.500002 -18.5
v -9 1.5 -17.5
v -9.5 1.5 -17.5
v -9 1.500002 -18.5
v -9.5 1.500002 -18.5
v -9 2 -9.999998
v -9.5 2 -9.999998
v -9 2 -11
v -9.5 2 -11
v -9.5 1.5 -9.999998
v -9.5 2 -9.999998
v -9.5 1.5 -11
v -9.5 2 -11
v -9 1.5 -11
v -9.5 1.5 -11
v -9 2 -11
v -9.5 2 -11
v -9 1.5 -15
v -9.5 1.5 -15
v -9 2 -15
v -9.5 2 -15
v -9 1.5 -14.5
v -9.5 1.5 -14.5
v -9 2 -14.5
v -9.5 2 -14.5
v -9 2 -14.5
v -16 2 -14.5
v -9 2 -15
v -16 2 -15
v -9 1.5 -14.5
v -9 2 -14.5
v -9 1.5 -15
v -9 2 -15
v -9 1.5 -17.5
v -9.5 1.5 -17.5
v -9 2 -17.5
v -9.5 2 -17.5
v -9 1.5 -17
v -9.5 1.5 -17
v -9 2 -17
v -9.5 2 -17
v -9 2 -17
v -9.5 2 -17
v -9 2 -17.5
v -9.5 2 -17.5
v -9 1.5 -17
v -9 2 -17
v -9 1.5 -17.5
v -9 2 -17.5
v -9.5 1.5 -17
v -9.5 2 -17
v -9.5 1.5 -17.5
v -9.5 2 -17.5
v -9 1.500002 -18.5
v -9.5 1.500002 -18.5
v -9 2.000002 -18.5
v -9.5 2.000002 -18.5
v -9.5 1.500002 -18.5
v -9.5 2.000002 -18.5
v -9.5 1.500002 -19
v -9.5 2.000002 -19
v -9.5 1.500002 -20
v -9.5 2.000002 -20
v -9.5 1.500002 -20.5
v -9.5 2.000002 -20.5
v -9.5 1.500002 -21
v -9.5 2.000002 -21
v -9.5 1.500002 -21.5
v -9.5 2.000002 -21.5
v -9.5 1 -17
v -10 1 -17
v -9.5 1.000002 -18.5
v -10 1.000002 -18.5
v -9.5 1.5 -9.999998
v -10 1.5 -9.999998
v -9.5 1.5 -11
v -10 1.5 -11
v -9.5 1 -11.5
v -9.5 2 -11.5
v -9.5 1 -12
v -9.5 2 -12
v -9.5 1 -15.5
v -9.5 1.5 -15.5
v -9.5 1 -16.5
v -9.5 1.5 -16.5
v -9.5 1.5 -16
v -10 1.5 -16
v -9.5 1.5 -16.5
v -10 1.5 -16.5
v -9.5 1 -17
v -10 1 -17
v -9.5 1.5 -17
v -10 1.5 -17
v -9.5 1.000002 -18.5
v -10 1.000002 -18.5
v -9.5 1.500002 -18.5
v -10 1.500002 -18.5
v -9.5 1.500002 -18.5
v -10 1.500002 -18.5
v -9.5 1.500002 -19
v -10 1.500002 -19
v -10 1.000002 -18.5
v -10 1.500002 -18.5
v -10 1.000002 -19
v -10 1.500002 -19
v -10 1.000002 -19.5
v -10 2.000002 -19.5
v -10 1.000002 -20
v -10 2.000002 -20
v -9.5 1.500002 -20
v -10.5 1.500002 -20
v -9.5 1.500002 -20.5
v -10.5 1.500002 -20.5
v -9.5 1.500002 -21
v -10 1.500002 -21
v -9.5 1.500002 -21.5
v -10 1.500002 -21.5
v -10 1.5 -8.499998
v -10 2 -8.499998
v -10 1.5 -9.499998
v -10 2 -9.499998
v -9.5 1.5 -9.999998
v -10 1.5 -9.999998
v -9.5 2 -9.999998
v -10 2 -9.999998
v -9.5 1.5 -11.5
v -10 1.5 -11.5
v -9.5 2 -11.5
v -10 2 -11.5
v -9.5 2 -11.5
v -16 2 -11.5
v -9.5 2 -14.5
v -16 2 -14.5
v -9.5 1.5 -12
v -9.5 2 -12
v -9.5 1.5 -14.5
v -9.5 2 -14.5
v -9.5 2 -15
v -16 2 -15
v -9.5 2 -16
v -16 2 -16
v -9.5 1.5 -15
v -9.5 2 -15
v -9.5 1.5 -16
v -9.5 2 -16
v -9.5 1.5 -16
v -10 1.5 -16
v -9.5 2 -16
v -10 2 -16
v -9.5 1.500002 -19
v -10 1.500002 -19
v -9.5 2.000002 -19
v -10 2.000002 -19
v -9.5 2.000002 -19
v -10 2.000002 -19
v -9.5 2.000002 -20
v -10 2.000002 -20
v -10 1.500002 -19
v -10 2.000002 -19
v -10 1.500002 -19.5
v -10 2.000002 -19.5
v -9.5 1.500002 -20
v -10 1.500002 -20
v -9.5 2.000002 -20
v -10 2.000002 -20
v -9.5 1.500002 -21
v -10 1.500002 -21
v -9.5 2.000002 -21
v -10 2.000002 -21
v -9.5 1.500002 -20.5
v -10 1.500002 -20.5
v -9.5 2.000002 -20.5
v -10 2.000002 -20.5
v -9.5 2.000002 -20.5
v -10 2.000002 -20.5
v -9.5 2.000002 -21
v -10 2.000002 -21
v -10 1.500002 -20.5
v -10 2.000002 -20.5
v -10 1.500002 -21
v -10 2.000002 -21
v -9.5 1.500002 -21.5
v -10 1.500002 -21.5
v -9.5 2.000002 -21.5
v -10 2.000002 -21.5
v -10 1.500002 -21.5
v -10 2.000002 -21.5
v -10 1.500002 -22
v -10 2.000002 -22
v -10 1.000002 -17.5
v -10.5 1.000002 -17.5
v -10 1.000002 -19
v -10.5 1.000002 -19
v -10.5 0.5000019 -18.5
v -10.5 1.000002 -18.5
v -10.5 0.5000019 -19
v -10.5 1.000002 -19
v -10 1.000002 -19.5
v -11.5 1.000002 -19.5
v -10 1.000002 -20
v -11.5 1.000002 -20
v -10 1.5 -8.499998
v -10.5 1.5 -8.499998
v -10 1.5 -9.499998
v -10.5 1.5 -9.499998
v -10 1.000002 -17.5
v -10.5 1.000002 -17.5
v -10 1.5 -17.5
v -10.5 1.5 -17.5
v -10 1.5 -17
v -10.5 1.5 -17
v -10 1.5 -17.5
v -10.5 1.5 -17.5
v -10 1 -17
v -10 1.5 -17
v -10 1.000002 -17.5
v -10 1.5 -17.5
v -10 1.000002 -19.5
v -10.5 1.000002 -19.5
v -10 1.500002 -19.5
v -10.5 1.500002 -19.5
v -10 1.000002 -19
v -10.5 1.000002 -19
v -10 1.500002 -19
v -10.5 1.500002 -19
v -10 1.500002 -19
v -10.5 1.500002 -19
v -10 1.500002 -19.5
v -10.5 1.500002 -19.5
v -10.5 1.000002 -19
v -10.5 1.500002 -19
v -10.5 1.000002 -19.5
v -10.5 1.500002 -19.5
v -10 1.000002 -20
v -10.5 1.000002 -20
v -10 1.500002 -20
v -10.5 1.500002 -20
v -10.5 1.000002 -20
v -10.5 1.500002 -20
v -10.5 1.000002 -20.5
v -10.5 1.500002 -20.5
v -10 1.500002 -20.5
v -12.5 1.500002 -20.5
v -10 1.500002 -21
v -12.5 1.500002 -21
v -10 1.500002 -21.5
v -10.5 1.500002 -21.5
v -10 1.500002 -22
v -10.5 1.500002 -22
v -10 2 1.907349E-06
v -11 2 1.907349E-06
v -10 2 -8.499998
v -11 2 -8.499998
v -10 1.5 -8.499998
v -11 1.5 -8.499998
v -10 2 -8.499998
v -11 2 -8.499998
v -10 1.5 -9.499998
v -10.5 1.5 -9.499998
v -10 2 -9.499998
v -10.5 2 -9.499998
v -10 2 -9.999998
v -16 2 -9.999998
v -10 2 -11.5
v -16 2 -11.5
v -10 1.5 -9.999998
v -10 2 -9.999998
v -10 1.5 -11.5
v -10 2 -11.5
v -10 2 -16
v -16 2 -16
v -10 2 -17
v -16 2 -17
v -10 1.5 -16
v -10 2 -16
v -10 1.5 -17
v -10 2 -17
v -10 1.5 -17
v -10.5 1.5 -17
v -10 2 -17
v -10.5 2 -17
v -10 1.500002 -21.5
v -10.5 1.500002 -21.5
v -10 2.000002 -21.5
v -10.5 2.000002 -21.5
v -10 1.500002 -21
v -10.5 1.500002 -21
v -10 2.000002 -21
v -10.5 2.000002 -21
v -10 2.000002 -21
v -10.5 2.000002 -21
v -10 2.000002 -21.5
v -10.5 2.000002 -21.5
v -10 1.500002 -21
v -10 2.000002 -21
v -10 1.500002 -21.5
v -10 2.000002 -21.5
v -10.5 1.500002 -21
v -10.5 2.000002 -21
v -10.5 1.500002 -21.5
v -10.5 2.000002 -21.5
v -10 1.500002 -22
v -10.5 1.500002 -22
v -10 2.000002 -22
v -10.5 2.000002 -22
v -10 2.000002 -22
v -16 2.000002 -22
v -10 2.000002 -22.5
v -16 2.000002 -22.5
v -10.5 0.5000019 -18.5
v -11 0.5000019 -18.5
v -10.5 0.5000019 -19
v -11 0.5000019 -19
v -10.5 0.5000019 -18.5
v -11 0.5000019 -18.5
v -10.5 1.000002 -18.5
v -11 1.000002 -18.5
v -10.5 1.000002 -18
v -11 1.000002 -18
v -10.5 1.000002 -18.5
v -11 1.000002 -18.5
v -10.5 0.5000019 -19
v -11 0.5000019 -19
v -10.5 1.000002 -19
v -11 1.000002 -19
v -10.5 1.000002 -19
v -11.5 1.000002 -19
v -10.5 1.000002 -19.5
v -11.5 1.000002 -19.5
v -10.5 1.000002 -20
v -11.5 1.000002 -20
v -10.5 1.000002 -20.5
v -11.5 1.000002 -20.5
v -10.5 1.5 -8.499998
v -11 1.5 -8.499998
v -10.5 1.5 -8.999998
v -11 1.5 -8.999998
v -10.5 1.000002 -18
v -11 1.000002 -18
v -10.5 1.500002 -18
v -11 1.500002 -18
v -10.5 1.5 -17.5
v -11.5 1.5 -17.5
v -10.5 1.500002 -18
v -11.5 1.500002 -18
v -10.5 1.000002 -17.5
v -10.5 1.5 -17.5
v -10.5 1.000002 -18
v -10.5 1.500002 -18
v -10.5 1.000002 -20.5
v -11.5 1.000002 -20.5
v -10.5 1.500002 -20.5
v -11.5 1.500002 -20.5
v -10.5 1.500002 -21
v -11 1.500002 -21
v -10.5 1.500002 -21.5
v -11 1.500002 -21.5
v -11 1.5 -7.499998
v -11 2 -7.499998
v -11 1.5 -7.999998
v -11 2 -7.999998
v -10.5 1.5 -8.999998
v -11 1.5 -8.999998
v -10.5 2 -8.999998
v -11 2 -8.999998
v -10.5 2 -8.999998
v -16 2 -8.999998
v -10.5 2 -9.499998
v -16 2 -9.499998
v -10.5 1.5 -8.999998
v -10.5 2 -8.999998
v -10.5 1.5 -9.499998
v -10.5 2 -9.499998
v -10.5 1.5 -17.5
v -11.5 1.5 -17.5
v -10.5 2 -17.5
v -11.5 2 -17.5
v -10.5 2 -17
v -16 2 -17
v -10.5 2 -17.5
v -16 2 -17.5
v -10.5 1.5 -17
v -10.5 2 -17
v -10.5 1.5 -17.5
v -10.5 2 -17.5
v -10.5 1.500002 -21.5
v -11 1.500002 -21.5
v -10.5 2.000002 -21.5
v -11 2.000002 -21.5
v -10.5 2.000002 -21.5
v -16 2.000002 -21.5
v -10.5 2.000002 -22
v -16 2.000002 -22
v -10.5 1.500002 -21.5
v -10.5 2.000002 -21.5
v -10.5 1.500002 -22
v -10.5 2.000002 -22
v -11 1.000002 -18.5
v -11.5 1.000002 -18.5
v -11 1.000002 -19
v -11.5 1.000002 -19
v -11 0.5000019 -18.5
v -11 1.000002 -18.5
v -11 0.5000019 -19
v -11 1.000002 -19
v -11 1.5 -7.499998
v -11.5 1.5 -7.499998
v -11 1.5 -7.999998
v -11.5 1.5 -7.999998
v -11 1.000002 -18.5
v -11.5 1.000002 -18.5
v -11 1.500002 -18.5
v -11.5 1.500002 -18.5
v -11 1.500002 -18
v -12 1.500002 -18
v -11 1.500002 -18.5
v -12 1.500002 -18.5
v -11 1.000002 -18
v -11 1.500002 -18
v -11 1.000002 -18.5
v -11 1.500002 -18.5
v -11 2 1.907349E-06
v -16 2 1.907349E-06
v -11 2 -7.499998
v -16 2 -7.499998
v -11 1.5 -7.499998
v -11.5 1.5 -7.499998
v -11 2 -7.499998
v -11.5 2 -7.499998
v -11 1.5 -7.999998
v -11.5 1.5 -7.999998
v -11 2 -7.999998
v -11.5 2 -7.999998
v -11 2 -7.999998
v -16 2 -7.999998
v -11 2 -8.999998
v -16 2 -8.999998
v -11 1.5 -8.499998
v -11 2 -8.499998
v -11 1.5 -8.999998
v -11 2 -8.999998
v -11 1.500002 -21
v -11.5 1.500002 -21
v -11 2.000002 -21
v -11.5 2.000002 -21
v -11 2.000002 -21
v -11.5 2.000002 -21
v -11 2.000002 -21.5
v -11.5 2.000002 -21.5
v -11 1.500002 -21
v -11 2.000002 -21
v -11 1.500002 -21.5
v -11 2.000002 -21.5
v -11.5 1.500002 -21
v -11.5 2.000002 -21
v -11.5 1.500002 -21.5
v -11.5 2.000002 -21.5
v -11.5 1.500002 -18.5
v -12 1.500002 -18.5
v -11.5 1.500002 -20.5
v -12 1.500002 -20.5
v -11.5 1.000002 -18.5
v -11.5 1.500002 -18.5
v -11.5 1.000002 -20.5
v -11.5 1.500002 -20.5
v -11.5 1.500002 -21
v -12 1.500002 -21
v -11.5 1.500002 -21.5
v -12 1.500002 -21.5
v -11.5 2 -7.499998
v -16 2 -7.499998
v -11.5 2 -7.999998
v -16 2 -7.999998
v -11.5 1.5 -7.499998
v -11.5 2 -7.499998
v -11.5 1.5 -7.999998
v -11.5 2 -7.999998
v -11.5 1.500002 -18
v -12 1.500002 -18
v -11.5 2 -18
v -12 2 -18
v -11.5 2 -17.5
v -16 2 -17.5
v -11.5 2 -18
v -16 2 -18
v -11.5 1.5 -17.5
v -11.5 2 -17.5
v -11.5 1.500002 -18
v -11.5 2 -18
v -11.5 1.500002 -21.5
v -12 1.500002 -21.5
v -11.5 2.000002 -21.5
v -12 2.000002 -21.5
v -12 1.500002 -19
v -12.5 1.500002 -19
v -12 1.500002 -20.5
v -12.5 1.500002 -20.5
v -12 2 -18
v -16 2 -18
v -12 2.000002 -19
v -16 2.000002 -19
v -12 1.500002 -18
v -12 2 -18
v -12 1.500002 -19
v -12 2.000002 -19
v -12 1.500002 -19
v -12.5 1.500002 -19
v -12 2.000002 -19
v -12.5 2.000002 -19
v -12 1.500002 -21
v -12.5 1.500002 -21
v -12 2.000002 -21
v -12.5 2.000002 -21
v -12 2.000002 -21
v -16 2.000002 -21
v -12 2.000002 -21.5
v -16 2.000002 -21.5
v -12 1.500002 -21
v -12 2.000002 -21
v -12 1.500002 -21.5
v -12 2.000002 -21.5
v -12.5 2.000002 -19
v -16 2.000002 -19
v -12.5 2.000002 -21
v -16 2.000002 -21
v -12.5 1.500002 -19
v -12.5 2.000002 -19
v -12.5 1.500002 -21
v -12.5 2.000002 -21
v -16 0 1.907349E-06
v -16 2 1.907349E-06
v -16 1.907349E-06 -32
v -16 2.000002 -32
vn 0 -5.960464E-08 0.9999999
vn 0 -0.9999999 -5.960464E-08
vn 1 0 0
vn 0 5.960464E-08 -0.9999999
vn 0 0.9999999 5.960464E-08
vn -1 0 0
vt 0.484375 0.0078125
vt 0.734375 0.0078125
vt 0.484375 0.0390625
vt 0.734375 0.0390625
vt 0.0078125 0.0078125
vt 0.2578125 0.0078125
vt 0.0078125 0.5078125
vt 0.2578125 0.5078125
vt 0.359375 0.0078125
vt 0.390625 0.0078125
vt 0.359375 0.5078125
vt 0.390625 0.5078125
vt 0.484375 0.0703125
vt 0.734375 0.0703125
vt 0.484375 0.1015625
vt 0.734375 0.1015625
vt 0.2890625 0.0078125
vt 0.328125 0.0078125
vt 0.2890625 0.5078125
vt 0.328125 0.5078125
vt 0.9453125 0.2890625
vt 0.359375 0.5390625
vt 0.3671875 0.5390625
vt 0.359375 0.7265625
vt 0.3671875 0.7265625
vt 0.9140625 0.25
vt 0.9453125 0.25
vt 0.9140625 0.2578125
vt 0.9453125 0.2578125
vt 0.2890625 0.5390625
vt 0.3046875 0.5390625
vt 0.2890625 0.8359375
vt 0.3046875 0.8359375
vt 0.421875 0.5390625
vt 0.4296875 0.5390625
vt 0.421875 0.7109375
vt 0.4296875 0.7109375
vt 0.2421875 0.8046875
vt 0.9765625 0.0078125
vt 0.484375 0.5078125
vt 0.4921875 0.5078125
vt 0.484375 0.5234375
vt 0.4921875 0.5234375
vt 0.9765625 0.2109375
vt 0.421875 0.7421875
vt 0.4296875 0.7421875
vt 0.421875 0.8984375
vt 0.4296875 0.8984375
vt 0.484375 0.1328125
vt 0.4921875 0.1328125
vt 0.484375 0.2890625
vt 0.4921875 0.2890625
vt 0.796875 0.2890625
vt 0.5625 0.1328125
vt 0.5703125 0.1328125
vt 0.5625 0.265625
vt 0.5703125 0.265625
vt 0.9765625 0.25
vt 0.671875 0.3203125
vt 0.6953125 0.3203125
vt 0.671875 0.328125
vt 0.6953125 0.328125
vt 0.546875 0.3203125
vt 0.578125 0.3203125
vt 0.546875 0.328125
vt 0.578125 0.328125
vt 0.0078125 0.6875
vt 0.1015625 0.6875
vt 0.0078125 0.8359375
vt 0.1015625 0.8359375
vt 0.5234375 0.1328125
vt 0.53125 0.1328125
vt 0.5234375 0.265625
vt 0.53125 0.265625
vt 0.90625 0.421875
vt 0.921875 0.421875
vt 0.90625 0.4296875
vt 0.921875 0.4296875
vt 0.5625 0.359375
vt 0.5703125 0.359375
vt 0.5625 0.390625
vt 0.5703125 0.390625
vt 0.0078125 0.5390625
vt 0.1953125 0.5390625
vt 0.0078125 0.65625
vt 0.1953125 0.65625
vt 0.7265625 0.3203125
vt 0.75 0.3203125
vt 0.7265625 0.328125
vt 0.75 0.328125
vt 0.2265625 0.5390625
vt 0.234375 0.5390625
vt 0.2265625 0.6484375
vt 0.234375 0.6484375
vt 0.8359375 0.4609375
vt 0.84375 0.4609375
vt 0.8359375 0.4765625
vt 0.84375 0.4765625
vt 0.828125 0.2890625
vt 0.859375 0.421875
vt 0.875 0.421875
vt 0.859375 0.4296875
vt 0.875 0.4296875
vt 0.8125 0.421875
vt 0.828125 0.421875
vt 0.8125 0.4296875
vt 0.828125 0.4296875
vt 0.765625 0.0078125
vt 0.9453125 0.0078125
vt 0.765625 0.0390625
vt 0.9453125 0.0390625
vt 0.796875 0.4609375
vt 0.8046875 0.4609375
vt 0.796875 0.4765625
vt 0.8046875 0.4765625
vt 0.7578125 0.4609375
vt 0.765625 0.4609375
vt 0.7578125 0.4765625
vt 0.765625 0.4765625
vt 0.765625 0.0703125
vt 0.9375 0.0703125
vt 0.765625 0.078125
vt 0.9375 0.078125
vt 0.2421875 0.6875
vt 0.25 0.6875
vt 0.2421875 0.7734375
vt 0.25 0.7734375
vt 0.8515625 0.359375
vt 0.859375 0.359375
vt 0.8515625 0.3828125
vt 0.859375 0.3828125
vt 0.6875 0.1796875
vt 0.765625 0.1796875
vt 0.6875 0.1953125
vt 0.765625 0.1953125
vt 0.953125 0.4609375
vt 0.9609375 0.4609375
vt 0.953125 0.4765625
vt 0.9609375 0.4765625
vt 0.734375 0.359375
vt 0.7421875 0.359375
vt 0.734375 0.3828125
vt 0.7421875 0.3828125
vt 0.6796875 0.4609375
vt 0.6875 0.4609375
vt 0.6796875 0.4765625
vt 0.6875 0.4765625
vt 0.640625 0.4609375
vt 0.6484375 0.4609375
vt 0.640625 0.4765625
vt 0.6484375 0.4765625
vt 0.6015625 0.1328125
vt 0.65625 0.1328125
vt 0.6015625 0.1640625
vt 0.65625 0.1640625
vt 0.8125 0.359375
vt 0.8203125 0.359375
vt 0.8125 0.3828125
vt 0.8203125 0.3828125
vt 0.6015625 0.4609375
vt 0.609375 0.4609375
vt 0.6015625 0.4765625
vt 0.609375 0.4765625
vt 0.9140625 0.2890625
vt 0.9296875 0.359375
vt 0.9375 0.359375
vt 0.9296875 0.375
vt 0.9375 0.375
vt 0.875 0.4609375
vt 0.8828125 0.4609375
vt 0.875 0.4765625
vt 0.8828125 0.4765625
vt 0.2890625 0.9375
vt 0.3203125 0.9375
vt 0.2890625 0.953125
vt 0.3203125 0.953125
vt 0.484375 0.421875
vt 0.5 0.421875
vt 0.484375 0.4296875
vt 0.5 0.4296875
vt 0.96875 0.359375
vt 0.9765625 0.359375
vt 0.96875 0.375
vt 0.9765625 0.375
vt 0.7734375 0.359375
vt 0.78125 0.359375
vt 0.7734375 0.3828125
vt 0.78125 0.3828125
vt 0.6015625 0.2578125
vt 0.65625 0.2578125
vt 0.6015625 0.265625
vt 0.65625 0.265625
vt 0.6484375 0.359375
vt 0.6640625 0.359375
vt 0.6484375 0.375
vt 0.6640625 0.375
vt 0.9140625 0.171875
vt 0.953125 0.171875
vt 0.9140625 0.1796875
vt 0.953125 0.1796875
vt 0.9140625 0.4609375
vt 0.921875 0.4609375
vt 0.9140625 0.4765625
vt 0.921875 0.4765625
vt 0.359375 0.921875
vt 0.3671875 0.921875
vt 0.359375 0.96875
vt 0.3671875 0.96875
vt 0.609375 0.3203125
vt 0.640625 0.3203125
vt 0.609375 0.328125
vt 0.640625 0.328125
vt 0.78125 0.3203125
vt 0.8046875 0.3203125
vt 0.78125 0.328125
vt 0.8046875 0.328125
vt 0.9140625 0.2109375
vt 0.9453125 0.2109375
vt 0.9140625 0.21875
vt 0.9453125 0.21875
vt 0.484375 0.3203125
vt 0.515625 0.3203125
vt 0.484375 0.328125
vt 0.515625 0.328125
vt 0.890625 0.3203125
vt 0.9140625 0.3203125
vt 0.890625 0.328125
vt 0.9140625 0.328125
vt 0.2890625 0.8671875
vt 0.328125 0.8671875
vt 0.2890625 0.90625
vt 0.328125 0.90625
vt 0.9765625 0.0390625
vt 0.6015625 0.359375
vt 0.6171875 0.359375
vt 0.6015625 0.375
vt 0.6171875 0.375
vt 0.53125 0.421875
vt 0.546875 0.421875
vt 0.53125 0.4296875
vt 0.546875 0.4296875
vt 0.484375 0.4609375
vt 0.4921875 0.4609375
vt 0.484375 0.4765625
vt 0.4921875 0.4765625
vt 0.8359375 0.3203125
vt 0.859375 0.3203125
vt 0.8359375 0.328125
vt 0.859375 0.328125
vt 0.578125 0.421875
vt 0.59375 0.421875
vt 0.578125 0.4296875
vt 0.59375 0.4296875
vt 0.6953125 0.359375
vt 0.703125 0.359375
vt 0.6953125 0.3828125
vt 0.703125 0.3828125
vt 0.1328125 0.9609375
vt 0.2421875 0.9609375
vt 0.1328125 0.96875
vt 0.2421875 0.96875
vt 0.625 0.421875
vt 0.640625 0.421875
vt 0.625 0.4296875
vt 0.640625 0.4296875
vt 0.5234375 0.4609375
vt 0.53125 0.4609375
vt 0.5234375 0.4765625
vt 0.53125 0.4765625
vt 0.671875 0.421875
vt 0.6875 0.421875
vt 0.671875 0.4296875
vt 0.6875 0.4296875
vt 0.5625 0.4609375
vt 0.5703125 0.4609375
vt 0.5625 0.4765625
vt 0.5703125 0.4765625
vt 0.1328125 0.8359375
vt 0.234375 0.8359375
vt 0.1328125 0.8828125
vt 0.234375 0.8828125
vt 0.421875 0.9296875
vt 0.4296875 0.9296875
vt 0.421875 0.96875
vt 0.4296875 0.96875
vt 0.1328125 0.9140625
vt 0.234375 0.9140625
vt 0.1328125 0.9296875
vt 0.234375 0.9296875
vt 0.359375 0.7578125
vt 0.375 0.7578125
vt 0.359375 0.890625
vt 0.375 0.890625
vt 0.71875 0.421875
vt 0.734375 0.421875
vt 0.71875 0.4296875
vt 0.734375 0.4296875
vt 0.0078125 0.8671875
vt 0.1015625 0.8671875
vt 0.0078125 0.890625
vt 0.1015625 0.890625
vt 0.890625 0.359375
vt 0.8984375 0.359375
vt 0.890625 0.3828125
vt 0.8984375 0.3828125
vt 0.0078125 0.921875
vt 0.1015625 0.921875
vt 0.0078125 0.9375
vt 0.1015625 0.9375
vt 0.71875 0.4609375
vt 0.7265625 0.4609375
vt 0.71875 0.4765625
vt 0.7265625 0.4765625
vt 0.0078125 0.96875
vt 0.1015625 0.96875
vt 0.0078125 0.9765625
vt 0.1015625 0.9765625
vt 0.796875 0.2109375
vt 0.8828125 0.2109375
vt 0.796875 0.21875
vt 0.8828125 0.21875
vt 0.765625 0.421875
vt 0.78125 0.421875
vt 0.765625 0.4296875
vt 0.78125 0.4296875
vt 0.796875 0.171875
vt 0.8828125 0.171875
vt 0.796875 0.1796875
vt 0.8828125 0.1796875
vt 0.796875 0.1328125
vt 0.8828125 0.1328125
vt 0.796875 0.140625
vt 0.8828125 0.140625
vt 0.9453125 0.3203125
vt 0.9609375 0.3203125
vt 0.9453125 0.328125
vt 0.9609375 0.328125
vt 0.1328125 0.6875
vt 0.2109375 0.6875
vt 0.1328125 0.8046875
vt 0.2109375 0.8046875
vt 0.859375 0.2890625
vt 0.6875 0.1328125
vt 0.765625 0.1328125
vt 0.6875 0.1484375
vt 0.765625 0.1484375
vt 0.96875 0.0703125
vt 0.9765625 0.0703125
vt 0.96875 0.1015625
vt 0.9765625 0.1015625
vt 0.484375 0.359375
vt 0.4921875 0.359375
vt 0.484375 0.390625
vt 0.4921875 0.390625
vt 0.6875 0.2734375
vt 0.7578125 0.2734375
vt 0.6875 0.28125
vt 0.7578125 0.28125
vt 0.796875 0.25
vt 0.8671875 0.25
vt 0.796875 0.2578125
vt 0.8671875 0.2578125
vt 0.6875 0.2265625
vt 0.75 0.2265625
vt 0.6875 0.2421875
vt 0.75 0.2421875
vt 0.9140625 0.1328125
vt 0.9765625 0.1328125
vt 0.9140625 0.140625
vt 0.9765625 0.140625
vt 0.6015625 0.1953125
vt 0.65625 0.1953125
vt 0.6015625 0.2265625
vt 0.65625 0.2265625
vt 0.5234375 0.359375
vt 0.53125 0.359375
vt 0.5234375 0.390625
vt 0.53125 0.390625
vt 0.421875 0.0078125
vt 0.453125 0.0078125
vt 0.421875 0.5078125
vt 0.453125 0.5078125
usemtl voxel
f 2/2/1 1/1/1 3/3/1
f 2/2/1 3/3/1 4/4/1
f 5/5/2 6/6/2 7/7/2
f 7/7/2 6/6/2 8/8/2
f 10/10/3 9/9/3 11/11/3
f 10/10/3 11/11/3 12/12/3
f 13/13/4 14/14/4 15/15/4
f 15/15/4 14/14/4 16/16/4
f 18/18/5 17/17/5 19/19/5
f 18/18/5 19/19/5 20/20/5
f 21/21/6 22/21/6 23/21/6
f 23/21/6 22/21/6 24/21/6
f 26/21/5 25/21/5 27/21/5
f 26/21/5 27/21/5 28/21/5
f 30/23/5 29/22/5 31/24/5
f 30/23/5 31/24/5 32/25/5
f 33/21/6 34/21/6 35/21/6
f 35/21/6 34/21/6 36/21/6
f 37/21/4 38/21/4 39/21/4
f 39/21/4 38/21/4 40/21/4
f 42/27/1 41/26/1 43/28/1
f 42/27/1 43/28/1 44/29/1
f 46/31/5 45/30/5 47/32/5
f 46/31/5 47/32/5 48/33/5
f 50/21/5 49/21/5 51/21/5
f 50/21/5 51/21/5 52/21/5
f 54/21/5 53/21/5 55/21/5
f 54/21/5 55/21/5 56/21/5
f 58/35/5 57/34/5 59/36/5
f 58/35/5 59/36/5 60/37/5
f 61/38/6 62/38/6 63/38/6
f 63/38/6 62/38/6 64/38/6
f 65/21/4 66/21/4 67/21/4
f 67/21/4 66/21/4 68/21/4
f 70/21/1 69/21/1 71/21/1
f 70/21/1 71/21/1 72/21/1
f 74/21/5 73/21/5 75/21/5
f 74/21/5 75/21/5 76/21/5
f 77/21/6 78/21/6 79/21/6
f 79/21/6 78/21/6 80/21/6
f 81/21/4 82/21/4 83/21/4
f 83/21/4 82/21/4 84/21/4
f 86/21/3 85/21/3 87/21/3
f 86/21/3 87/21/3 88/21/3
f 89/39/6 90/39/6 91/39/6
f 91/39/6 90/39/6 92/39/6
f 94/21/5 93/21/5 95/21/5
f 94/21/5 95/21/5 96/21/5
f 97/40/6 98/41/6 99/42/6
f 99/42/6 98/41/6 100/43/6
f 102/44/5 101/44/5 103/44/5
f 102/44/5 103/44/5 104/44/5
f 106/21/5 105/21/5 107/21/5
f 106/21/5 107/21/5 108/21/5
f 110/46/5 109/45/5 111/47/5
f 110/46/5 111/47/5 112/48/5
f 113/21/4 114/21/4 115/21/4
f 115/21/4 114/21/4 116/21/4
f 117/21/6 118/21/6 119/21/6
f 119/21/6 118/21/6 120/21/6
f 122/21/1 121/21/1 123/21/1
f 122/21/1 123/21/1 124/21/1
f 126/21/5 125/21/5 127/21/5
f 126/21/5 127/21/5 128/21/5
f 129/21/6 130/21/6 131/21/6
f 131/21/6 130/21/6 132/21/6
f 134/21/1 133/21/1 135/21/1
f 134/21/1 135/21/1 136/21/1
f 138/21/5 137/21/5 139/21/5
f 138/21/5 139/21/5 140/21/5
f 141/21/6 142/21/6 143/21/6
f 143/21/6 142/21/6 144/21/6
f 146/50/5 145/49/5 147/51/5
f 146/50/5 147/51/5 148/52/5
f 149/21/6 150/21/6 151/21/6
f 151/21/6 150/21/6 152/21/6
f 153/21/4 154/21/4 155/21/4
f 155/21/4 154/21/4 156/21/4
f 158/53/1 157/53/1 159/53/1
f 158/53/1 159/53/1 160/53/1
f 162/55/5 161/54/5 163/56/5
f 162/55/5 163/56/5 164/57/5
f 165/58/6 166/58/6 167/58/6
f 167/58/6 166/58/6 168/58/6
f 170/44/5 169/44/5 171/44/5
f 170/44/5 171/44/5 172/44/5
f 174/21/5 173/21/5 175/21/5
f 174/21/5 175/21/5 176/21/5
f 177/44/4 178/44/4 179/44/4
f 179/44/4 178/44/4 180/44/4
f 182/44/5 181/44/5 183/44/5
f 182/44/5 183/44/5 184/44/5
f 185/44/6 186/44/6 187/44/6
f 187/44/6 186/44/6 188/44/6
f 190/60/1 189/59/1 191/61/1
f 190/60/1 191/61/1 192/62/1
f 194/64/5 193/63/5 195/65/5
f 194/64/5 195/65/5 196/66/5
f 198/21/5 197/21/5 199/21/5
f 198/21/5 199/21/5 200/21/5
f 202/21/5 201/21/5 203/21/5
f 202/21/5 203/21/5 204/21/5
f 206/68/5 205/67/5 207/69/5
f 206/68/5 207/69/5 208/70/5
f 209/21/4 210/21/4 211/21/4
f 211/21/4 210/21/4 212/21/4
f 214/72/5 213/71/5 215/73/5
f 214/72/5 215/73/5 216/74/5
f 217/21/6 218/21/6 219/21/6
f 219/21/6 218/21/6 220/21/6
f 221/21/6 222/21/6 223/21/6
f 223/21/6 222/21/6 224/21/6
f 225/75/4 226/76/4 227/77/4
f 227/77/4 226/76/4 228/78/4
f 230/38/1 229/38/1 231/38/1
f 230/38/1 231/38/1 232/38/1
f 234/80/5 233/79/5 235/81/5
f 234/80/5 235/81/5 236/82/5
f 237/38/6 238/38/6 239/38/6
f 239/38/6 238/38/6 240/38/6
f 242/53/3 241/53/3 243/53/3
f 242/53/3 243/53/3 244/53/3
f 245/53/4 246/53/4 247/53/4
f 247/53/4 246/53/4 248/53/4
f 250/21/1 249/21/1 251/21/1
f 250/21/1 251/21/1 252/21/1
f 254/84/5 253/83/5 255/85/5
f 254/84/5 255/85/5 256/86/5
f 258/44/5 257/44/5 259/44/5
f 258/44/5 259/44/5 260/44/5
f 261/21/4 262/21/4 263/21/4
f 263/21/4 262/21/4 264/21/4
f 266/21/5 265/21/5 267/21/5
f 266/21/5 267/21/5 268/21/5
f 270/88/5 269/87/5 271/89/5
f 270/88/5 271/89/5 272/90/5
f 274/21/5 273/21/5 275/21/5
f 274/21/5 275/21/5 276/21/5
f 278/21/1 277/21/1 279/21/1
f 278/21/1 279/21/1 280/21/1
f 282/92/5 281/91/5 283/93/5
f 282/92/5 283/93/5 284/94/5
f 285/21/6 286/21/6 287/21/6
f 287/21/6 286/21/6 288/21/6
f 289/95/6 290/96/6 291/97/6
f 291/97/6 290/96/6 292/98/6
f 293/99/4 294/99/4 295/99/4
f 295/99/4 294/99/4 296/99/4
f 298/101/1 297/100/1 299/102/1
f 298/101/1 299/102/1 300/103/1
f 302/105/5 301/104/5 303/106/5
f 302/105/5 303/106/5 304/107/5
f 306/21/1 305/21/1 307/21/1
f 306/21/1 307/21/1 308/21/1
f 310/109/5 309/108/5 311/110/5
f 310/109/5 311/110/5 312/111/5
f 314/38/3 313/38/3 315/38/3
f 314/38/3 315/38/3 316/38/3
f 318/44/5 317/44/5 319/44/5
f 318/44/5 319/44/5 320/44/5
f 322/113/5 321/112/5 323/114/5
f 322/113/5 323/114/5 324/115/5
f 326/117/3 325/116/3 327/118/3
f 326/117/3 327/118/3 328/119/3
f 329/44/4 330/44/4 331/44/4
f 331/44/4 330/44/4 332/44/4
f 334/21/5 333/21/5 335/21/5
f 334/21/5 335/21/5 336/21/5
f 338/21/5 337/21/5 339/21/5
f 338/21/5 339/21/5 340/21/5
f 341/21/4 342/21/4 343/21/4
f 343/21/4 342/21/4 344/21/4
f 346/121/5 345/120/5 347/122/5
f 346/121/5 347/122/5 348/123/5
f 350/21/3 349/21/3 351/21/3
f 350/21/3 351/21/3 352/21/3
f 353/21/4 354/21/4 355/21/4
f 355/21/4 354/21/4 356/21/4
f 358/21/1 357/21/1 359/21/1
f 358/21/1 359/21/1 360/21/1
f 362/21/5 361/21/5 363/21/5
f 362/21/5 363/21/5 364/21/5
f 366/21/3 365/21/3 367/21/3
f 366/21/3 367/21/3 368/21/3
f 369/21/6 370/21/6 371/21/6
f 371/21/6 370/21/6 372/21/6
f 374/21/1 373/21/1 375/21/1
f 374/21/1 375/21/1 376/21/1
f 378/125/5 377/124/5 379/126/5
f 378/125/5 379/126/5 380/127/5
f 381/21/6 382/21/6 383/21/6
f 383/21/6 382/21/6 384/21/6
f 385/21/6 386/21/6 387/21/6
f 387/21/6 386/21/6 388/21/6
f 389/21/6 390/21/6 391/21/6
f 391/21/6 390/21/6 392/21/6
f 393/128/6 394/129/6 395/130/6
f 395/130/6 394/129/6 396/131/6
f 397/21/4 398/21/4 399/21/4
f 399/21/4 398/21/4 400/21/4
f 401/21/6 402/21/6 403/21/6
f 403/21/6 402/21/6 404/21/6
f 406/133/5 405/132/5 407/134/5
f 406/133/5 407/134/5 408/135/5
f 410/137/3 409/136/3 411/138/3
f 410/137/3 411/138/3 412/139/3
f 414/21/3 413/21/3 415/21/3
f 414/21/3 415/21/3 416/21/3
f 418/21/5 417/21/5 419/21/5
f 418/21/5 419/21/5 420/21/5
f 422/21/5 421/21/5 423/21/5
f 422/21/5 423/21/5 424/21/5
f 426/21/5 425/21/5 427/21/5
f 426/21/5 427/21/5 428/21/5
f 430/21/5 429/21/5 431/21/5
f 430/21/5 431/21/5 432/21/5
f 434/141/5 433/140/5 435/142/5
f 434/141/5 435/142/5 436/143/5
f 437/144/6 438/145/6 439/146/6
f 439/146/6 438/145/6 440/147/6
f 441/148/6 442/149/6 443/150/6
f 443/150/6 442/149/6 444/151/6
f 446/21/5 445/21/5 447/21/5
f 446/21/5 447/21/5 448/21/5
f 450/153/5 449/152/5 451/154/5
f 450/153/5 451/154/5 452/155/5
f 454/157/3 453/156/3 455/158/3
f 454/157/3 455/158/3 456/159/3
f 457/21/4 458/21/4 459/21/4
f 459/21/4 458/21/4 460/21/4
f 462/21/1 461/21/1 463/21/1
f 462/21/1 463/21/1 464/21/1
f 466/21/5 465/21/5 467/21/5
f 466/21/5 467/21/5 468/21/5
f 470/21/3 469/21/3 471/21/3
f 470/21/3 471/21/3 472/21/3
f 473/21/6 474/21/6 475/21/6
f 475/21/6 474/21/6 476/21/6
f 477/21/4 478/21/4 479/21/4
f 479/21/4 478/21/4 480/21/4
f 482/21/1 481/21/1 483/21/1
f 482/21/1 483/21/1 484/21/1
f 486/161/5 485/160/5 487/162/5
f 486/161/5 487/162/5 488/163/5
f 489/21/6 490/21/6 491/21/6
f 491/21/6 490/21/6 492/21/6
f 493/99/4 494/99/4 495/99/4
f 495/99/4 494/99/4 496/99/4
f 497/21/4 498/21/4 499/21/4
f 499/21/4 498/21/4 500/21/4
f 502/21/1 501/21/1 503/21/1
f 502/21/1 503/21/1 504/21/1
f 506/21/5 505/21/5 507/21/5
f 506/21/5 507/21/5 508/21/5
f 509/38/4 510/38/4 511/38/4
f 511/38/4 510/38/4 512/38/4
f 514/38/1 513/38/1 515/38/1
f 514/38/1 515/38/1 516/38/1
f 518/38/5 517/38/5 519/38/5
f 518/38/5 519/38/5 520/38/5
f 521/38/6 522/38/6 523/38/6
f 523/38/6 522/38/6 524/38/6
f 526/21/1 525/21/1 527/21/1
f 526/21/1 527/21/1 528/21/1
f 530/21/5 529/21/5 531/21/5
f 530/21/5 531/21/5 532/21/5
f 534/21/3 533/21/3 535/21/3
f 534/21/3 535/21/3 536/21/3
f 537/21/6 538/21/6 539/21/6
f 539/21/6 538/21/6 540/21/6
f 541/21/4 542/21/4 543/21/4
f 543/21/4 542/21/4 544/21/4
f 546/164/1 545/164/1 547/164/1
f 546/164/1 547/164/1 548/164/1
f 550/44/5 549/44/5 551/44/5
f 550/44/5 551/44/5 552/44/5
f 554/21/5 553/21/5 555/21/5
f 554/21/5 555/21/5 556/21/5
f 558/21/5 557/21/5 559/21/5
f 558/21/5 559/21/5 560/21/5
f 562/21/5 561/21/5 563/21/5
f 562/21/5 563/21/5 564/21/5
f 566/21/5 565/21/5 567/21/5
f 566/21/5 567/21/5 568/21/5
f 570/166/5 569/165/5 571/167/5
f 570/166/5 571/167/5 572/168/5
f 573/44/4 574/44/4 575/44/4
f 575/44/4 574/44/4 576/44/4
f 577/21/4 578/21/4 579/21/4
f 579/21/4 578/21/4 580/21/4
f 582/21/1 581/21/1 583/21/1
f 582/21/1 583/21/1 584/21/1
f 586/21/5 585/21/5 587/21/5
f 586/21/5 587/21/5 588/21/5
f 590/170/1 589/169/1 591/171/1
f 590/170/1 591/171/1 592/172/1
f 594/174/5 593/173/5 595/175/5
f 594/174/5 595/175/5 596/176/5
f 598/21/3 597/21/3 599/21/3
f 598/21/3 599/21/3 600/21/3
f 601/21/4 602/21/4 603/21/4
f 603/21/4 602/21/4 604/21/4
f 606/21/1 605/21/1 607/21/1
f 606/21/1 607/21/1 608/21/1
f 610/178/5 609/177/5 611/179/5
f 610/178/5 611/179/5 612/180/5
f 613/21/4 614/21/4 615/21/4
f 615/21/4 614/21/4 616/21/4
f 618/21/1 617/21/1 619/21/1
f 618/21/1 619/21/1 620/21/1
f 622/21/5 621/21/5 623/21/5
f 622/21/5 623/21/5 624/21/5
f 626/21/3 625/21/3 627/21/3
f 626/21/3 627/21/3 628/21/3
f 629/21/6 630/21/6 631/21/6
f 631/21/6 630/21/6 632/21/6
f 634/21/1 633/21/1 635/21/1
f 634/21/1 635/21/1 636/21/1
f 638/182/5 637/181/5 639/183/5
f 638/182/5 639/183/5 640/184/5
f 641/185/6 642/186/6 643/187/6
f 643/187/6 642/186/6 644/188/6
f 646/53/3 645/53/3 647/53/3
f 646/53/3 647/53/3 648/53/3
f 650/190/5 649/189/5 651/191/5
f 650/190/5 651/191/5 652/192/5
f 654/53/3 653/53/3 655/53/3
f 654/53/3 655/53/3 656/53/3
f 658/21/5 657/21/5 659/21/5
f 658/21/5 659/21/5 660/21/5
f 661/21/6 662/21/6 663/21/6
f 663/21/6 662/21/6 664/21/6
f 666/21/5 665/21/5 667/21/5
f 666/21/5 667/21/5 668/21/5
f 670/21/5 669/21/5 671/21/5
f 670/21/5 671/21/5 672/21/5
f 674/21/3 673/21/3 675/21/3
f 674/21/3 675/21/3 676/21/3
f 678/194/3 677/193/3 679/195/3
f 678/194/3 679/195/3 680/196/3
f 682/198/5 681/197/5 683/199/5
f 682/198/5 683/199/5 684/200/5
f 686/21/3 685/21/3 687/21/3
f 686/21/3 687/21/3 688/21/3
f 689/201/6 690/202/6 691/203/6
f 691/203/6 690/202/6 692/204/6
f 693/21/4 694/21/4 695/21/4
f 695/21/4 694/21/4 696/21/4
f 698/21/5 697/21/5 699/21/5
f 698/21/5 699/21/5 700/21/5
f 702/21/3 701/21/3 703/21/3
f 702/21/3 703/21/3 704/21/3
f 706/21/1 705/21/1 707/21/1
f 706/21/1 707/21/1 708/21/1
f 710/206/5 709/205/5 711/207/5
f 710/206/5 711/207/5 712/208/5
f 714/21/3 713/21/3 715/21/3
f 714/21/3 715/21/3 716/21/3
f 717/21/6 718/21/6 719/21/6
f 719/21/6 718/21/6 720/21/6
f 722/21/3 721/21/3 723/21/3
f 722/21/3 723/21/3 724/21/3
f 726/44/5 725/44/5 727/44/5
f 726/44/5 727/44/5 728/44/5
f 730/21/5 729/21/5 731/21/5
f 730/21/5 731/21/5 732/21/5
f 733/21/4 734/21/4 735/21/4
f 735/21/4 734/21/4 736/21/4
f 737/21/6 738/21/6 739/21/6
f 739/21/6 738/21/6 740/21/6
f 742/21/1 741/21/1 743/21/1
f 742/21/1 743/21/1 744/21/1
f 746/21/5 745/21/5 747/21/5
f 746/21/5 747/21/5 748/21/5
f 750/21/5 749/21/5 751/21/5
f 750/21/5 751/21/5 752/21/5
f 753/209/4 754/210/4 755/211/4
f 755/211/4 754/210/4 756/212/4
f 757/213/4 758/214/4 759/215/4
f 759/215/4 758/214/4 760/216/4
f 762/218/1 761/217/1 763/219/1
f 762/218/1 763/219/1 764/220/1
f 766/222/5 765/221/5 767/223/5
f 766/222/5 767/223/5 768/224/5
f 770/21/3 769/21/3 771/21/3
f 770/21/3 771/21/3 772/21/3
f 774/226/1 773/225/1 775/227/1
f 774/226/1 775/227/1 776/228/1
f 778/230/5 777/229/5 779/231/5
f 778/230/5 779/231/5 780/232/5
f 782/44/5 781/44/5 783/44/5
f 782/44/5 783/44/5 784/44/5
f 785/21/4 786/21/4 787/21/4
f 787/21/4 786/21/4 788/21/4
f 789/21/6 790/21/6 791/21/6
f 791/21/6 790/21/6 792/21/6
f 793/21/6 794/21/6 795/21/6
f 795/21/6 794/21/6 796/21/6
f 797/233/6 798/233/6 799/233/6
f 799/233/6 798/233/6 800/233/6
f 802/44/5 801/44/5 803/44/5
f 802/44/5 803/44/5 804/44/5
f 806/44/5 805/44/5 807/44/5
f 806/44/5 807/44/5 808/44/5
f 810/21/5 809/21/5 811/21/5
f 810/21/5 811/21/5 812/21/5
f 814/21/5 813/21/5 815/21/5
f 814/21/5 815/21/5 816/21/5
f 817/21/4 818/21/4 819/21/4
f 819/21/4 818/21/4 820/21/4
f 822/21/5 821/21/5 823/21/5
f 822/21/5 823/21/5 824/21/5
f 826/21/3 825/21/3 827/21/3
f 826/21/3 827/21/3 828/21/3
f 830/21/1 829/21/1 831/21/1
f 830/21/1 831/21/1 832/21/1
f 834/235/5 833/234/5 835/236/5
f 834/235/5 835/236/5 836/237/5
f 838/21/3 837/21/3 839/21/3
f 838/21/3 839/21/3 840/21/3
f 841/21/4 842/21/4 843/21/4
f 843/21/4 842/21/4 844/21/4
f 846/21/1 845/21/1 847/21/1
f 846/21/1 847/21/1 848/21/1
f 849/39/4 850/39/4 851/39/4
f 851/39/4 850/39/4 852/39/4
f 854/53/1 853/53/1 855/53/1
f 854/53/1 855/53/1 856/53/1
f 857/21/4 858/21/4 859/21/4
f 859/21/4 858/21/4 860/21/4
f 862/21/5 861/21/5 863/21/5
f 862/21/5 863/21/5 864/21/5
f 865/21/6 866/21/6 867/21/6
f 867/21/6 866/21/6 868/21/6
f 870/21/1 869/21/1 871/21/1
f 870/21/1 871/21/1 872/21/1
f 873/238/6 874/239/6 875/240/6
f 875/240/6 874/239/6 876/241/6
f 878/21/5 877/21/5 879/21/5
f 878/21/5 879/21/5 880/21/5
f 882/21/5 881/21/5 883/21/5
f 882/21/5 883/21/5 884/21/5
f 886/21/5 885/21/5 887/21/5
f 886/21/5 887/21/5 888/21/5
f 890/21/3 889/21/3 891/21/3
f 890/21/3 891/21/3 892/21/3
f 893/242/6 894/243/6 895/244/6
f 895/244/6 894/243/6 896/245/6
f 898/247/5 897/246/5 899/248/5
f 898/247/5 899/248/5 900/249/5
f 902/21/3 901/21/3 903/21/3
f 902/21/3 903/21/3 904/21/3
f 906/251/3 905/250/3 907/252/3
f 906/251/3 907/252/3 908/253/3
f 909/53/6 910/53/6 911/53/6
f 911/53/6 910/53/6 912/53/6
f 913/21/4 914/21/4 915/21/4
f 915/21/4 914/21/4 916/21/4
f 917/21/6 918/21/6 919/21/6
f 919/21/6 918/21/6 920/21/6
f 921/21/4 922/21/4 923/21/4
f 923/21/4 922/21/4 924/21/4
f 926/21/1 925/21/1 927/21/1
f 926/21/1 927/21/1 928/21/1
f 930/21/5 929/21/5 931/21/5
f 930/21/5 931/21/5 932/21/5
f 934/21/3 933/21/3 935/21/3
f 934/21/3 935/21/3 936/21/3
f 937/21/6 938/21/6 939/21/6
f 939/21/6 938/21/6 940/21/6
f 941/21/6 942/21/6 943/21/6
f 943/21/6 942/21/6 944/21/6
f 946/21/5 945/21/5 947/21/5
f 946/21/5 947/21/5 948/21/5
f 950/21/5 949/21/5 951/21/5
f 950/21/5 951/21/5 952/21/5
f 954/44/5 953/44/5 955/44/5
f 954/44/5 955/44/5 956/44/5
f 957/21/4 958/21/4 959/21/4
f 959/21/4 958/21/4 960/21/4
f 962/21/5 961/21/5 963/21/5
f 962/21/5 963/21/5 964/21/5
f 966/21/1 965/21/1 967/21/1
f 966/21/1 967/21/1 968/21/1
f 970/21/5 969/21/5 971/21/5
f 970/21/5 971/21/5 972/21/5
f 974/21/5 973/21/5 975/21/5
f 974/21/5 975/21/5 976/21/5
f 977/21/4 978/21/4 979/21/4
f 979/21/4 978/21/4 980/21/4
f 982/44/1 981/44/1 983/44/1
f 982/44/1 983/44/1 984/44/1
f 985/254/6 986/255/6 987/256/6
f 987/256/6 986/255/6 988/257/6
f 990/21/5 989/21/5 991/21/5
f 990/21/5 991/21/5 992/21/5
f 994/21/5 993/21/5 995/21/5
f 994/21/5 995/21/5 996/21/5
f 997/21/6 998/21/6 999/21/6
f 999/21/6 998/21/6 1000/21/6
f 1001/21/4 1002/21/4 1003/21/4
f 1003/21/4 1002/21/4 1004/21/4
f 1005/21/4 1006/21/4 1007/21/4
f 1007/21/4 1006/21/4 1008/21/4
f 1010/21/1 1009/21/1 1011/21/1
f 1010/21/1 1011/21/1 1012/21/1
f 1014/259/5 1013/258/5 1015/260/5
f 1014/259/5 1015/260/5 1016/261/5
f 1018/21/3 1017/21/3 1019/21/3
f 1018/21/3 1019/21/3 1020/21/3
f 1021/21/4 1022/21/4 1023/21/4
f 1023/21/4 1022/21/4 1024/21/4
f 1026/21/1 1025/21/1 1027/21/1
f 1026/21/1 1027/21/1 1028/21/1
f 1030/21/5 1029/21/5 1031/21/5
f 1030/21/5 1031/21/5 1032/21/5
f 1034/21/3 1033/21/3 1035/21/3
f 1034/21/3 1035/21/3 1036/21/3
f 1037/21/6 1038/21/6 1039/21/6
f 1039/21/6 1038/21/6 1040/21/6
f 1042/21/1 1041/21/1 1043/21/1
f 1042/21/1 1043/21/1 1044/21/1
f 1045/21/6 1046/21/6 1047/21/6
f 1047/21/6 1046/21/6 1048/21/6
f 1049/21/6 1050/21/6 1051/21/6
f 1051/21/6 1050/21/6 1052/21/6
f 1053/99/6 1054/99/6 1055/99/6
f 1055/99/6 1054/99/6 1056/99/6
f 1058/44/5 1057/44/5 1059/44/5
f 1058/44/5 1059/44/5 1060/44/5
f 1062/21/5 1061/21/5 1063/21/5
f 1062/21/5 1063/21/5 1064/21/5
f 1066/263/3 1065/262/3 1067/264/3
f 1066/263/3 1067/264/3 1068/265/3
f 1070/267/3 1069/266/3 1071/268/3
f 1070/267/3 1071/268/3 1072/269/3
f 1074/21/5 1073/21/5 1075/21/5
f 1074/21/5 1075/21/5 1076/21/5
f 1077/44/4 1078/44/4 1079/44/4
f 1079/44/4 1078/44/4 1080/44/4
f 1082/21/1 1081/21/1 1083/21/1
f 1082/21/1 1083/21/1 1084/21/1
f 1086/21/5 1085/21/5 1087/21/5
f 1086/21/5 1087/21/5 1088/21/5
f 1089/21/6 1090/21/6 1091/21/6
f 1091/21/6 1090/21/6 1092/21/6
f 1093/270/6 1094/271/6 1095/272/6
f 1095/272/6 1094/271/6 1096/273/6
f 1098/21/5 1097/21/5 1099/21/5
f 1098/21/5 1099/21/5 1100/21/5
f 1102/21/5 1101/21/5 1103/21/5
f 1102/21/5 1103/21/5 1104/21/5
f 1105/274/6 1106/275/6 1107/276/6
f 1107/276/6 1106/275/6 1108/277/6
f 1109/233/4 1110/233/4 1111/233/4
f 1111/233/4 1110/233/4 1112/233/4
f 1114/21/1 1113/21/1 1115/21/1
f 1114/21/1 1115/21/1 1116/21/1
f 1118/279/5 1117/278/5 1119/280/5
f 1118/279/5 1119/280/5 1120/281/5
f 1122/283/3 1121/282/3 1123/284/3
f 1122/283/3 1123/284/3 1124/285/3
f 1126/287/5 1125/286/5 1127/288/5
f 1126/287/5 1127/288/5 1128/289/5
f 1130/21/3 1129/21/3 1131/21/3
f 1130/21/3 1131/21/3 1132/21/3
f 1133/21/4 1134/21/4 1135/21/4
f 1135/21/4 1134/21/4 1136/21/4
f 1138/21/1 1137/21/1 1139/21/1
f 1138/21/1 1139/21/1 1140/21/1
f 1142/21/5 1141/21/5 1143/21/5
f 1142/21/5 1143/21/5 1144/21/5
f 1145/21/6 1146/21/6 1147/21/6
f 1147/21/6 1146/21/6 1148/21/6
f 1149/21/4 1150/21/4 1151/21/4
f 1151/21/4 1150/21/4 1152/21/4
f 1153/21/4 1154/21/4 1155/21/4
f 1155/21/4 1154/21/4 1156/21/4
f 1158/21/1 1157/21/1 1159/21/1
f 1158/21/1 1159/21/1 1160/21/1
f 1162/21/5 1161/21/5 1163/21/5
f 1162/21/5 1163/21/5 1164/21/5
f 1165/21/6 1166/21/6 1167/21/6
f 1167/21/6 1166/21/6 1168/21/6
f 1170/21/1 1169/21/1 1171/21/1
f 1170/21/1 1171/21/1 1172/21/1
f 1173/21/6 1174/21/6 1175/21/6
f 1175/21/6 1174/21/6 1176/21/6
f 1178/44/5 1177/44/5 1179/44/5
f 1178/44/5 1179/44/5 1180/44/5
f 1181/44/6 1182/44/6 1183/44/6
f 1183/44/6 1182/44/6 1184/44/6
f 1186/44/5 1185/44/5 1187/44/5
f 1186/44/5 1187/44/5 1188/44/5
f 1190/21/5 1189/21/5 1191/21/5
f 1190/21/5 1191/21/5 1192/21/5
f 1193/21/4 1194/21/4 1195/21/4
f 1195/21/4 1194/21/4 1196/21/4
f 1198/21/5 1197/21/5 1199/21/5
f 1198/21/5 1199/21/5 1200/21/5
f 1202/21/3 1201/21/3 1203/21/3
f 1202/21/3 1203/21/3 1204/21/3
f 1205/21/4 1206/21/4 1207/21/4
f 1207/21/4 1206/21/4 1208/21/4
f 1210/21/1 1209/21/1 1211/21/1
f 1210/21/1 1211/21/1 1212/21/1
f 1214/21/5 1213/21/5 1215/21/5
f 1214/21/5 1215/21/5 1216/21/5
f 1217/21/6 1218/21/6 1219/21/6
f 1219/21/6 1218/21/6 1220/21/6
f 1222/21/1 1221/21/1 1223/21/1
f 1222/21/1 1223/21/1 1224/21/1
f 1225/21/6 1226/21/6 1227/21/6
f 1227/21/6 1226/21/6 1228/21/6
f 1230/21/5 1229/21/5 1231/21/5
f 1230/21/5 1231/21/5 1232/21/5
f 1234/21/5 1233/21/5 1235/21/5
f 1234/21/5 1235/21/5 1236/21/5
f 1238/291/5 1237/290/5 1239/292/5
f 1238/291/5 1239/292/5 1240/293/5
f 1241/294/4 1242/295/4 1243/296/4
f 1243/296/4 1242/295/4 1244/297/4
f 1246/21/1 1245/21/1 1247/21/1
f 1246/21/1 1247/21/1 1248/21/1
f 1250/299/5 1249/298/5 1251/300/5
f 1250/299/5 1251/300/5 1252/301/5
f 1254/303/3 1253/302/3 1255/304/3
f 1254/303/3 1255/304/3 1256/305/3
f 1258/307/5 1257/306/5 1259/308/5
f 1258/307/5 1259/308/5 1260/309/5
f 1262/311/3 1261/310/3 1263/312/3
f 1262/311/3 1263/312/3 1264/313/3
f 1265/21/4 1266/21/4 1267/21/4
f 1267/21/4 1266/21/4 1268/21/4
f 1269/21/4 1270/21/4 1271/21/4
f 1271/21/4 1270/21/4 1272/21/4
f 1274/21/1 1273/21/1 1275/21/1
f 1274/21/1 1275/21/1 1276/21/1
f 1278/21/5 1277/21/5 1279/21/5
f 1278/21/5 1279/21/5 1280/21/5
f 1282/21/3 1281/21/3 1283/21/3
f 1282/21/3 1283/21/3 1284/21/3
f 1285/21/6 1286/21/6 1287/21/6
f 1287/21/6 1286/21/6 1288/21/6
f 1290/21/1 1289/21/1 1291/21/1
f 1290/21/1 1291/21/1 1292/21/1
f 1294/315/5 1293/314/5 1295/316/5
f 1294/315/5 1295/316/5 1296/317/5
f 1298/44/5 1297/44/5 1299/44/5
f 1298/44/5 1299/44/5 1300/44/5
f 1301/44/4 1302/44/4 1303/44/4
f 1303/44/4 1302/44/4 1304/44/4
f 1306/44/5 1305/44/5 1307/44/5
f 1306/44/5 1307/44/5 1308/44/5
f 1310/44/1 1309/44/1 1311/44/1
f 1310/44/1 1311/44/1 1312/44/1
f 1314/44/5 1313/44/5 1315/44/5
f 1314/44/5 1315/44/5 1316/44/5
f 1318/44/5 1317/44/5 1319/44/5
f 1318/44/5 1319/44/5 1320/44/5
f 1322/21/5 1321/21/5 1323/21/5
f 1322/21/5 1323/21/5 1324/21/5
f 1325/21/4 1326/21/4 1327/21/4
f 1327/21/4 1326/21/4 1328/21/4
f 1330/21/5 1329/21/5 1331/21/5
f 1330/21/5 1331/21/5 1332/21/5
f 1334/21/3 1333/21/3 1335/21/3
f 1334/21/3 1335/21/3 1336/21/3
f 1338/21/1 1337/21/1 1339/21/1
f 1338/21/1 1339/21/1 1340/21/1
f 1342/21/5 1341/21/5 1343/21/5
f 1342/21/5 1343/21/5 1344/21/5
f 1345/39/6 1346/39/6 1347/39/6
f 1347/39/6 1346/39/6 1348/39/6
f 1350/21/1 1349/21/1 1351/21/1
f 1350/21/1 1351/21/1 1352/21/1
f 1354/319/5 1353/318/5 1355/320/5
f 1354/319/5 1355/320/5 1356/321/5
f 1358/21/3 1357/21/3 1359/21/3
f 1358/21/3 1359/21/3 1360/21/3
f 1361/322/4 1362/323/4 1363/324/4
f 1363/324/4 1362/323/4 1364/325/4
f 1366/327/5 1365/326/5 1367/328/5
f 1366/327/5 1367/328/5 1368/329/5
f 1370/21/3 1369/21/3 1371/21/3
f 1370/21/3 1371/21/3 1372/21/3
f 1374/21/1 1373/21/1 1375/21/1
f 1374/21/1 1375/21/1 1376/21/1
f 1378/331/5 1377/330/5 1379/332/5
f 1378/331/5 1379/332/5 1380/333/5
f 1382/21/3 1381/21/3 1383/21/3
f 1382/21/3 1383/21/3 1384/21/3
f 1386/44/5 1385/44/5 1387/44/5
f 1386/44/5 1387/44/5 1388/44/5
f 1390/44/3 1389/44/3 1391/44/3
f 1390/44/3 1391/44/3 1392/44/3
f 1394/21/5 1393/21/5 1395/21/5
f 1394/21/5 1395/21/5 1396/21/5
f 1397/44/4 1398/44/4 1399/44/4
f 1399/44/4 1398/44/4 1400/44/4
f 1402/335/5 1401/334/5 1403/336/5
f 1402/335/5 1403/336/5 1404/337/5
f 1406/44/3 1405/44/3 1407/44/3
f 1406/44/3 1407/44/3 1408/44/3
f 1410/339/5 1409/338/5 1411/340/5
f 1410/339/5 1411/340/5 1412/341/5
f 1413/21/4 1414/21/4 1415/21/4
f 1415/21/4 1414/21/4 1416/21/4
f 1418/342/1 1417/342/1 1419/342/1
f 1418/342/1 1419/342/1 1420/342/1
f 1422/344/5 1421/343/5 1423/345/5
f 1422/344/5 1423/345/5 1424/346/5
f 1426/21/3 1425/21/3 1427/21/3
f 1426/21/3 1427/21/3 1428/21/3
f 1430/21/1 1429/21/1 1431/21/1
f 1430/21/1 1431/21/1 1432/21/1
f 1434/21/5 1433/21/5 1435/21/5
f 1434/21/5 1435/21/5 1436/21/5
f 1438/21/3 1437/21/3 1439/21/3
f 1438/21/3 1439/21/3 1440/21/3
f 1441/21/6 1442/21/6 1443/21/6
f 1443/21/6 1442/21/6 1444/21/6
f 1446/348/5 1445/347/5 1447/349/5
f 1446/348/5 1447/349/5 1448/350/5
f 1450/352/3 1449/351/3 1451/353/3
f 1450/352/3 1451/353/3 1452/354/3
f 1454/21/5 1453/21/5 1455/21/5
f 1454/21/5 1455/21/5 1456/21/5
f 1458/356/5 1457/355/5 1459/357/5
f 1458/356/5 1459/357/5 1460/358/5
f 1462/21/3 1461/21/3 1463/21/3
f 1462/21/3 1463/21/3 1464/21/3
f 1465/21/4 1466/21/4 1467/21/4
f 1467/21/4 1466/21/4 1468/21/4
f 1470/360/5 1469/359/5 1471/361/5
f 1470/360/5 1471/361/5 1472/362/5
f 1474/21/3 1473/21/3 1475/21/3
f 1474/21/3 1475/21/3 1476/21/3
f 1478/21/1 1477/21/1 1479/21/1
f 1478/21/1 1479/21/1 1480/21/1
f 1482/21/5 1481/21/5 1483/21/5
f 1482/21/5 1483/21/5 1484/21/5
f 1486/364/5 1485/363/5 1487/365/5
f 1486/364/5 1487/365/5 1488/366/5
f 1490/21/3 1489/21/3 1491/21/3
f 1490/21/3 1491/21/3 1492/21/3
f 1493/21/4 1494/21/4 1495/21/4
f 1495/21/4 1494/21/4 1496/21/4
f 1498/21/1 1497/21/1 1499/21/1
f 1498/21/1 1499/21/1 1500/21/1
f 1502/368/5 1501/367/5 1503/369/5
f 1502/368/5 1503/369/5 1504/370/5
f 1506/21/3 1505/21/3 1507/21/3
f 1506/21/3 1507/21/3 1508/21/3
f 1510/372/5 1509/371/5 1511/373/5
f 1510/372/5 1511/373/5 1512/374/5
f 1514/376/3 1513/375/3 1515/377/3
f 1514/376/3 1515/377/3 1516/378/3
f 1517/379/6 1518/380/6 1519/381/6
f 1519/381/6 1518/380/6 1520/382/6
