# Export of Cubik Model: Cubik Model
# Designed by MeLee with Cubik Studio - https://cubik.studio
# from Cubik OBJ Exporter v1.0
mtllib street_32_2b_mi.mtl
v 0 0 1.907349E-06
v -16 0 1.907349E-06
v 0 2 1.907349E-06
v -16 2 1.907349E-06
v 0 0 1.907349E-06
v -16 0 1.907349E-06
v 0 1.907349E-06 -32
v -16 1.907349E-06 -32
v 0 0 1.907349E-06
v 0 2 1.907349E-06
v 0 1.907349E-06 -32
v 0 2.000002 -32
v 0 1.907349E-06 -32
v -16 1.907349E-06 -32
v 0 2.000002 -32
v -16 2.000002 -32
v 0 2 1.907349E-06
v -1 2 1.907349E-06
v 0 2.000002 -32
v -1 2.000002 -32
v -1 1.5 -11.5
v -1 2 -11.5
v -1 1.5 -13.5
v -1 2 -13.5
v -1 1.5 -14
v -1 2 -14
v -1 1.5 -15.5
v -1 2 -15.5
v -1 1.5 -11.5
v -1.5 1.5 -11.5
v -1 1.5 -13.5
v -1.5 1.5 -13.5
v -1.5 1 -13
v -1.5 1.5 -13
v -1.5 1 -14
v -1.5 1.5 -14
v -1 1.5 -14
v -2 1.5 -14
v -1 1.5 -15.5
v -2 1.5 -15.5
v -1 2 1.907349E-06
v -16 2 1.907349E-06
v -1 2 -11.5
v -16 2 -11.5
v -1 1.5 -11.5
v -2 1.5 -11.5
v -1 2 -11.5
v -2 2 -11.5
v -1 1.5 -14
v -1.5 1.5 -14
v -1 2 -14
v -1.5 2 -14
v -1 1.5 -13.5
v -1.5 1.5 -13.5
v -1 2 -13.5
v -1.5 2 -13.5
v -1 2 -13.5
v -1.5 2 -13.5
v -1 2 -14
v -1.5 2 -14
v -1.5 1.5 -13.5
v -1.5 2 -13.5
v -1.5 1.5 -14
v -1.5 2 -14
v -1 1.5 -15.5
v -1.5 1.5 -15.5
v -1 2 -15.5
v -1.5 2 -15.5
v -1 2 -15.5
v -1.5 2 -15.5
v -1 2.000002 -32
v -1.5 2.000002 -32
v -1.5 1.5 -15.5
v -1.5 2 -15.5
v -1.5 1.5 -17.5
v -1.5 2 -17.5
v -1.5 1.500002 -18
v -1.5 2 -18
v -1.5 1.500002 -18.5
v -1.5 2.000002 -18.5
v -1.5 1.500002 -19
v -1.5 2.000002 -19
v -1.5 1.500002 -22.5
v -1.5 2.000002 -22.5
v -1.5 1 -13
v -2.5 1 -13
v -1.5 1 -14
v -2.5 1 -14
v -1.5 1.5 -11.5
v -2 1.5 -11.5
v -1.5 1.5 -13
v -2 1.5 -13
v -1.5 1 -13
v -2.5 1 -13
v -1.5 1.5 -13
v -2.5 1.5 -13
v -1.5 1 -14
v -2.5 1 -14
v -1.5 1.5 -14
v -2.5 1.5 -14
v -2 1 -14.5
v -2 1.5 -14.5
v -2 1 -16.5
v -2 1.5 -16.5
v -1.5 1.5 -15.5
v -2 1.5 -15.5
v -1.5 1.5 -17.5
v -2 1.5 -17.5
v -2 1 -17
v -2 1.5 -17
v -2 1.000002 -17.5
v -2 1.5 -17.5
v -1.5 1.500002 -18
v -3 1.500002 -18
v -1.5 1.500002 -18.5
v -3 1.500002 -18.5
v -1.5 1.500002 -19
v -2 1.500002 -19
v -1.5 1.500002 -22.5
v -2 1.500002 -22.5
v -1.5 1.500002 -18
v -2 1.500002 -18
v -1.5 2 -18
v -2 2 -18
v -1.5 1.5 -17.5
v -2 1.5 -17.5
v -1.5 2 -17.5
v -2 2 -17.5
v -1.5 2 -17.5
v -2 2 -17.5
v -1.5 2 -18
v -2 2 -18
v -2 1.5 -17.5
v -2 2 -17.5
v -2 1.500002 -18
v -2 2 -18
v -1.5 1.500002 -19
v -2 1.500002 -19
v -1.5 2.000002 -19
v -2 2.000002 -19
v -1.5 1.500002 -18.5
v -3 1.500002 -18.5
v -1.5 2.000002 -18.5
v -3 2.000002 -18.5
v -1.5 2.000002 -18.5
v -3 2.000002 -18.5
v -1.5 2.000002 -19
v -3 2.000002 -19
v -1.5 1.500002 -22.5
v -2.5 1.500002 -22.5
v -1.5 2.000002 -22.5
v -2.5 2.000002 -22.5
v -1.5 2.000002 -22.5
v -16 2.000002 -22.5
v -1.5 2.000002 -32
v -16 2.000002 -32
v -2 1 -14.5
v -2.5 1 -14.5
v -2 1 -16.5
v -2.5 1 -16.5
v -2 1 -17
v -2.5 1 -17
v -2 1.000002 -17.5
v -2.5 1.000002 -17.5
v -2 1.5 -12
v -2.5 1.5 -12
v -2 1.5 -13
v -2.5 1.5 -13
v -2 1 -14.5
v -2.5 1 -14.5
v -2 1.5 -14.5
v -2.5 1.5 -14.5
v -2 1.5 -14
v -2.5 1.5 -14
v -2 1.5 -14.5
v -2.5 1.5 -14.5
v -2 1 -17
v -2.5 1 -17
v -2 1.5 -17
v -2.5 1.5 -17
v -2 1 -16.5
v -2.5 1 -16.5
v -2 1.5 -16.5
v -2.5 1.5 -16.5
v -2 1.5 -16.5
v -2.5 1.5 -16.5
v -2 1.5 -17
v -2.5 1.5 -17
v -2 1.000002 -17.5
v -2.5 1.000002 -17.5
v -2 1.5 -17.5
v -2.5 1.5 -17.5
v -2 1.5 -17.5
v -3 1.5 -17.5
v -2 1.500002 -18
v -3 1.500002 -18
v -2 1.500002 -22
v -2.5 1.500002 -22
v -2 1.500002 -22.5
v -2.5 1.500002 -22.5
v -2 1.5 -12
v -2.5 1.5 -12
v -2 2 -12
v -2.5 2 -12
v -2 2 -11.5
v -16 2 -11.5
v -2 2 -12
v -16 2 -12
v -2 1.5 -11.5
v -2 2 -11.5
v -2 1.5 -12
v -2 2 -12
v -2 2.000002 -19
v -2.5 2.000002 -19
v -2 2.000002 -22
v -2.5 2.000002 -22
v -2 1.500002 -19
v -2 2.000002 -19
v -2 1.500002 -22
v -2 2.000002 -22
v -2.5 1.500002 -20.5
v -2.5 2.000002 -20.5
v -2.5 1.500002 -21
v -2.5 2.000002 -21
v -2 1.500002 -22
v -2.5 1.500002 -22
v -2 2.000002 -22
v -2.5 2.000002 -22
v -2.5 1.500002 -21.5
v -2.5 2.000002 -21.5
v -2.5 1.500002 -22
v -2.5 2.000002 -22
v -2.5 1 -15
v -3 1 -15
v -2.5 1 -16
v -3 1 -16
v -2.5 1.5 -13
v -3 1.5 -13
v -2.5 1.5 -14
v -3 1.5 -14
v -2.5 1 -13
v -2.5 1.5 -13
v -2.5 1 -14
v -2.5 1.5 -14
v -2.5 1 -15
v -3 1 -15
v -2.5 1.5 -15
v -3 1.5 -15
v -2.5 1.5 -14.5
v -3 1.5 -14.5
v -2.5 1.5 -15
v -3 1.5 -15
v -2.5 1 -14.5
v -2.5 1.5 -14.5
v -2.5 1 -15
v -2.5 1.5 -15
v -2.5 1 -16
v -3 1 -16
v -2.5 1.5 -16
v -3 1.5 -16
v -2.5 1.5 -16
v -3 1.5 -16
v -2.5 1.5 -16.5
v -3 1.5 -16.5
v -2.5 1 -16
v -2.5 1.5 -16
v -2.5 1 -16.5
v -2.5 1.5 -16.5
v -3 1 -16
v -3 1.5 -16
v -3 1 -16.5
v -3 1.5 -16.5
v -2.5 1.5 -17
v -3 1.5 -17
v -2.5 1.5 -17.5
v -3 1.5 -17.5
v -2.5 1 -17
v -2.5 1.5 -17
v -2.5 1.000002 -17.5
v -2.5 1.5 -17.5
v -2.5 1.500002 -20.5
v -3 1.500002 -20.5
v -2.5 1.500002 -21
v -3 1.500002 -21
v -2.5 1.500002 -21.5
v -3 1.500002 -21.5
v -2.5 1.500002 -22
v -3 1.500002 -22
v -2.5 2 -12
v -16 2 -12
v -2.5 2 -13
v -16 2 -13
v -2.5 1.5 -12
v -2.5 2 -12
v -2.5 1.5 -13
v -2.5 2 -13
v -2.5 1.5 -13
v -3 1.5 -13
v -2.5 2 -13
v -3 2 -13
v -2.5 1.5 -14.5
v -3 1.5 -14.5
v -2.5 2 -14.5
v -3 2 -14.5
v -2.5 1.5 -14
v -3 1.5 -14
v -2.5 2 -14
v -3 2 -14
v -2.5 2 -14
v -16 2 -14
v -2.5 2 -14.5
v -16 2 -14.5
v -2.5 1.5 -14
v -2.5 2 -14
v -2.5 1.5 -14.5
v -2.5 2 -14.5
v -2.5 1.5 -17
v -3 1.5 -17
v -2.5 2 -17
v -3 2 -17
v -2.5 1.5 -16.5
v -3 1.5 -16.5
v -2.5 2 -16.5
v -3 2 -16.5
v -2.5 2 -16.5
v -3 2 -16.5
v -2.5 2 -17
v -3 2 -17
v -2.5 1.5 -16.5
v -2.5 2 -16.5
v -2.5 1.5 -17
v -2.5 2 -17
v -3 1.5 -16.5
v -3 2 -16.5
v -3 1.5 -17
v -3 2 -17
v -3 1.500002 -18.5
v -3 2.000002 -18.5
v -3 1.500002 -20.5
v -3 2.000002 -20.5
v -2.5 2.000002 -19
v -3 2.000002 -19
v -2.5 2.000002 -20.5
v -3 2.000002 -20.5
v -2.5 1.500002 -20.5
v -3 1.500002 -20.5
v -2.5 2.000002 -20.5
v -3 2.000002 -20.5
v -2.5 1.500002 -21.5
v -3 1.500002 -21.5
v -2.5 2.000002 -21.5
v -3 2.000002 -21.5
v -2.5 1.500002 -21
v -3 1.500002 -21
v -2.5 2.000002 -21
v -3 2.000002 -21
v -2.5 2.000002 -21
v -16 2.000002 -21
v -2.5 2.000002 -21.5
v -16 2.000002 -21.5
v -2.5 1.500002 -22
v -3 1.500002 -22
v -2.5 2.000002 -22
v -3 2.000002 -22
v -2.5 2.000002 -22
v -16 2.000002 -22
v -2.5 2.000002 -22.5
v -16 2.000002 -22.5
v -2.5 1.500002 -22
v -2.5 2.000002 -22
v -2.5 1.500002 -22.5
v -2.5 2.000002 -22.5
v -3 1 -15.5
v -3.5 1 -15.5
v -3 1 -16.5
v -3.5 1 -16.5
v -3 1 -15.5
v -3.5 1 -15.5
v -3 1.5 -15.5
v -3.5 1.5 -15.5
v -3 1.5 -15
v -3.5 1.5 -15
v -3 1.5 -15.5
v -3.5 1.5 -15.5
v -3 1 -15
v -3 1.5 -15
v -3 1 -15.5
v -3 1.5 -15.5
v -3 1 -16.5
v -4 1 -16.5
v -3 1.5 -16.5
v -4 1.5 -16.5
v -3 1.5 -16.5
v -4 1.5 -16.5
v -3 1.5 -17
v -4 1.5 -17
v -3 1.500002 -18.5
v -3.5 1.500002 -18.5
v -3 1.500002 -20.5
v -3.5 1.500002 -20.5
v -3 2 -13
v -16 2 -13
v -3 2 -14
v -16 2 -14
v -3 1.5 -13
v -3 2 -13
v -3 1.5 -14
v -3 2 -14
v -3 1.5 -15
v -3.5 1.5 -15
v -3 2 -15
v -3.5 2 -15
v -3 2 -14.5
v -16 2 -14.5
v -3 2 -15
v -16 2 -15
v -3 1.5 -14.5
v -3 2 -14.5
v -3 1.5 -15
v -3 2 -15
v -3 1.5 -17
v -3.5 1.5 -17
v -3 2 -17
v -3.5 2 -17
v -3 2 -17
v -3.5 2 -17
v -3 2.000002 -18.5
v -3.5 2.000002 -18.5
v -3 1.5 -17
v -3 2 -17
v -3 1.500002 -18.5
v -3 2.000002 -18.5
v -3.5 1.5 -17
v -3.5 2 -17
v -3.5 1.5 -17.5
v -3.5 2 -17.5
v -3 1.500002 -18.5
v -3.5 1.500002 -18.5
v -3 2.000002 -18.5
v -3.5 2.000002 -18.5
v -3 1.500002 -20.5
v -3.5 1.500002 -20.5
v -3 2.000002 -20.5
v -3.5 2.000002 -20.5
v -3 2.000002 -20.5
v -16 2.000002 -20.5
v -3 2.000002 -21
v -16 2.000002 -21
v -3 1.500002 -20.5
v -3 2.000002 -20.5
v -3 1.500002 -21
v -3 2.000002 -21
v -3 2.000002 -21.5
v -16 2.000002 -21.5
v -3 2.000002 -22
v -16 2.000002 -22
v -3 1.500002 -21.5
v -3 2.000002 -21.5
v -3 1.500002 -22
v -3 2.000002 -22
v -3.5 1 -16
v -4 1 -16
v -3.5 1 -16.5
v -4 1 -16.5
v -3.5 1 -16
v -4 1 -16
v -3.5 1.5 -16
v -4 1.5 -16
v -3.5 1.5 -15.5
v -4 1.5 -15.5
v -3.5 1.5 -16
v -4 1.5 -16
v -3.5 1 -15.5
v -3.5 1.5 -15.5
v -3.5 1 -16
v -3.5 1.5 -16
v -4 1 -16.5
v -4 1.5 -16.5
v -4 1 -17
v -4 1.5 -17
v -3.5 1.5 -17
v -4.5 1.5 -17
v -3.5 1.5 -17.5
v -4.5 1.5 -17.5
v -3.5 1.5 -15.5
v -4 1.5 -15.5
v -3.5 2 -15.5
v -4 2 -15.5
v -3.5 2 -15
v -16 2 -15
v -3.5 2 -15.5
v -16 2 -15.5
v -3.5 1.5 -15
v -3.5 2 -15
v -3.5 1.5 -15.5
v -3.5 2 -15.5
v -3.5 1.5 -17.5
v -4.5 1.5 -17.5
v -3.5 2 -17.5
v -4.5 2 -17.5
v -3.5 2 -17.5
v -4.5 2 -17.5
v -3.5 2.000002 -20.5
v -4.5 2.000002 -20.5
v -3.5 1.500002 -18.5
v -3.5 2.000002 -18.5
v -3.5 1.500002 -20.5
v -3.5 2.000002 -20.5
v -4 1 -16.5
v -4.5 1 -16.5
v -4 1 -17
v -4.5 1 -17
v -4 1 -16.5
v -4.5 1 -16.5
v -4 1.5 -16.5
v -4.5 1.5 -16.5
v -4 1.5 -16
v -4.5 1.5 -16
v -4 1.5 -16.5
v -4.5 1.5 -16.5
v -4 1 -16
v -4 1.5 -16
v -4 1 -16.5
v -4 1.5 -16.5
v -4 1 -17
v -4.5 1 -17
v -4 1.5 -17
v -4.5 1.5 -17
v -4 1.5 -16
v -4.5 1.5 -16
v -4 2 -16
v -4.5 2 -16
v -4 2 -15.5
v -16 2 -15.5
v -4 2 -16
v -16 2 -16
v -4 1.5 -15.5
v -4 2 -15.5
v -4 1.5 -16
v -4 2 -16
v -4.5 1.5 -17.5
v -4.5 2 -17.5
v -4.5 1.500002 -18
v -4.5 2 -18
v -4.5 1.5 -16.5
v -5 1.5 -16.5
v -4.5 1.5 -17
v -5 1.5 -17
v -4.5 1 -16.5
v -4.5 1.5 -16.5
v -4.5 1 -17
v -4.5 1.5 -17
v -4.5 1.5 -17.5
v -5 1.5 -17.5
v -4.5 1.500002 -18
v -5 1.500002 -18
v -4.5 1.5 -16.5
v -5 1.5 -16.5
v -4.5 2 -16.5
v -5 2 -16.5
v -4.5 2 -16
v -16 2 -16
v -4.5 2 -16.5
v -16 2 -16.5
v -4.5 1.5 -16
v -4.5 2 -16
v -4.5 1.5 -16.5
v -4.5 2 -16.5
v -4.5 1.5 -17.5
v -5 1.5 -17.5
v -4.5 2 -17.5
v -5 2 -17.5
v -4.5 1.5 -17
v -5 1.5 -17
v -4.5 2 -17
v -5 2 -17
v -4.5 2 -17
v -5 2 -17
v -4.5 2 -17.5
v -5 2 -17.5
v -4.5 1.5 -17
v -4.5 2 -17
v -4.5 1.5 -17.5
v -4.5 2 -17.5
v -5 1.5 -17
v -5 2 -17
v -5 1.5 -17.5
v -5 2 -17.5
v -4.5 1.500002 -18
v -5 1.500002 -18
v -4.5 2 -18
v -5 2 -18
v -4.5 2 -18
v -5.5 2 -18
v -4.5 2.000002 -20.5
v -5.5 2.000002 -20.5
v -5 1.5 -17
v -5.5 1.5 -17
v -5 1.5 -17.5
v -5.5 1.5 -17.5
v -5 1.5 -17
v -5.5 1.5 -17
v -5 2 -17
v -5.5 2 -17
v -5 2 -16.5
v -16 2 -16.5
v -5 2 -17
v -16 2 -17
v -5 1.5 -16.5
v -5 2 -16.5
v -5 1.5 -17
v -5 2 -17
v -5 1.5 -17.5
v -5.5 1.5 -17.5
v -5 2 -17.5
v -5.5 2 -17.5
v -5 2 -17.5
v -16 2 -17.5
v -5 2 -18
v -16 2 -18
v -5 1.5 -17.5
v -5 2 -17.5
v -5 1.500002 -18
v -5 2 -18
v -5.5 1.500002 -18
v -5.5 2 -18
v -5.5 1.500002 -18.5
v -5.5 2.000002 -18.5
v -5.5 1.500002 -18
v -6.5 1.500002 -18
v -5.5 1.500002 -18.5
v -6.5 1.500002 -18.5
v -5.5 2 -17
v -16 2 -17
v -5.5 2 -17.5
v -16 2 -17.5
v -5.5 1.5 -17
v -5.5 2 -17
v -5.5 1.5 -17.5
v -5.5 2 -17.5
v -5.5 1.500002 -18
v -6.5 1.500002 -18
v -5.5 2 -18
v -6.5 2 -18
v -5.5 1.500002 -18.5
v -6.5 1.500002 -18.5
v -5.5 2.000002 -18.5
v -6.5 2.000002 -18.5
v -5.5 2.000002 -18.5
v -6.5 2.000002 -18.5
v -5.5 2.000002 -20.5
v -6.5 2.000002 -20.5
v -6.5 1.500002 -18.5
v -6.5 2.000002 -18.5
v -6.5 1.500002 -19
v -6.5 2.000002 -19
v -6.5 1.500002 -18.5
v -7.5 1.500002 -18.5
v -6.5 1.500002 -19
v -7.5 1.500002 -19
v -6.5 1.500002 -18.5
v -7.5 1.500002 -18.5
v -6.5 2.000002 -18.5
v -7.5 2.000002 -18.5
v -6.5 2 -18
v -7.5 2 -18
v -6.5 2.000002 -18.5
v -7.5 2.000002 -18.5
v -6.5 1.500002 -18
v -6.5 2 -18
v -6.5 1.500002 -18.5
v -6.5 2.000002 -18.5
v -6.5 1.500002 -19
v -7.5 1.500002 -19
v -6.5 2.000002 -19
v -7.5 2.000002 -19
v -6.5 2.000002 -19
v -9.5 2.000002 -19
v -6.5 2.000002 -20.5
v -9.5 2.000002 -20.5
v -7.5 1.500002 -18
v -7.5 2 -18
v -7.5 1.500002 -18.5
v -7.5 2.000002 -18.5
v -7.5 1.500002 -18
v -8 1.500002 -18
v -7.5 1.500002 -18.5
v -8 1.500002 -18.5
v -7.5 1.500002 -18
v -8 1.500002 -18
v -7.5 2 -18
v -8 2 -18
v -7.5 1.500002 -18.5
v -8 1.500002 -18.5
v -7.5 2.000002 -18.5
v -8 2.000002 -18.5
v -7.5 2.000002 -18.5
v -9 2.000002 -18.5
v -7.5 2.000002 -19
v -9 2.000002 -19
v -7.5 1.500002 -18.5
v -7.5 2.000002 -18.5
v -7.5 1.500002 -19
v -7.5 2.000002 -19
v -8 2 -18
v -16 2 -18
v -8 2.000002 -18.5
v -16 2.000002 -18.5
v -8 1.500002 -18
v -8 2 -18
v -8 1.500002 -18.5
v -8 2.000002 -18.5
v -9 1.500002 -18.5
v -9 2.000002 -18.5
v -9 1.500002 -19
v -9 2.000002 -19
v -9 1.500002 -18.5
v -10 1.500002 -18.5
v -9 1.500002 -19
v -10 1.500002 -19
v -9 1.500002 -18.5
v -10 1.500002 -18.5
v -9 2.000002 -18.5
v -10 2.000002 -18.5
v -9 1.500002 -19
v -9.5 1.500002 -19
v -9 2.000002 -19
v -9.5 2.000002 -19
v -9.5 1.500002 -19
v -9.5 2.000002 -19
v -9.5 1.500002 -19.5
v -9.5 2.000002 -19.5
v -9.5 1.500002 -19
v -10 1.500002 -19
v -9.5 1.500002 -19.5
v -10 1.500002 -19.5
v -9.5 1.500002 -19.5
v -10 1.500002 -19.5
v -9.5 2.000002 -19.5
v -10 2.000002 -19.5
v -9.5 2.000002 -19.5
v -16 2.000002 -19.5
v -9.5 2.000002 -20.5
v -16 2.000002 -20.5
v -10 2.000002 -18.5
v -16 2.000002 -18.5
v -10 2.000002 -19.5
v -16 2.000002 -19.5
v -10 1.500002 -18.5
v -10 2.000002 -18.5
v -10 1.500002 -19.5
v -10 2.000002 -19.5
v -16 0 1.907349E-06
v -16 2 1.907349E-06
v -16 1.907349E-06 -32
v -16 2.000002 -32
vn 0 -5.960464E-08 0.9999999
vn 0 -0.9999999 -5.960464E-08
vn 1 0 0
vn 0 5.960464E-08 -0.9999999
vn 0 0.9999999 5.960464E-08
vn -1 0 0
vt 0.0078125 0.9296875
vt 0.2578125 0.9296875
vt 0.0078125 0.9609375
vt 0.2578125 0.9609375
vt 0.0078125 0.0078125
vt 0.2578125 0.0078125
vt 0.0078125 0.5078125
vt 0.2578125 0.5078125
vt 0.2890625 0.0078125
vt 0.3203125 0.0078125
vt 0.2890625 0.5078125
vt 0.3203125 0.5078125
vt 0.4609375 0.0078125
vt 0.7109375 0.0078125
vt 0.4609375 0.0390625
vt 0.7109375 0.0390625
vt 0.4140625 0.0078125
vt 0.4296875 0.0078125
vt 0.4140625 0.5078125
vt 0.4296875 0.5078125
vt 0.4140625 0.6015625
vt 0.421875 0.6015625
vt 0.4140625 0.6328125
vt 0.421875 0.6328125
vt 0.4140625 0.6640625
vt 0.421875 0.6640625
vt 0.4140625 0.6875
vt 0.421875 0.6875
vt 0.2890625 0.9765625
vt 0.875 0.3515625
vt 0.8828125 0.3515625
vt 0.875 0.3671875
vt 0.8828125 0.3671875
vt 0.0078125 0.5390625
vt 0.2421875 0.5390625
vt 0.0078125 0.71875
vt 0.2421875 0.71875
vt 0.4140625 0.8828125
vt 0.4296875 0.8828125
vt 0.4140625 0.890625
vt 0.4296875 0.890625
vt 0.3203125 0.9765625
vt 0.2890625 0.5390625
vt 0.296875 0.5390625
vt 0.2890625 0.796875
vt 0.296875 0.796875
vt 0.3515625 0.84375
vt 0.359375 0.84375
vt 0.3515625 0.875
vt 0.359375 0.875
vt 0.3515625 0.5390625
vt 0.359375 0.5390625
vt 0.3515625 0.59375
vt 0.359375 0.59375
vt 0.953125 0.3125
vt 0.9453125 0.0703125
vt 0.96875 0.0703125
vt 0.9453125 0.078125
vt 0.96875 0.078125
vt 0.3515625 0.96875
vt 0.375 0.96875
vt 0.3515625 0.9765625
vt 0.375 0.9765625
vt 0.4140625 0.96875
vt 0.4296875 0.96875
vt 0.4140625 0.9765625
vt 0.4296875 0.9765625
vt 0.0078125 0.75
vt 0.234375 0.75
vt 0.0078125 0.8984375
vt 0.234375 0.8984375
vt 0.6953125 0.0703125
vt 0.9140625 0.0703125
vt 0.6953125 0.078125
vt 0.9140625 0.078125
vt 0.3515625 0.765625
vt 0.359375 0.765625
vt 0.3515625 0.8125
vt 0.359375 0.8125
vt 0.3515625 0.625
vt 0.359375 0.625
vt 0.3515625 0.671875
vt 0.359375 0.671875
vt 0.859375 0.3125
vt 0.890625 0.3125
vt 0.7421875 0.0078125
vt 0.953125 0.0078125
vt 0.7421875 0.0234375
vt 0.953125 0.0234375
vt 0.4609375 0.15625
vt 0.671875 0.15625
vt 0.4609375 0.1640625
vt 0.671875 0.1640625
vt 0.3515625 0.90625
vt 0.359375 0.90625
vt 0.3515625 0.9375
vt 0.359375 0.9375
vt 0.4140625 0.828125
vt 0.421875 0.828125
vt 0.4140625 0.8515625
vt 0.421875 0.8515625
vt 0.96875 0.2734375
vt 0.9765625 0.1953125
vt 0.4609375 0.1171875
vt 0.671875 0.1171875
vt 0.4609375 0.125
vt 0.671875 0.125
vt 0.703125 0.1171875
vt 0.9140625 0.1171875
vt 0.703125 0.125
vt 0.9140625 0.125
vt 0.4609375 0.0703125
vt 0.6640625 0.0703125
vt 0.4609375 0.0859375
vt 0.6640625 0.0859375
vt 0.4140625 0.921875
vt 0.421875 0.921875
vt 0.4140625 0.9375
vt 0.421875 0.9375
vt 0.6953125 0.1953125
vt 0.8984375 0.1953125
vt 0.6953125 0.203125
vt 0.8984375 0.203125
vt 0.4140625 0.71875
vt 0.421875 0.71875
vt 0.4140625 0.7421875
vt 0.421875 0.7421875
vt 0.4140625 0.7734375
vt 0.421875 0.7734375
vt 0.4140625 0.796875
vt 0.421875 0.796875
vt 0.4609375 0.1953125
vt 0.6640625 0.1953125
vt 0.4609375 0.203125
vt 0.6640625 0.203125
vt 0.703125 0.15625
vt 0.90625 0.15625
vt 0.703125 0.1640625
vt 0.90625 0.1640625
vt 0.4609375 0.234375
vt 0.65625 0.234375
vt 0.4609375 0.2421875
vt 0.65625 0.2421875
vt 0.2890625 0.828125
vt 0.3046875 0.828125
vt 0.2890625 0.875
vt 0.3046875 0.875
vt 0.4140625 0.5390625
vt 0.421875 0.5390625
vt 0.4140625 0.5703125
vt 0.421875 0.5703125
vt 0.953125 0.3515625
vt 0.6875 0.234375
vt 0.875 0.234375
vt 0.6875 0.2421875
vt 0.875 0.2421875
vt 0.4609375 0.2734375
vt 0.640625 0.2734375
vt 0.4609375 0.28125
vt 0.640625 0.28125
vt 0.2890625 0.90625
vt 0.3046875 0.90625
vt 0.2890625 0.9453125
vt 0.3046875 0.9453125
vt 0.4609375 0.3125
vt 0.6328125 0.3125
vt 0.4609375 0.3203125
vt 0.6328125 0.3203125
vt 0.671875 0.2734375
vt 0.84375 0.2734375
vt 0.671875 0.28125
vt 0.84375 0.28125
vt 0.5390625 0.3984375
vt 0.6640625 0.3125
vt 0.828125 0.3125
vt 0.6640625 0.3203125
vt 0.828125 0.3203125
vt 0.9375 0.15625
vt 0.953125 0.15625
vt 0.9375 0.1640625
vt 0.953125 0.1640625
vt 0.9296875 0.1953125
vt 0.9453125 0.1953125
vt 0.9296875 0.203125
vt 0.9453125 0.203125
vt 0.3515625 0.703125
vt 0.3671875 0.703125
vt 0.3515625 0.734375
vt 0.3671875 0.734375
vt 0.90625 0.234375
vt 0.921875 0.234375
vt 0.90625 0.2421875
vt 0.921875 0.2421875
vt 0.953125 0.234375
vt 0.96875 0.234375
vt 0.953125 0.2421875
vt 0.96875 0.2421875
vt 0.875 0.2734375
vt 0.890625 0.2734375
vt 0.875 0.28125
vt 0.890625 0.28125
vt 0.4609375 0.3984375
vt 0.5078125 0.3984375
vt 0.4609375 0.421875
vt 0.5078125 0.421875
vt 0.921875 0.3125
vt 0.9453125 0.1171875
vt 0.96875 0.1171875
vt 0.9453125 0.125
vt 0.96875 0.125
vt 0.71875 0.3515625
vt 0.84375 0.3515625
vt 0.71875 0.359375
vt 0.84375 0.359375
vt 0.921875 0.2734375
vt 0.9375 0.2734375
vt 0.921875 0.28125
vt 0.9375 0.28125
vt 0.4609375 0.3515625
vt 0.5625 0.3515625
vt 0.4609375 0.3671875
vt 0.5625 0.3671875
vt 0.59375 0.3515625
vt 0.6875 0.3515625
vt 0.59375 0.3671875
vt 0.6875 0.3671875
vt 0.9140625 0.3515625
vt 0.921875 0.3515625
vt 0.9140625 0.3671875
vt 0.921875 0.3671875
vt 0.3515625 0.0078125
vt 0.3828125 0.0078125
vt 0.3515625 0.5078125
vt 0.3828125 0.5078125
usemtl voxel
f 2/2/1 1/1/1 3/3/1
f 2/2/1 3/3/1 4/4/1
f 5/5/2 6/6/2 7/7/2
f 7/7/2 6/6/2 8/8/2
f 10/10/3 9/9/3 11/11/3
f 10/10/3 11/11/3 12/12/3
f 13/13/4 14/14/4 15/15/4
f 15/15/4 14/14/4 16/16/4
f 18/18/5 17/17/5 19/19/5
f 18/18/5 19/19/5 20/20/5
f 21/21/6 22/22/6 23/23/6
f 23/23/6 22/22/6 24/24/6
f 25/25/6 26/26/6 27/27/6
f 27/27/6 26/26/6 28/28/6
f 30/29/5 29/29/5 31/29/5
f 30/29/5 31/29/5 32/29/5
f 33/30/6 34/31/6 35/32/6
f 35/32/6 34/31/6 36/33/6
f 38/29/5 37/29/5 39/29/5
f 38/29/5 39/29/5 40/29/5
f 42/35/5 41/34/5 43/36/5
f 42/35/5 43/36/5 44/37/5
f 45/38/4 46/39/4 47/40/4
f 47/40/4 46/39/4 48/41/4
f 49/29/4 50/29/4 51/29/4
f 51/29/4 50/29/4 52/29/4
f 54/29/1 53/29/1 55/29/1
f 54/29/1 55/29/1 56/29/1
f 58/29/5 57/29/5 59/29/5
f 58/29/5 59/29/5 60/29/5
f 61/29/6 62/29/6 63/29/6
f 63/29/6 62/29/6 64/29/6
f 66/42/1 65/42/1 67/42/1
f 66/42/1 67/42/1 68/42/1
f 70/44/5 69/43/5 71/45/5
f 70/44/5 71/45/5 72/46/5
f 73/47/6 74/48/6 75/49/6
f 75/49/6 74/48/6 76/50/6
f 77/29/6 78/29/6 79/29/6
f 79/29/6 78/29/6 80/29/6
f 81/51/6 82/52/6 83/53/6
f 83/53/6 82/52/6 84/54/6
f 86/55/5 85/55/5 87/55/5
f 86/55/5 87/55/5 88/55/5
f 90/29/5 89/29/5 91/29/5
f 90/29/5 91/29/5 92/29/5
f 93/29/4 94/29/4 95/29/4
f 95/29/4 94/29/4 96/29/4
f 98/29/1 97/29/1 99/29/1
f 98/29/1 99/29/1 100/29/1
f 101/29/6 102/29/6 103/29/6
f 103/29/6 102/29/6 104/29/6
f 106/29/5 105/29/5 107/29/5
f 106/29/5 107/29/5 108/29/5
f 109/29/6 110/29/6 111/29/6
f 111/29/6 110/29/6 112/29/6
f 114/29/5 113/29/5 115/29/5
f 114/29/5 115/29/5 116/29/5
f 118/29/5 117/29/5 119/29/5
f 118/29/5 119/29/5 120/29/5
f 121/29/4 122/29/4 123/29/4
f 123/29/4 122/29/4 124/29/4
f 126/29/1 125/29/1 127/29/1
f 126/29/1 127/29/1 128/29/1
f 130/29/5 129/29/5 131/29/5
f 130/29/5 131/29/5 132/29/5
f 133/29/6 134/29/6 135/29/6
f 135/29/6 134/29/6 136/29/6
f 137/29/4 138/29/4 139/29/4
f 139/29/4 138/29/4 140/29/4
f 142/57/1 141/56/1 143/58/1
f 142/57/1 143/58/1 144/59/1
f 146/61/5 145/60/5 147/62/5
f 146/61/5 147/62/5 148/63/5
f 150/65/1 149/64/1 151/66/1
f 150/65/1 151/66/1 152/67/1
f 154/69/5 153/68/5 155/70/5
f 154/69/5 155/70/5 156/71/5
f 158/55/5 157/55/5 159/55/5
f 158/55/5 159/55/5 160/55/5
f 162/55/5 161/55/5 163/55/5
f 162/55/5 163/55/5 164/55/5
f 166/29/5 165/29/5 167/29/5
f 166/29/5 167/29/5 168/29/5
f 169/29/4 170/29/4 171/29/4
f 171/29/4 170/29/4 172/29/4
f 174/29/5 173/29/5 175/29/5
f 174/29/5 175/29/5 176/29/5
f 177/29/4 178/29/4 179/29/4
f 179/29/4 178/29/4 180/29/4
f 182/29/1 181/29/1 183/29/1
f 182/29/1 183/29/1 184/29/1
f 186/29/5 185/29/5 187/29/5
f 186/29/5 187/29/5 188/29/5
f 190/29/1 189/29/1 191/29/1
f 190/29/1 191/29/1 192/29/1
f 194/29/5 193/29/5 195/29/5
f 194/29/5 195/29/5 196/29/5
f 198/29/5 197/29/5 199/29/5
f 198/29/5 199/29/5 200/29/5
f 201/29/4 202/29/4 203/29/4
f 203/29/4 202/29/4 204/29/4
f 206/73/5 205/72/5 207/74/5
f 206/73/5 207/74/5 208/75/5
f 210/29/3 209/29/3 211/29/3
f 210/29/3 211/29/3 212/29/3
f 214/77/5 213/76/5 215/78/5
f 214/77/5 215/78/5 216/79/5
f 218/81/3 217/80/3 219/82/3
f 218/81/3 219/82/3 220/83/3
f 221/84/6 222/84/6 223/84/6
f 223/84/6 222/84/6 224/84/6
f 225/85/4 226/85/4 227/85/4
f 227/85/4 226/85/4 228/85/4
f 229/85/6 230/85/6 231/85/6
f 231/85/6 230/85/6 232/85/6
f 234/55/5 233/55/5 235/55/5
f 234/55/5 235/55/5 236/55/5
f 238/29/5 237/29/5 239/29/5
f 238/29/5 239/29/5 240/29/5
f 242/29/3 241/29/3 243/29/3
f 242/29/3 243/29/3 244/29/3
f 245/29/4 246/29/4 247/29/4
f 247/29/4 246/29/4 248/29/4
f 250/29/5 249/29/5 251/29/5
f 250/29/5 251/29/5 252/29/5
f 254/29/3 253/29/3 255/29/3
f 254/29/3 255/29/3 256/29/3
f 258/29/1 257/29/1 259/29/1
f 258/29/1 259/29/1 260/29/1
f 262/29/5 261/29/5 263/29/5
f 262/29/5 263/29/5 264/29/5
f 266/29/3 265/29/3 267/29/3
f 266/29/3 267/29/3 268/29/3
f 269/29/6 270/29/6 271/29/6
f 271/29/6 270/29/6 272/29/6
f 274/29/5 273/29/5 275/29/5
f 274/29/5 275/29/5 276/29/5
f 278/29/3 277/29/3 279/29/3
f 278/29/3 279/29/3 280/29/3
f 282/29/5 281/29/5 283/29/5
f 282/29/5 283/29/5 284/29/5
f 286/29/5 285/29/5 287/29/5
f 286/29/5 287/29/5 288/29/5
f 290/87/5 289/86/5 291/88/5
f 290/87/5 291/88/5 292/89/5
f 294/29/3 293/29/3 295/29/3
f 294/29/3 295/29/3 296/29/3
f 297/29/4 298/29/4 299/29/4
f 299/29/4 298/29/4 300/29/4
f 301/29/4 302/29/4 303/29/4
f 303/29/4 302/29/4 304/29/4
f 306/29/1 305/29/1 307/29/1
f 306/29/1 307/29/1 308/29/1
f 310/91/5 309/90/5 311/92/5
f 310/91/5 311/92/5 312/93/5
f 314/29/3 313/29/3 315/29/3
f 314/29/3 315/29/3 316/29/3
f 317/29/4 318/29/4 319/29/4
f 319/29/4 318/29/4 320/29/4
f 322/29/1 321/29/1 323/29/1
f 322/29/1 323/29/1 324/29/1
f 326/29/5 325/29/5 327/29/5
f 326/29/5 327/29/5 328/29/5
f 330/29/3 329/29/3 331/29/3
f 330/29/3 331/29/3 332/29/3
f 333/29/6 334/29/6 335/29/6
f 335/29/6 334/29/6 336/29/6
f 337/94/6 338/95/6 339/96/6
f 339/96/6 338/95/6 340/97/6
f 342/99/5 341/98/5 343/100/5
f 342/99/5 343/100/5 344/101/5
f 345/102/4 346/102/4 347/102/4
f 347/102/4 346/102/4 348/102/4
f 349/103/4 350/103/4 351/103/4
f 351/103/4 350/103/4 352/103/4
f 354/103/1 353/103/1 355/103/1
f 354/103/1 355/103/1 356/103/1
f 358/105/5 357/104/5 359/106/5
f 358/105/5 359/106/5 360/107/5
f 362/29/1 361/29/1 363/29/1
f 362/29/1 363/29/1 364/29/1
f 366/109/5 365/108/5 367/110/5
f 366/109/5 367/110/5 368/111/5
f 370/29/3 369/29/3 371/29/3
f 370/29/3 371/29/3 372/29/3
f 374/55/5 373/55/5 375/55/5
f 374/55/5 375/55/5 376/55/5
f 377/29/4 378/29/4 379/29/4
f 379/29/4 378/29/4 380/29/4
f 382/29/5 381/29/5 383/29/5
f 382/29/5 383/29/5 384/29/5
f 386/29/3 385/29/3 387/29/3
f 386/29/3 387/29/3 388/29/3
f 390/29/1 389/29/1 391/29/1
f 390/29/1 391/29/1 392/29/1
f 394/29/5 393/29/5 395/29/5
f 394/29/5 395/29/5 396/29/5
f 398/29/5 397/29/5 399/29/5
f 398/29/5 399/29/5 400/29/5
f 402/113/5 401/112/5 403/114/5
f 402/113/5 403/114/5 404/115/5
f 406/117/3 405/116/3 407/118/3
f 406/117/3 407/118/3 408/119/3
f 409/29/4 410/29/4 411/29/4
f 411/29/4 410/29/4 412/29/4
f 414/121/5 413/120/5 415/122/5
f 414/121/5 415/122/5 416/123/5
f 418/29/3 417/29/3 419/29/3
f 418/29/3 419/29/3 420/29/3
f 422/29/1 421/29/1 423/29/1
f 422/29/1 423/29/1 424/29/1
f 426/125/5 425/124/5 427/126/5
f 426/125/5 427/126/5 428/127/5
f 430/129/3 429/128/3 431/130/3
f 430/129/3 431/130/3 432/131/3
f 433/29/6 434/29/6 435/29/6
f 435/29/6 434/29/6 436/29/6
f 437/29/4 438/29/4 439/29/4
f 439/29/4 438/29/4 440/29/4
f 442/29/1 441/29/1 443/29/1
f 442/29/1 443/29/1 444/29/1
f 446/133/5 445/132/5 447/134/5
f 446/133/5 447/134/5 448/135/5
f 450/29/3 449/29/3 451/29/3
f 450/29/3 451/29/3 452/29/3
f 454/137/5 453/136/5 455/138/5
f 454/137/5 455/138/5 456/139/5
f 458/103/3 457/103/3 459/103/3
f 458/103/3 459/103/3 460/103/3
f 462/55/5 461/55/5 463/55/5
f 462/55/5 463/55/5 464/55/5
f 465/29/4 466/29/4 467/29/4
f 467/29/4 466/29/4 468/29/4
f 470/29/5 469/29/5 471/29/5
f 470/29/5 471/29/5 472/29/5
f 474/29/3 473/29/3 475/29/3
f 474/29/3 475/29/3 476/29/3
f 477/29/6 478/29/6 479/29/6
f 479/29/6 478/29/6 480/29/6
f 482/29/5 481/29/5 483/29/5
f 482/29/5 483/29/5 484/29/5
f 485/29/4 486/29/4 487/29/4
f 487/29/4 486/29/4 488/29/4
f 490/141/5 489/140/5 491/142/5
f 490/141/5 491/142/5 492/143/5
f 494/29/3 493/29/3 495/29/3
f 494/29/3 495/29/3 496/29/3
f 498/29/1 497/29/1 499/29/1
f 498/29/1 499/29/1 500/29/1
f 502/145/5 501/144/5 503/146/5
f 502/145/5 503/146/5 504/147/5
f 506/149/3 505/148/3 507/150/3
f 506/149/3 507/150/3 508/151/3
f 510/55/5 509/55/5 511/55/5
f 510/55/5 511/55/5 512/55/5
f 513/29/4 514/29/4 515/29/4
f 515/29/4 514/29/4 516/29/4
f 518/29/5 517/29/5 519/29/5
f 518/29/5 519/29/5 520/29/5
f 522/29/3 521/29/3 523/29/3
f 522/29/3 523/29/3 524/29/3
f 526/29/1 525/29/1 527/29/1
f 526/29/1 527/29/1 528/29/1
f 529/152/4 530/152/4 531/152/4
f 531/152/4 530/152/4 532/152/4
f 534/154/5 533/153/5 535/155/5
f 534/154/5 535/155/5 536/156/5
f 538/152/3 537/152/3 539/152/3
f 538/152/3 539/152/3 540/152/3
f 541/29/6 542/29/6 543/29/6
f 543/29/6 542/29/6 544/29/6
f 546/29/5 545/29/5 547/29/5
f 546/29/5 547/29/5 548/29/5
f 550/29/3 549/29/3 551/29/3
f 550/29/3 551/29/3 552/29/3
f 554/29/5 553/29/5 555/29/5
f 554/29/5 555/29/5 556/29/5
f 557/29/4 558/29/4 559/29/4
f 559/29/4 558/29/4 560/29/4
f 562/158/5 561/157/5 563/159/5
f 562/158/5 563/159/5 564/160/5
f 566/29/3 565/29/3 567/29/3
f 566/29/3 567/29/3 568/29/3
f 569/152/4 570/152/4 571/152/4
f 571/152/4 570/152/4 572/152/4
f 574/152/1 573/152/1 575/152/1
f 574/152/1 575/152/1 576/152/1
f 578/152/5 577/152/5 579/152/5
f 578/152/5 579/152/5 580/152/5
f 582/152/3 581/152/3 583/152/3
f 582/152/3 583/152/3 584/152/3
f 585/152/6 586/152/6 587/152/6
f 587/152/6 586/152/6 588/152/6
f 590/152/1 589/152/1 591/152/1
f 590/152/1 591/152/1 592/152/1
f 594/162/5 593/161/5 595/163/5
f 594/162/5 595/163/5 596/164/5
f 598/29/5 597/29/5 599/29/5
f 598/29/5 599/29/5 600/29/5
f 601/29/4 602/29/4 603/29/4
f 603/29/4 602/29/4 604/29/4
f 606/166/5 605/165/5 607/167/5
f 606/166/5 607/167/5 608/168/5
f 610/29/3 609/29/3 611/29/3
f 610/29/3 611/29/3 612/29/3
f 614/103/1 613/103/1 615/103/1
f 614/103/1 615/103/1 616/103/1
f 618/170/5 617/169/5 619/171/5
f 618/170/5 619/171/5 620/172/5
f 622/103/3 621/103/3 623/103/3
f 622/103/3 623/103/3 624/103/3
f 625/173/6 626/173/6 627/173/6
f 627/173/6 626/173/6 628/173/6
f 630/29/5 629/29/5 631/29/5
f 630/29/5 631/29/5 632/29/5
f 634/175/5 633/174/5 635/176/5
f 634/175/5 635/176/5 636/177/5
f 638/84/3 637/84/3 639/84/3
f 638/84/3 639/84/3 640/84/3
f 641/178/4 642/179/4 643/180/4
f 643/180/4 642/179/4 644/181/4
f 646/183/1 645/182/1 647/184/1
f 646/183/1 647/184/1 648/185/1
f 650/187/5 649/186/5 651/188/5
f 650/187/5 651/188/5 652/189/5
f 653/103/6 654/103/6 655/103/6
f 655/103/6 654/103/6 656/103/6
f 658/29/5 657/29/5 659/29/5
f 658/29/5 659/29/5 660/29/5
f 661/190/4 662/191/4 663/192/4
f 663/192/4 662/191/4 664/193/4
f 666/195/5 665/194/5 667/196/5
f 666/195/5 667/196/5 668/197/5
f 670/103/3 669/103/3 671/103/3
f 670/103/3 671/103/3 672/103/3
f 674/199/1 673/198/1 675/200/1
f 674/199/1 675/200/1 676/201/1
f 678/203/5 677/202/5 679/204/5
f 678/203/5 679/204/5 680/205/5
f 681/85/6 682/85/6 683/85/6
f 683/85/6 682/85/6 684/85/6
f 686/29/5 685/29/5 687/29/5
f 686/29/5 687/29/5 688/29/5
f 689/206/4 690/206/4 691/206/4
f 691/206/4 690/206/4 692/206/4
f 694/42/1 693/42/1 695/42/1
f 694/42/1 695/42/1 696/42/1
f 698/208/5 697/207/5 699/209/5
f 698/208/5 699/209/5 700/210/5
f 702/42/3 701/42/3 703/42/3
f 702/42/3 703/42/3 704/42/3
f 706/212/5 705/211/5 707/213/5
f 706/212/5 707/213/5 708/214/5
f 710/29/3 709/29/3 711/29/3
f 710/29/3 711/29/3 712/29/3
f 713/85/6 714/85/6 715/85/6
f 715/85/6 714/85/6 716/85/6
f 718/29/5 717/29/5 719/29/5
f 718/29/5 719/29/5 720/29/5
f 721/215/4 722/216/4 723/217/4
f 723/217/4 722/216/4 724/218/4
f 726/29/1 725/29/1 727/29/1
f 726/29/1 727/29/1 728/29/1
f 729/29/6 730/29/6 731/29/6
f 731/29/6 730/29/6 732/29/6
f 734/29/5 733/29/5 735/29/5
f 734/29/5 735/29/5 736/29/5
f 738/42/1 737/42/1 739/42/1
f 738/42/1 739/42/1 740/42/1
f 742/220/5 741/219/5 743/221/5
f 742/220/5 743/221/5 744/222/5
f 746/224/5 745/223/5 747/225/5
f 746/224/5 747/225/5 748/226/5
f 750/228/3 749/227/3 751/229/3
f 750/228/3 751/229/3 752/230/3
f 753/231/6 754/232/6 755/233/6
f 755/233/6 754/232/6 756/234/6
